Pipeline/32BitProcessor/execution_tb.vcd
$date
	Wed Aug  5 09:56:52 2015
$end
$version
	Icarus Verilog
$end
$timescale
	1s
$end
$scope module testbench $end
$scope module fetch_test $end
$var wire 1 ! clock $end
$var wire 32 " fetchoutput [31:0] $end
$var wire 1 # flush $end
$var wire 20 $ instruction_rd1 [19:0] $end
$var wire 16 % instruction_rd1_out [15:0] $end
$var wire 9 & pcchange [8:0] $end
$var wire 3 ' pcjumpenable [2:0] $end
$var wire 6 ( pclocation [5:0] $end
$var wire 1 ) reset $end
$var reg 16 * fetch1 [15:0] $end
$var reg 16 + fetch2 [15:0] $end
$var reg 20 , previous_programcounter [19:0] $end
$var reg 20 - programcounter [19:0] $end
$upscope $end
$upscope $end
$scope module testbench $end
$scope module decoder_test $end
$var wire 1 . bit_check $end
$var wire 32 / fetchoutput [31:0] $end
$var wire 1 # flush $end
$var reg 6 0 destination [5:0] $end
$var reg 6 1 opcode [5:0] $end
$var reg 6 2 operationnumber [5:0] $end
$var reg 22 3 signed_1 [21:0] $end
$var reg 16 4 signed_2 [15:0] $end
$var reg 10 5 signed_3 [9:0] $end
$var reg 6 6 source_1 [5:0] $end
$var reg 6 7 source_2 [5:0] $end
$var reg 1 8 super_duper_a $end
$var reg 1 9 super_duper_b $end
$var reg 6 : unsigned_1 [5:0] $end
$var reg 16 ; unsigned_2 [15:0] $end
$var reg 9 < unsigned_3 [8:0] $end
$var reg 10 = unsigned_4 [9:0] $end
$var reg 9 > unsigned_5 [8:0] $end
$upscope $end
$upscope $end
$scope module testbench $end
$scope module execution_test $end
$var wire 1 ! clock $end
$var wire 32 ? data_rd1_out [31:0] $end
$var wire 32 @ data_rd2_out [31:0] $end
$var wire 32 A data_rd3_out [31:0] $end
$var wire 32 B data_rd4_out [31:0] $end
$var wire 6 C destination [5:0] $end
$var wire 6 D operationnumber [5:0] $end
$var wire 20 E previous_programcounter [19:0] $end
$var wire 16 F reg_rd1_out [15:0] $end
$var wire 16 G reg_rd2_out [15:0] $end
$var wire 16 H reg_rd3_out [15:0] $end
$var wire 1 ) reset $end
$var wire 22 I signed_1 [21:0] $end
$var wire 16 J signed_2 [15:0] $end
$var wire 10 K signed_3 [9:0] $end
$var wire 6 L source_1 [5:0] $end
$var wire 6 M source_2 [5:0] $end
$var wire 1 N super_duper_a $end
$var wire 1 O super_duper_b $end
$var wire 6 P unsigned_1 [5:0] $end
$var wire 16 Q unsigned_2 [15:0] $end
$var wire 9 R unsigned_3 [8:0] $end
$var wire 10 S unsigned_4 [9:0] $end
$var wire 9 T unsigned_5 [8:0] $end
$var reg 1 U carrybit $end
$var reg 17 V carryreg [16:0] $end
$var reg 9 W data_rd1 [8:0] $end
$var reg 9 X data_rd2 [8:0] $end
$var reg 9 Y data_rd3 [8:0] $end
$var reg 9 Z data_rd4 [8:0] $end
$var reg 9 [ data_wr1 [8:0] $end
$var reg 32 \ data_wr1_data [31:0] $end
$var reg 1 ] data_wr1_enable $end
$var reg 9 ^ data_wr2 [8:0] $end
$var reg 32 _ data_wr2_data [31:0] $end
$var reg 1 ` data_wr2_enable $end
$var reg 9 a data_wr3 [8:0] $end
$var reg 32 b data_wr3_data [31:0] $end
$var reg 1 c data_wr3_enable $end
$var reg 9 d data_wr4 [8:0] $end
$var reg 32 e data_wr4_data [31:0] $end
$var reg 1 f data_wr4_enable $end
$var reg 9 g pcchange [8:0] $end
$var reg 3 h pcjumpenable [2:0] $end
$var reg 6 i pclocation [5:0] $end
$var reg 6 j reg_rd1 [5:0] $end
$var reg 6 k reg_rd2 [5:0] $end
$var reg 6 l reg_rd3 [5:0] $end
$var reg 6 m reg_wr1 [5:0] $end
$var reg 16 n reg_wr1_data [15:0] $end
$var reg 1 o reg_wr1_enable $end
$var reg 6 p reg_wr2 [5:0] $end
$var reg 16 q reg_wr2_data [15:0] $end
$var reg 1 r reg_wr2_enable $end
$upscope $end
$upscope $end
$scope module testbench $end
$scope module registerfile_tb $end
$var wire 1 ! clock $end
$var wire 6 s reg_rd1 [5:0] $end
$var wire 16 t reg_rd1_out [15:0] $end
$var wire 6 u reg_rd2 [5:0] $end
$var wire 16 v reg_rd2_out [15:0] $end
$var wire 6 w reg_rd3 [5:0] $end
$var wire 16 x reg_rd3_out [15:0] $end
$var wire 6 y reg_wr1 [5:0] $end
$var wire 16 z reg_wr1_data [15:0] $end
$var wire 1 { reg_wr1_enable $end
$var wire 6 | reg_wr2 [5:0] $end
$var wire 16 } reg_wr2_data [15:0] $end
$var wire 1 ~ reg_wr2_enable $end
$var wire 1 ) reset $end
$upscope $end
$upscope $end
$scope module testbench $end
$scope module TheInstructionMemory_test $end
$var wire 1 ! clock $end
$var wire 20 !" instruction_rd1 [19:0] $end
$var wire 16 "" instruction_rd1_out [15:0] $end
$var wire 20 #" instruction_rd2 [19:0] $end
$var wire 16 $" instruction_rd2_out [15:0] $end
$var wire 20 %" instruction_rd3 [19:0] $end
$var wire 16 &" instruction_rd3_out [15:0] $end
$var wire 20 '" instruction_rd4 [19:0] $end
$var wire 16 (" instruction_rd4_out [15:0] $end
$var wire 20 )" instruction_wr1 [19:0] $end
$var wire 16 *" instruction_wr1_data [15:0] $end
$var wire 1 +" instruction_wr1_enable $end
$var wire 20 ," instruction_wr2 [19:0] $end
$var wire 16 -" instruction_wr2_data [15:0] $end
$var wire 1 ." instruction_wr2_enable $end
$var wire 20 /" instruction_wr3 [19:0] $end
$var wire 16 0" instruction_wr3_data [15:0] $end
$var wire 1 1" instruction_wr3_enable $end
$var wire 20 2" instruction_wr4 [19:0] $end
$var wire 16 3" instruction_wr4_data [15:0] $end
$var wire 1 4" instruction_wr4_enable $end
$var wire 1 ) reset $end
$upscope $end
$upscope $end
$scope module testbench $end
$scope module TheDataMemory_test $end
$var wire 1 ! clock $end
$var wire 9 5" data_rd1 [8:0] $end
$var wire 32 6" data_rd1_out [31:0] $end
$var wire 9 7" data_rd2 [8:0] $end
$var wire 32 8" data_rd2_out [31:0] $end
$var wire 9 9" data_rd3 [8:0] $end
$var wire 32 :" data_rd3_out [31:0] $end
$var wire 9 ;" data_rd4 [8:0] $end
$var wire 32 <" data_rd4_out [31:0] $end
$var wire 9 =" data_wr1 [8:0] $end
$var wire 32 >" data_wr1_data [31:0] $end
$var wire 1 ?" data_wr1_enable $end
$var wire 9 @" data_wr2 [8:0] $end
$var wire 32 A" data_wr2_data [31:0] $end
$var wire 1 B" data_wr2_enable $end
$var wire 9 C" data_wr3 [8:0] $end
$var wire 32 D" data_wr3_data [31:0] $end
$var wire 1 E" data_wr3_enable $end
$var wire 9 F" data_wr4 [8:0] $end
$var wire 32 G" data_wr4_data [31:0] $end
$var wire 1 H" data_wr4_enable $end
$var wire 1 ) reset $end
$upscope $end
$upscope $end
$enddefinitions $end
#0
$dumpvars
xH"
bx G"
bx F"
xE"
bx D"
bx C"
xB"
bx A"
bx @"
x?"
bx >"
bx ="
bx <"
bx ;"
bx :"
bx 9"
bx 8"
bx 7"
bx 6"
bx 5"
z4"
bxz 3"
bxz 2"
z1"
bxz 0"
bxz /"
z."
bxz -"
bxz ,"
z+"
bxz *"
bxz )"
bx ("
bz '"
bx &"
bz %"
bx $"
bz #"
bx ""
bx !"
x~
bx }
bx |
x{
bx z
bx y
bx x
bx w
bx v
bx u
bx t
bx s
xr
bx q
bx p
xo
bx n
bx m
bx l
bx k
bx j
bx i
bx h
bx g
xf
bx e
bx d
xc
bx b
bx a
x`
bx _
bx ^
x]
bx \
bx [
bx Z
bx Y
bx X
bx W
bx V
xU
bx T
bx S
bx R
bx Q
bx P
xO
xN
bx M
bx L
bx K
bx J
bx I
bx H
bx G
bx F
bx E
bx D
bx C
bx B
bx A
bx @
bx ?
bx >
bx =
bx <
bx ;
bx :
x9
x8
bx 7
bx 6
bx 5
bx 4
bx 3
bx 2
bx 1
bx 0
bx /
x.
bx -
bx ,
bx +
bx *
x)
bx (
bx '
bx &
bx %
bx $
x#
bx "
0!
$end
#1
b0 h
b0 '
0f
0H"
0c
0E"
0`
0B"
0]
0?"
0r
0~
0o
0{
1!
#2
0!
1)
#3
b0 -
b0 %
b0 ""
b0 $
b0 !"
1!
#4
0!
0)
#5
b1 ,
b1 E
b0 +
bx0000000000000000 "
bx0000000000000000 /
b1 -
b1 $
b1 !"
1!
#6
0!
#7
b0 2
b0 D
b0 5
b0 K
b0 4
b0 J
b0 3
b0 I
b0 <
b0 R
b0 ;
b0 Q
b0 :
b0 P
b0 7
b0 M
b0 6
b0 L
b0 0
b0 C
b0 1
0.
0#
b10 ,
b10 E
b0 *
b0 "
b0 /
b10 -
b10 $
b10 !"
1!
#8
0!
#9
b11 ,
b11 E
b11 -
b11 $
b11 !"
b0 l
b0 H
b0 x
b0 w
b0 k
b0 G
b0 v
b0 u
b0 j
b0 F
b0 t
b0 s
1!
#10
0!
#11
b100 ,
b100 E
b100 -
b100 $
b100 !"
1!
#12
0!
#13
b101 ,
b101 E
b101 -
b101 $
b101 !"
1!
#14
0!
#15
b110 ,
b110 E
b110 -
b110 $
b110 !"
1!
#16
0!
#17
b111 ,
b111 E
b111 -
b111 $
b111 !"
1!
#18
0!
#19
b1000 ,
b1000 E
b1001111001001100 +
b1001111001001100 "
b1001111001001100 /
b1000 -
b1001111001001100 %
b1001111001001100 ""
b1000 $
b1000 !"
1!
#20
0!
#21
19
1O
18
1N
b1111 2
b1111 D
b1111 1
b1000001 5
b1000001 K
b1000100001 4
b1000100001 J
b1000000000001001100 3
b1000000000001001100 I
b10100 >
b10100 T
b1100 =
b1100 S
b1001100 ;
b1001100 Q
b100 :
b100 P
b100 7
b100 M
b1 6
b1 L
b1 0
b1 C
1.
1#
b1001 ,
b1001 E
b1000000000 +
b1001111001001100 *
b10011110010011000000001000000000 "
b10011110010011000000001000000000 /
b1001 -
b1000000000 %
b1000000000 ""
b1001 $
b1001 !"
1!
#22
0!
#23
b0 2
b0 D
b1 5
b1 K
b1 4
b1 J
b1 3
b1 I
b1 <
b1 R
b1 ;
b1 Q
b1 :
b1 P
b1 7
b1 M
b0 6
b0 L
b0 0
b0 C
b0 1
0.
0#
b1001100 F
b1001100 t
b1001100 H
b1001100 x
1o
1{
b1001100 n
b1001100 z
b1 m
b1 y
b1 l
b1 w
b100 k
b100 u
b1 j
b1 s
b1010 ,
b1010 E
b1111010000100 +
b1 *
b10001111010000100 "
b10001111010000100 /
b1010 -
b1111010000100 %
b1111010000100 ""
b1010 $
b1010 !"
1!
#24
0!
#25
b1111 2
b1111 D
b10000100 5
b10000100 K
b10000100 4
b10000100 J
b10000100 3
b10000100 I
b10000100 <
b10000100 R
b100 ;
b100 Q
b100 :
b100 P
b100 7
b100 M
b10 0
b10 C
b1111 1
b1011 ,
b1011 E
b1011001010 +
b1111010000100 *
b11110100001000000001011001010 "
b11110100001000000001011001010 /
b1011 -
b1011001010 %
b1011001010 ""
b1011 $
b1011 !"
b0 l
b0 H
b0 x
b0 w
b1 k
b1001100 G
b1001100 v
b1 u
b0 j
b0 F
b0 t
b0 s
0o
0{
1!
#26
0!
#27
b1 2
b1 D
b11001010 5
b11001010 K
b11001010 4
b11001010 J
b11001010 3
b11001010 I
b11001010 <
b11001010 R
b1010 ;
b1010 Q
b10 :
b10 P
b10 7
b10 M
b1 6
b1 L
b11 0
b11 C
b1 1
b100 H
b100 x
1o
1{
b100 n
b100 z
b10 m
b10 y
b10 l
b10 w
b100 k
b0 G
b0 v
b100 u
b1100 ,
b1100 E
b1001101100001001 +
b1011001010 *
b10110010101001101100001001 "
b10110010101001101100001001 /
b1100 -
b1001101100001001 %
b1001101100001001 ""
b1100 $
b1100 !"
1!
#28
0!
#29
09
0O
08
0N
b1101 2
b1101 D
b1101 1
b100 5
b100 K
b1100 4
b1100 J
b100001001 3
b100001001 I
b1 >
b1 T
b1 =
b1 S
b1001 ;
b1001 Q
b1 :
b1 P
b1 7
b1 M
b1 6
b100 0
b100 C
1.
1#
b1101 ,
b1101 E
b0 +
b1001101100001001 *
b10011011000010010000000000000000 "
b10011011000010010000000000000000 /
b1101 -
b0 %
b0 ""
b1101 $
b1101 !"
bx n
bx z
b11 m
b11 y
b11 l
bx H
bx x
b11 w
b10 k
b100 G
b100 v
b10 u
b1 j
b1001100 F
b1001100 t
b1 s
1o
1{
1!
#30
0!
#31
b0 2
b0 D
b1 5
b1 K
b1 4
b1 J
b1 3
b1 I
b1 <
b1 R
b1 ;
b1 Q
b0 6
b0 L
b0 0
b0 C
b0 1
0.
0#
b10011000 n
b10011000 z
b10011000 V
b100 m
b100 y
b100 l
b10011000 H
b10011000 x
b100 w
b1 k
b1001100 G
b1001100 v
b1 u
1o
1{
b1110 ,
b1110 E
b11100001100000 +
b1 *
b10011100001100000 "
b10011100001100000 /
b1110 -
b11100001100000 %
b11100001100000 ""
b1110 $
b1110 !"
1!
#32
0!
#33
b11100 2
b11100 D
b1100000 5
b1100000 K
b1100000 4
b1100000 J
b1100000 3
b1100000 I
b1100000 <
b1100000 R
b100000 ;
b100000 Q
b0 :
b0 P
b0 7
b0 M
b100 6
b100 L
b1 0
b1 C
b11100 1
b1111 ,
b1111 E
b100000000010000 +
b11100001100000 *
b111000011000000100000000010000 "
b111000011000000100000000010000 /
b1111 -
b100000000010000 %
b100000000010000 ""
b1111 $
b1111 !"
b0 l
b0 H
b0 x
b0 w
b0 j
b0 F
b0 t
b0 s
0o
0{
1!
#34
0!
#35
b100000 2
b100000 D
b10000 5
b10000 K
b10000 4
b10000 J
b10000 3
b10000 I
b10000 <
b10000 R
b10000 ;
b10000 Q
b10 6
b10 L
b0 0
b0 C
b100000 1
1]
1?"
b10011000 \
b10011000 >"
b1 [
b1 ="
b1 l
b1001100 H
b1001100 x
b1 w
b0 k
b0 G
b0 v
b0 u
b100 j
b10011000 F
b10011000 t
b100 s
b10000 ,
b10000 E
b1011001010 +
b100000000010000 *
b1000000000100000000001011001010 "
b1000000000100000000001011001010 /
b10000 -
b1011001010 %
b1011001010 ""
b10000 $
b10000 !"
1!
#36
0!
#37
b0 2
b0 D
b1 5
b1 K
b1 4
b1 J
b1 3
b1 I
b1 <
b1 R
b1 ;
b1 Q
b1 :
b1 P
b1 7
b1 M
b0 6
b0 L
b0 1
b1 +
b1 *
b10000000000000001 "
b10000000000000001 /
b11111 -
b0 %
b0 ""
b11111 $
b11111 !"
b1 h
b1 '
b10000 g
b10000 &
b0 l
b0 H
b0 x
b0 w
b10 j
b100 F
b100 t
b10 s
0]
0?"
1!
#38
0!
#39
b0 h
b0 '
b1 k
b1001100 G
b1001100 v
b1 u
b0 j
b0 F
b0 t
b0 s
b0 +
b10000000000000000 "
b10000000000000000 /
1!
#40
0!
#41
b0 5
b0 K
b0 4
b0 J
b0 3
b0 I
b0 <
b0 R
b0 ;
b0 Q
b0 :
b0 P
b0 7
b0 M
b100000 ,
b100000 E
b0 *
b0 "
b0 /
b100000 -
b100000 $
b100000 !"
1!
#42
0!
#43
b0 k
b0 G
b0 v
b0 u
b100001 ,
b100001 E
b100001 -
b100001 $
b100001 !"
1!
#44
0!
#45
b100010 ,
b100010 E
b100010 -
b100010 $
b100010 !"
1!
#46
0!
#47
b100011 ,
b100011 E
b100011 -
b100011 $
b100011 !"
1!
#48
0!
#49
b100100 ,
b100100 E
b100100 -
b100100 $
b100100 !"
1!
#50
0!
#51
b100101 ,
b100101 E
b100101 -
b100101 $
b100101 !"
1!
#52
0!
#53
b100110 ,
b100110 E
b100110 -
b100110 $
b100110 !"
1!
#54
0!
#55
b100111 ,
b100111 E
b100111 -
b100111 $
b100111 !"
1!
#56
0!
#57
b101000 ,
b101000 E
b101000 -
b101000 $
b101000 !"
1!
#58
0!
#59
b101001 ,
b101001 E
b101001 -
b101001 $
b101001 !"
1!
#60
0!
#61
b101010 ,
b101010 E
b101010 -
b101010 $
b101010 !"
1!
#62
0!
#63
b101011 ,
b101011 E
b101011 -
b101011 $
b101011 !"
1!
#64
0!
#65
b101100 ,
b101100 E
b101100 -
b101100 $
b101100 !"
1!
#66
0!
#67
b101101 ,
b101101 E
b101101 -
b101101 $
b101101 !"
1!
#68
0!
#69
b101110 ,
b101110 E
b101110 -
b101110 $
b101110 !"
1!
#70
0!
#71
b101111 ,
b101111 E
b101111 -
b101111 $
b101111 !"
1!
#72
0!
#73
b110000 ,
b110000 E
b110000 -
b110000 $
b110000 !"
1!
#74
0!
#75
b110001 ,
b110001 E
b110001 -
b110001 $
b110001 !"
1!
#76
0!
#77
b110010 ,
b110010 E
b110010 -
b110010 $
b110010 !"
1!
#78
0!
#79
b110011 ,
b110011 E
b110011 -
b110011 $
b110011 !"
1!
#80
0!
#81
b110100 ,
b110100 E
b110100 -
b110100 $
b110100 !"
1!
#82
0!
#83
b110101 ,
b110101 E
b110101 -
b110101 $
b110101 !"
1!
#84
0!
#85
b110110 ,
b110110 E
b110110 -
b110110 $
b110110 !"
1!
#86
0!
#87
b110111 ,
b110111 E
b110111 -
b110111 $
b110111 !"
1!
#88
0!
#89
b111000 ,
b111000 E
b111000 -
b111000 $
b111000 !"
1!
#90
0!
#91
b111001 ,
b111001 E
b111001 -
b111001 $
b111001 !"
1!
#92
0!
#93
b111010 ,
b111010 E
b111010 -
b111010 $
b111010 !"
1!
#94
0!
#95
b111011 ,
b111011 E
b111011 -
b111011 $
b111011 !"
1!
#96
0!
#97
b111100 ,
b111100 E
b111100 -
b111100 $
b111100 !"
1!
#98
0!
#99
b111101 ,
b111101 E
b111101 -
b111101 $
b111101 !"
1!
#100
0!
#101
b111110 ,
b111110 E
b111110 -
b111110 $
b111110 !"
1!
#102
0!
#103
b111111 ,
b111111 E
b111111 -
b111111 $
b111111 !"
1!
#104
0!
#105
b1000000 ,
b1000000 E
b1000000 -
b1000000 $
b1000000 !"
1!
#106
0!
#107
b1000001 ,
b1000001 E
b1000001 -
b1000001 $
b1000001 !"
1!
#108
0!
#109
b1000010 ,
b1000010 E
b1000010 -
b1000010 $
b1000010 !"
1!
#110
0!
#111
b1000011 ,
b1000011 E
b1000011 -
b1000011 $
b1000011 !"
1!
#112
0!
#113
b1000100 ,
b1000100 E
b1000100 -
b1000100 $
b1000100 !"
1!
#114
0!
#115
b1000101 ,
b1000101 E
b1000101 -
b1000101 $
b1000101 !"
1!
#116
0!
#117
b1000110 ,
b1000110 E
b1000110 -
b1000110 $
b1000110 !"
1!
#118
0!
#119
b1000111 ,
b1000111 E
b1000111 -
b1000111 $
b1000111 !"
1!
#120
0!
#121
b1001000 ,
b1001000 E
b1001000 -
b1001000 $
b1001000 !"
1!
#122
0!
#123
b1001001 ,
b1001001 E
b1001001 -
b1001001 $
b1001001 !"
1!
#124
0!
#125
b1001010 ,
b1001010 E
b1001010 -
b1001010 $
b1001010 !"
1!
#126
0!
#127
b1001011 ,
b1001011 E
b1001011 -
b1001011 $
b1001011 !"
1!
#128
0!
#129
b1001100 ,
b1001100 E
b1001100 -
b1001100 $
b1001100 !"
1!
#130
0!
#131
b1001101 ,
b1001101 E
b1001101 -
b1001101 $
b1001101 !"
1!
#132
0!
#133
b1001110 ,
b1001110 E
b1001110 -
b1001110 $
b1001110 !"
1!
#134
0!
#135
b1001111 ,
b1001111 E
b1001111 -
b1001111 $
b1001111 !"
1!
#136
0!
#137
b1010000 ,
b1010000 E
b1010000 -
b1010000 $
b1010000 !"
1!
#138
0!
#139
b1010001 ,
b1010001 E
b1010001 -
b1010001 $
b1010001 !"
1!
#140
0!
#141
b1010010 ,
b1010010 E
b1010010 -
b1010010 $
b1010010 !"
1!
#142
0!
#143
b1010011 ,
b1010011 E
b1010011 -
b1010011 $
b1010011 !"
1!
#144
0!
#145
b1010100 ,
b1010100 E
b1010100 -
b1010100 $
b1010100 !"
1!
#146
0!
#147
b1010101 ,
b1010101 E
b1010101 -
b1010101 $
b1010101 !"
1!
#148
0!
#149
b1010110 ,
b1010110 E
b1010110 -
b1010110 $
b1010110 !"
1!
#150
0!
#151
b1010111 ,
b1010111 E
b1010111 -
b1010111 $
b1010111 !"
1!
#152
0!
#153
b1011000 ,
b1011000 E
b1011000 -
b1011000 $
b1011000 !"
1!
#154
0!
#155
b1011001 ,
b1011001 E
b1011001 -
b1011001 $
b1011001 !"
1!
#156
0!
#157
b1011010 ,
b1011010 E
b1011010 -
b1011010 $
b1011010 !"
1!
#158
0!
#159
b1011011 ,
b1011011 E
b1011011 -
b1011011 $
b1011011 !"
1!
#160
0!
#161
b1011100 ,
b1011100 E
b1011100 -
b1011100 $
b1011100 !"
1!
#162
0!
#163
b1011101 ,
b1011101 E
b1011101 -
b1011101 $
b1011101 !"
1!
#164
0!
#165
b1011110 ,
b1011110 E
b1011110 -
b1011110 $
b1011110 !"
1!
#166
0!
#167
b1011111 ,
b1011111 E
b1011111 -
b1011111 $
b1011111 !"
1!
#168
0!
#169
b1100000 ,
b1100000 E
b1100000 -
b1100000 $
b1100000 !"
1!
#170
0!
#171
b1100001 ,
b1100001 E
b1100001 -
b1100001 $
b1100001 !"
1!
#172
0!
#173
b1100010 ,
b1100010 E
b1100010 -
b1100010 $
b1100010 !"
1!
#174
0!
#175
b1100011 ,
b1100011 E
b1100011 -
b1100011 $
b1100011 !"
1!
#176
0!
#177
b1100100 ,
b1100100 E
b1100100 -
b1100100 $
b1100100 !"
1!
#178
0!
#179
b1100101 ,
b1100101 E
b1100101 -
b1100101 $
b1100101 !"
1!
#180
0!
#181
b1100110 ,
b1100110 E
b1100110 -
b1100110 $
b1100110 !"
1!
#182
0!
#183
b1100111 ,
b1100111 E
b1100111 -
b1100111 $
b1100111 !"
1!
#184
0!
#185
b1101000 ,
b1101000 E
b1101000 -
b1101000 $
b1101000 !"
1!
#186
0!
#187
b1101001 ,
b1101001 E
b1101001 -
b1101001 $
b1101001 !"
1!
#188
0!
#189
b1101010 ,
b1101010 E
b1101010 -
b1101010 $
b1101010 !"
1!
#190
0!
#191
b1101011 ,
b1101011 E
b1101011 -
b1101011 $
b1101011 !"
1!
#192
0!
#193
b1101100 ,
b1101100 E
b1101100 -
b1101100 $
b1101100 !"
1!
#194
0!
#195
b1101101 ,
b1101101 E
b1101101 -
b1101101 $
b1101101 !"
1!
#196
0!
#197
b1101110 ,
b1101110 E
b1101110 -
b1101110 $
b1101110 !"
1!
#198
0!
#199
b1101111 ,
b1101111 E
b1101111 -
b1101111 $
b1101111 !"
1!
#200
0!
#201
b1110000 ,
b1110000 E
b1110000 -
b1110000 $
b1110000 !"
1!
#202
0!
#203
b1110001 ,
b1110001 E
b1110001 -
b1110001 $
b1110001 !"
1!
#204
0!
#205
b1110010 ,
b1110010 E
b1110010 -
b1110010 $
b1110010 !"
1!
#206
0!
#207
b1110011 ,
b1110011 E
b1110011 -
b1110011 $
b1110011 !"
1!
#208
0!
#209
b1110100 ,
b1110100 E
b1110100 -
b1110100 $
b1110100 !"
1!
#210
0!
#211
b1110101 ,
b1110101 E
b1110101 -
b1110101 $
b1110101 !"
1!
#212
0!
#213
b1110110 ,
b1110110 E
b1110110 -
b1110110 $
b1110110 !"
1!
#214
0!
#215
b1110111 ,
b1110111 E
b1110111 -
b1110111 $
b1110111 !"
1!
#216
0!
#217
b1111000 ,
b1111000 E
b1111000 -
b1111000 $
b1111000 !"
1!
#218
0!
#219
b1111001 ,
b1111001 E
b1111001 -
b1111001 $
b1111001 !"
1!
#220
0!
#221
b1111010 ,
b1111010 E
b1111010 -
b1111010 $
b1111010 !"
1!
#222
0!
#223
b1111011 ,
b1111011 E
b1111011 -
b1111011 $
b1111011 !"
1!
#224
0!
#225
b1111100 ,
b1111100 E
b1111100 -
b1111100 $
b1111100 !"
1!
#226
0!
#227
b1111101 ,
b1111101 E
b1111101 -
b1111101 $
b1111101 !"
1!
#228
0!
#229
b1111110 ,
b1111110 E
b1111110 -
b1111110 $
b1111110 !"
1!
#230
0!
#231
b1111111 ,
b1111111 E
b1111111 -
b1111111 $
b1111111 !"
1!
#232
0!
#233
b10000000 ,
b10000000 E
b10000000 -
b10000000 $
b10000000 !"
1!
#234
0!
#235
b10000001 ,
b10000001 E
b10000001 -
b10000001 $
b10000001 !"
1!
#236
0!
#237
b10000010 ,
b10000010 E
b10000010 -
b10000010 $
b10000010 !"
1!
#238
0!
#239
b10000011 ,
b10000011 E
b10000011 -
b10000011 $
b10000011 !"
1!
#240
0!
#241
b10000100 ,
b10000100 E
b10000100 -
b10000100 $
b10000100 !"
1!
#242
0!
#243
b10000101 ,
b10000101 E
b10000101 -
b10000101 $
b10000101 !"
1!
#244
0!
#245
b10000110 ,
b10000110 E
b10000110 -
b10000110 $
b10000110 !"
1!
#246
0!
#247
b10000111 ,
b10000111 E
b10000111 -
b10000111 $
b10000111 !"
1!
#248
0!
#249
b10001000 ,
b10001000 E
b10001000 -
b10001000 $
b10001000 !"
1!
#250
0!
#251
b10001001 ,
b10001001 E
b10001001 -
b10001001 $
b10001001 !"
1!
#252
0!
#253
b10001010 ,
b10001010 E
b10001010 -
b10001010 $
b10001010 !"
1!
#254
0!
#255
b10001011 ,
b10001011 E
b10001011 -
b10001011 $
b10001011 !"
1!
#256
0!
#257
b10001100 ,
b10001100 E
b10001100 -
b10001100 $
b10001100 !"
1!
#258
0!
#259
b10001101 ,
b10001101 E
b10001101 -
b10001101 $
b10001101 !"
1!
#260
0!
#261
b10001110 ,
b10001110 E
b10001110 -
b10001110 $
b10001110 !"
1!
#262
0!
#263
b10001111 ,
b10001111 E
b10001111 -
b10001111 $
b10001111 !"
1!
#264
0!
#265
b10010000 ,
b10010000 E
b10010000 -
b10010000 $
b10010000 !"
1!
#266
0!
#267
b10010001 ,
b10010001 E
b10010001 -
b10010001 $
b10010001 !"
1!
#268
0!
#269
b10010010 ,
b10010010 E
b10010010 -
b10010010 $
b10010010 !"
1!
#270
0!
#271
b10010011 ,
b10010011 E
b10010011 -
b10010011 $
b10010011 !"
1!
#272
0!
#273
b10010100 ,
b10010100 E
b10010100 -
b10010100 $
b10010100 !"
1!
#274
0!
#275
b10010101 ,
b10010101 E
b10010101 -
b10010101 $
b10010101 !"
1!
#276
0!
#277
b10010110 ,
b10010110 E
b10010110 -
b10010110 $
b10010110 !"
1!
#278
0!
#279
b10010111 ,
b10010111 E
b10010111 -
b10010111 $
b10010111 !"
1!
#280
0!
#281
b10011000 ,
b10011000 E
b10011000 -
b10011000 $
b10011000 !"
1!
#282
0!
#283
b10011001 ,
b10011001 E
b10011001 -
b10011001 $
b10011001 !"
1!
#284
0!
#285
b10011010 ,
b10011010 E
b10011010 -
b10011010 $
b10011010 !"
1!
#286
0!
#287
b10011011 ,
b10011011 E
b10011011 -
b10011011 $
b10011011 !"
1!
#288
0!
#289
b10011100 ,
b10011100 E
b10011100 -
b10011100 $
b10011100 !"
1!
#290
0!
#291
b10011101 ,
b10011101 E
b10011101 -
b10011101 $
b10011101 !"
1!
#292
0!
#293
b10011110 ,
b10011110 E
b10011110 -
b10011110 $
b10011110 !"
1!
#294
0!
#295
b10011111 ,
b10011111 E
b10011111 -
b10011111 $
b10011111 !"
1!
#296
0!
#297
b10100000 ,
b10100000 E
b10100000 -
b10100000 $
b10100000 !"
1!
#298
0!
#299
b10100001 ,
b10100001 E
b10100001 -
b10100001 $
b10100001 !"
1!
#300
0!
#301
b10100010 ,
b10100010 E
b10100010 -
b10100010 $
b10100010 !"
1!
#302
0!
#303
b10100011 ,
b10100011 E
b10100011 -
b10100011 $
b10100011 !"
1!
#304
0!
#305
b10100100 ,
b10100100 E
b10100100 -
b10100100 $
b10100100 !"
1!
#306
0!
#307
b10100101 ,
b10100101 E
b10100101 -
b10100101 $
b10100101 !"
1!
#308
0!
#309
b10100110 ,
b10100110 E
b10100110 -
b10100110 $
b10100110 !"
1!
#310
0!
#311
b10100111 ,
b10100111 E
b10100111 -
b10100111 $
b10100111 !"
1!
#312
0!
#313
b10101000 ,
b10101000 E
b10101000 -
b10101000 $
b10101000 !"
1!
#314
0!
#315
b10101001 ,
b10101001 E
b10101001 -
b10101001 $
b10101001 !"
1!
#316
0!
#317
b10101010 ,
b10101010 E
b10101010 -
b10101010 $
b10101010 !"
1!
#318
0!
#319
b10101011 ,
b10101011 E
b10101011 -
b10101011 $
b10101011 !"
1!
#320
0!
#321
b10101100 ,
b10101100 E
b10101100 -
b10101100 $
b10101100 !"
1!
#322
0!
#323
b10101101 ,
b10101101 E
b10101101 -
b10101101 $
b10101101 !"
1!
#324
0!
#325
b10101110 ,
b10101110 E
b10101110 -
b10101110 $
b10101110 !"
1!
#326
0!
#327
b10101111 ,
b10101111 E
b10101111 -
b10101111 $
b10101111 !"
1!
#328
0!
#329
b10110000 ,
b10110000 E
b10110000 -
b10110000 $
b10110000 !"
1!
#330
0!
#331
b10110001 ,
b10110001 E
b10110001 -
b10110001 $
b10110001 !"
1!
#332
0!
#333
b10110010 ,
b10110010 E
b10110010 -
b10110010 $
b10110010 !"
1!
#334
0!
#335
b10110011 ,
b10110011 E
b10110011 -
b10110011 $
b10110011 !"
1!
#336
0!
#337
b10110100 ,
b10110100 E
b10110100 -
b10110100 $
b10110100 !"
1!
#338
0!
#339
b10110101 ,
b10110101 E
b10110101 -
b10110101 $
b10110101 !"
1!
#340
0!
#341
b10110110 ,
b10110110 E
b10110110 -
b10110110 $
b10110110 !"
1!
#342
0!
#343
b10110111 ,
b10110111 E
b10110111 -
b10110111 $
b10110111 !"
1!
#344
0!
#345
b10111000 ,
b10111000 E
b10111000 -
b10111000 $
b10111000 !"
1!
#346
0!
#347
b10111001 ,
b10111001 E
b10111001 -
b10111001 $
b10111001 !"
1!
#348
0!
#349
b10111010 ,
b10111010 E
b10111010 -
b10111010 $
b10111010 !"
1!
#350
0!
#351
b10111011 ,
b10111011 E
b10111011 -
b10111011 $
b10111011 !"
1!
#352
0!
