Pipeline/32BitProcessor/execution_tb.vcd
$date
	Tue Aug 11 14:11:08 2015
$end
$version
	Icarus Verilog
$end
$timescale
	1s
$end
$scope module testbench $end
$scope module fetch_test $end
$var wire 1 ! clock $end
$var wire 32 " fetchoutput [31:0] $end
$var wire 1 # flush $end
$var wire 20 $ instruction_rd1 [19:0] $end
$var wire 16 % instruction_rd1_out [15:0] $end
$var wire 9 & pcchange [8:0] $end
$var wire 3 ' pcjumpenable [2:0] $end
$var wire 6 ( pclocation [5:0] $end
$var wire 1 ) reset $end
$var wire 1 * stop $end
$var reg 16 + fetch1 [15:0] $end
$var reg 16 , fetch2 [15:0] $end
$var reg 20 - previous_programcounter [19:0] $end
$var reg 20 . programcounter [19:0] $end
$upscope $end
$upscope $end
$scope module testbench $end
$scope module decoder_test $end
$var wire 1 / bit_check $end
$var wire 32 0 fetchoutput [31:0] $end
$var wire 1 # flush $end
$var reg 6 1 destination [5:0] $end
$var reg 6 2 opcode [5:0] $end
$var reg 6 3 operationnumber [5:0] $end
$var reg 22 4 signed_1 [21:0] $end
$var reg 16 5 signed_2 [15:0] $end
$var reg 10 6 signed_3 [9:0] $end
$var reg 6 7 source_1 [5:0] $end
$var reg 6 8 source_2 [5:0] $end
$var reg 1 9 super_duper_a $end
$var reg 1 : super_duper_b $end
$var reg 6 ; unsigned_1 [5:0] $end
$var reg 16 < unsigned_2 [15:0] $end
$var reg 9 = unsigned_3 [8:0] $end
$var reg 10 > unsigned_4 [9:0] $end
$var reg 9 ? unsigned_5 [8:0] $end
$upscope $end
$upscope $end
$scope module testbench $end
$scope module execution_test $end
$var wire 1 @ carrybit $end
$var wire 1 ! clock $end
$var wire 32 A data_rd1_out [31:0] $end
$var wire 32 B data_rd2_out [31:0] $end
$var wire 32 C data_rd3_out [31:0] $end
$var wire 32 D data_rd4_out [31:0] $end
$var wire 6 E destination [5:0] $end
$var wire 6 F operationnumber [5:0] $end
$var wire 20 G previous_programcounter [19:0] $end
$var wire 16 H reg_rd1_out [15:0] $end
$var wire 16 I reg_rd2_out [15:0] $end
$var wire 16 J reg_rd3_out [15:0] $end
$var wire 1 ) reset $end
$var wire 22 K signed_1 [21:0] $end
$var wire 16 L signed_2 [15:0] $end
$var wire 10 M signed_3 [9:0] $end
$var wire 6 N source_1 [5:0] $end
$var wire 6 O source_2 [5:0] $end
$var wire 1 P super_duper_a $end
$var wire 1 Q super_duper_b $end
$var wire 6 R unsigned_1 [5:0] $end
$var wire 16 S unsigned_2 [15:0] $end
$var wire 9 T unsigned_3 [8:0] $end
$var wire 10 U unsigned_4 [9:0] $end
$var wire 9 V unsigned_5 [8:0] $end
$var reg 1 W carrybit_wr $end
$var reg 1 X carrybit_wr_enable $end
$var reg 17 Y carryreg [16:0] $end
$var reg 9 Z data_rd1 [8:0] $end
$var reg 9 [ data_rd2 [8:0] $end
$var reg 9 \ data_rd3 [8:0] $end
$var reg 9 ] data_rd4 [8:0] $end
$var reg 9 ^ data_wr1 [8:0] $end
$var reg 32 _ data_wr1_data [31:0] $end
$var reg 1 ` data_wr1_enable $end
$var reg 9 a data_wr2 [8:0] $end
$var reg 32 b data_wr2_data [31:0] $end
$var reg 1 c data_wr2_enable $end
$var reg 9 d data_wr3 [8:0] $end
$var reg 32 e data_wr3_data [31:0] $end
$var reg 1 f data_wr3_enable $end
$var reg 9 g data_wr4 [8:0] $end
$var reg 32 h data_wr4_data [31:0] $end
$var reg 1 i data_wr4_enable $end
$var reg 9 j pcchange [8:0] $end
$var reg 3 k pcjumpenable [2:0] $end
$var reg 6 l pclocation [5:0] $end
$var reg 6 m reg_rd1 [5:0] $end
$var reg 6 n reg_rd2 [5:0] $end
$var reg 6 o reg_rd3 [5:0] $end
$var reg 6 p reg_wr1 [5:0] $end
$var reg 16 q reg_wr1_data [15:0] $end
$var reg 1 r reg_wr1_enable $end
$var reg 6 s reg_wr2 [5:0] $end
$var reg 16 t reg_wr2_data [15:0] $end
$var reg 1 u reg_wr2_enable $end
$var reg 1 v stop $end
$upscope $end
$upscope $end
$scope module testbench $end
$scope module registerfile_tb $end
$var wire 1 w carrybit_wr $end
$var wire 1 x carrybit_wr_enable $end
$var wire 1 ! clock $end
$var wire 6 y reg_rd1 [5:0] $end
$var wire 16 z reg_rd1_out [15:0] $end
$var wire 6 { reg_rd2 [5:0] $end
$var wire 16 | reg_rd2_out [15:0] $end
$var wire 6 } reg_rd3 [5:0] $end
$var wire 16 ~ reg_rd3_out [15:0] $end
$var wire 6 !" reg_wr1 [5:0] $end
$var wire 16 "" reg_wr1_data [15:0] $end
$var wire 1 #" reg_wr1_enable $end
$var wire 6 $" reg_wr2 [5:0] $end
$var wire 16 %" reg_wr2_data [15:0] $end
$var wire 1 &" reg_wr2_enable $end
$var wire 1 ) reset $end
$var reg 1 '" carrybit $end
$upscope $end
$upscope $end
$scope module testbench $end
$scope module TheInstructionMemory_test $end
$var wire 1 ! clock $end
$var wire 20 (" instruction_rd1 [19:0] $end
$var wire 16 )" instruction_rd1_out [15:0] $end
$var wire 20 *" instruction_rd2 [19:0] $end
$var wire 16 +" instruction_rd2_out [15:0] $end
$var wire 20 ," instruction_rd3 [19:0] $end
$var wire 16 -" instruction_rd3_out [15:0] $end
$var wire 20 ." instruction_rd4 [19:0] $end
$var wire 16 /" instruction_rd4_out [15:0] $end
$var wire 20 0" instruction_wr1 [19:0] $end
$var wire 16 1" instruction_wr1_data [15:0] $end
$var wire 1 2" instruction_wr1_enable $end
$var wire 20 3" instruction_wr2 [19:0] $end
$var wire 16 4" instruction_wr2_data [15:0] $end
$var wire 1 5" instruction_wr2_enable $end
$var wire 20 6" instruction_wr3 [19:0] $end
$var wire 16 7" instruction_wr3_data [15:0] $end
$var wire 1 8" instruction_wr3_enable $end
$var wire 20 9" instruction_wr4 [19:0] $end
$var wire 16 :" instruction_wr4_data [15:0] $end
$var wire 1 ;" instruction_wr4_enable $end
$var wire 1 ) reset $end
$upscope $end
$upscope $end
$scope module testbench $end
$scope module TheDataMemory_test $end
$var wire 1 ! clock $end
$var wire 9 <" data_rd1 [8:0] $end
$var wire 32 =" data_rd1_out [31:0] $end
$var wire 9 >" data_rd2 [8:0] $end
$var wire 32 ?" data_rd2_out [31:0] $end
$var wire 9 @" data_rd3 [8:0] $end
$var wire 32 A" data_rd3_out [31:0] $end
$var wire 9 B" data_rd4 [8:0] $end
$var wire 32 C" data_rd4_out [31:0] $end
$var wire 9 D" data_wr1 [8:0] $end
$var wire 32 E" data_wr1_data [31:0] $end
$var wire 1 F" data_wr1_enable $end
$var wire 9 G" data_wr2 [8:0] $end
$var wire 32 H" data_wr2_data [31:0] $end
$var wire 1 I" data_wr2_enable $end
$var wire 9 J" data_wr3 [8:0] $end
$var wire 32 K" data_wr3_data [31:0] $end
$var wire 1 L" data_wr3_enable $end
$var wire 9 M" data_wr4 [8:0] $end
$var wire 32 N" data_wr4_data [31:0] $end
$var wire 1 O" data_wr4_enable $end
$var wire 1 ) reset $end
$upscope $end
$upscope $end
$enddefinitions $end
#0
$dumpvars
xO"
bx N"
bx M"
xL"
bx K"
bx J"
xI"
bx H"
bx G"
xF"
bx E"
bx D"
bx C"
bx B"
bx A"
bx @"
bx ?"
bx >"
bx ="
bx <"
z;"
bxz :"
bxz 9"
z8"
bxz 7"
bxz 6"
z5"
bxz 4"
bxz 3"
z2"
bxz 1"
bxz 0"
bx /"
bz ."
bx -"
bz ,"
bx +"
bz *"
bx )"
bx ("
x'"
x&"
bx %"
bx $"
x#"
bx ""
bx !"
bx ~
bx }
bx |
bx {
bx z
bx y
xx
xw
xv
xu
bx t
bx s
xr
bx q
bx p
bx o
bx n
bx m
bx l
bx k
bx j
xi
bx h
bx g
xf
bx e
bx d
xc
bx b
bx a
x`
bx _
bx ^
bx ]
bx \
bx [
bx Z
bx Y
xX
xW
bx V
bx U
bx T
bx S
bx R
xQ
xP
bx O
bx N
bx M
bx L
bx K
bx J
bx I
bx H
bx G
bx F
bx E
bx D
bx C
bx B
bx A
x@
bx ?
bx >
bx =
bx <
bx ;
x:
x9
bx 8
bx 7
bx 6
bx 5
bx 4
bx 3
bx 2
bx 1
bx 0
x/
bx .
bx -
bx ,
bx +
x*
x)
bx (
bx '
bx &
bx %
bx $
x#
bx "
0!
$end
#1
bx ,
0X
0x
b0 k
b0 '
0i
0O"
0f
0L"
0c
0I"
0`
0F"
0u
0&"
0r
0#"
1!
#2
0'"
0@
0!
1)
#3
b0 .
b100000000 %
b100000000 )"
b0 $
b0 ("
1!
#4
0!
0)
#5
b1 -
b1 G
b1 ,
bx0000000000000001 "
bx0000000000000001 0
b1 .
b1 $
b1 ("
1!
#6
0!
#7
0:
0Q
09
0P
b0 3
b0 F
b1 6
b1 M
b1 5
b1 L
b1 4
b1 K
b1 =
b1 T
b1 <
b1 S
b1 ;
b1 R
b1 8
b1 O
b0 7
b0 N
b0 1
b0 E
b0 2
0/
0#
b10 -
b10 G
b1 ,
b1 +
b10000000000000001 "
b10000000000000001 0
b10 .
b10 $
b10 ("
1!
#8
0!
#9
b11 -
b11 G
b1 ,
b11 .
b11 $
b11 ("
b0 o
b0 J
b0 ~
b0 }
b1 n
b0 I
b0 |
b1 {
b0 m
b0 H
b0 z
b0 y
1!
#10
0!
#11
b100 -
b100 G
b1 ,
b100 .
b100 $
b100 ("
1!
#12
0!
#13
b101 -
b101 G
b1 ,
b101 .
b101 $
b101 ("
1!
#14
0!
#15
b110 -
b110 G
b1 ,
b110 .
b110 $
b110 ("
1!
#16
0!
#17
b111 -
b111 G
b1 ,
b111 .
b111 $
b111 ("
1!
#18
0!
#19
b1000 -
b1000 G
b1111000100000 ,
b10001111000100000 "
b10001111000100000 0
b1000 .
b10000000011110 %
b10000000011110 )"
b1000 $
b1000 ("
1!
#20
0!
#21
b1111 3
b1111 F
b100000 6
b100000 M
b100000 5
b100000 L
b100000 4
b100000 K
b100000 =
b100000 T
b100000 <
b100000 S
b0 ;
b0 R
b0 8
b0 O
b100 7
b100 N
b1111 2
b1001 -
b1001 G
b1111001010000 ,
b1111000100000 +
b11110001000000001111001010000 "
b11110001000000001111001010000 0
b1001 .
b101000000011110 %
b101000000011110 )"
b1001 $
b1001 ("
1!
#22
0!
#23
b1010000 6
b1010000 M
b1010000 5
b1010000 L
b1010000 4
b1010000 K
b1010000 =
b1010000 T
b10000 <
b10000 S
b10 7
b10 N
b1 1
b1 E
b100000 I
b100000 |
b100000 J
b100000 ~
1r
1#"
b100000 q
b100000 ""
b0 p
b0 !"
b0 n
b0 {
b100 m
b100 y
b1010 -
b1010 G
b1010000001 ,
b1111001010000 +
b11110010100000000001010000001 "
b11110010100000000001010000001 0
b1010 .
b1000000100000010 %
b1000000100000010 )"
b1010 $
b1010 ("
1!
#24
0!
#25
b1 3
b1 F
b10000001 6
b10000001 M
b10000001 5
b10000001 L
b10000001 4
b10000001 K
b10000001 =
b10000001 T
b1 <
b1 S
b1 ;
b1 R
b1 8
b1 O
b0 7
b0 N
b10 1
b10 E
b1 2
b1011 -
b1011 G
b1000001011000001 ,
b1010000001 +
b10100000011000001011000001 "
b10100000011000001011000001 0
b1011 .
b1100000110000010 %
b1100000110000010 )"
b1011 $
b1011 ("
b10000 q
b10000 ""
b1 p
b1 !"
b1 o
b10000 J
b10000 ~
b1 }
b10 m
b10 y
1r
1#"
1!
#26
0!
#27
1:
1Q
19
1P
b1000011 6
b1000011 M
b1000001011 5
b1000001011 L
b1000000000011000001 4
b1000000000011000001 K
b10001 ?
b10001 V
b1001 >
b1001 U
b1000001 S
b1000001 <
b1 ;
b1 8
b0 7
b11 1
b11 E
1/
1#
b110000 q
b110000 ""
b10 p
b10 !"
b10 o
b110000 J
b110000 ~
b10 }
b1 n
b10000 I
b10000 |
b1 {
b0 m
b100000 H
b100000 z
b0 y
1r
1#"
b1100 -
b1100 G
b1000000000 ,
b1000001011000001 +
b10000010110000010000001000000000 "
b10000010110000010000001000000000 0
b1100 .
b10 %
b10 )"
b1100 $
b1100 ("
1!
#28
0!
#29
0:
0Q
09
0P
b0 3
b0 F
b1 6
b1 M
b1 5
b1 L
b1 4
b1 K
b1 =
b1 T
b1 <
b1 S
b0 1
b0 E
b0 2
0/
0#
b1101 -
b1101 G
b0 ,
b1 +
b10000000000000000 "
b10000000000000000 0
b1101 .
b0 %
b0 )"
b1101 $
b1101 ("
1X
1x
0W
0w
b110000 Y
b11 p
b11 !"
b11 o
b110000 J
b110000 ~
b11 }
1r
1#"
1!
#30
0!
#31
b0 6
b0 M
b0 5
b0 L
b0 4
b0 K
b0 =
b0 T
b0 <
b0 S
b0 ;
b0 R
b0 8
b0 O
0X
0x
b0 o
b100000 J
b100000 ~
b0 }
0r
0#"
b1110 -
b1110 G
b1 ,
b0 +
b1 "
b1 0
b1110 .
b100000000 %
b100000000 )"
b1110 $
b1110 ("
1!
#32
0!
#33
1v
1*
b0 n
b100000 I
b100000 |
b0 {
1!
