Pipeline/32BitProcessor/execution_tb.vcd
$date
	Mon Aug  3 09:15:28 2015
$end
$version
	Icarus Verilog
$end
$timescale
	1s
$end
$scope module testbench $end
$scope module fetch_test $end
$var wire 1 ! clock $end
$var wire 32 " fetchoutput [31:0] $end
$var wire 1 # flush $end
$var wire 20 $ instruction_rd1 [19:0] $end
$var wire 16 % instruction_rd1_out [15:0] $end
$var wire 9 & pcchange [8:0] $end
$var wire 3 ' pcjumpenable [2:0] $end
$var wire 6 ( pclocation [5:0] $end
$var wire 1 ) reset $end
$var reg 16 * fetch1 [15:0] $end
$var reg 16 + fetch2 [15:0] $end
$var reg 20 , previous_programcounter [19:0] $end
$var reg 20 - programcounter [19:0] $end
$upscope $end
$upscope $end
$scope module testbench $end
$scope module decoder_test $end
$var wire 1 . bit_check $end
$var wire 32 / fetchoutput [31:0] $end
$var wire 1 # flush $end
$var reg 6 0 destination [5:0] $end
$var reg 6 1 opcode [5:0] $end
$var reg 6 2 operationnumber [5:0] $end
$var reg 22 3 signed_1 [21:0] $end
$var reg 16 4 signed_2 [15:0] $end
$var reg 10 5 signed_3 [9:0] $end
$var reg 6 6 source_1 [5:0] $end
$var reg 6 7 source_2 [5:0] $end
$var reg 1 8 super_duper_a $end
$var reg 1 9 super_duper_b $end
$var reg 6 : unsigned_1 [5:0] $end
$var reg 16 ; unsigned_2 [15:0] $end
$var reg 9 < unsigned_3 [8:0] $end
$var reg 10 = unsigned_4 [9:0] $end
$var reg 9 > unsigned_5 [8:0] $end
$upscope $end
$upscope $end
$scope module testbench $end
$scope module execution_test $end
$var wire 1 ! clock $end
$var wire 32 ? data_rd1_out [31:0] $end
$var wire 32 @ data_rd2_out [31:0] $end
$var wire 32 A data_rd3_out [31:0] $end
$var wire 32 B data_rd4_out [31:0] $end
$var wire 6 C destination [5:0] $end
$var wire 6 D operationnumber [5:0] $end
$var wire 20 E previous_programcounter [19:0] $end
$var wire 16 F reg_rd1_out [15:0] $end
$var wire 16 G reg_rd2_out [15:0] $end
$var wire 16 H reg_rd3_out [15:0] $end
$var wire 1 ) reset $end
$var wire 22 I signed_1 [21:0] $end
$var wire 16 J signed_2 [15:0] $end
$var wire 10 K signed_3 [9:0] $end
$var wire 6 L source_1 [5:0] $end
$var wire 6 M source_2 [5:0] $end
$var wire 1 N super_duper_a $end
$var wire 1 O super_duper_b $end
$var wire 6 P unsigned_1 [5:0] $end
$var wire 16 Q unsigned_2 [15:0] $end
$var wire 9 R unsigned_3 [8:0] $end
$var wire 10 S unsigned_4 [9:0] $end
$var wire 9 T unsigned_5 [8:0] $end
$var reg 1 U carrybit $end
$var reg 17 V carryreg [16:0] $end
$var reg 9 W data_rd1 [8:0] $end
$var reg 9 X data_rd2 [8:0] $end
$var reg 9 Y data_rd3 [8:0] $end
$var reg 9 Z data_rd4 [8:0] $end
$var reg 9 [ data_wr1 [8:0] $end
$var reg 32 \ data_wr1_data [31:0] $end
$var reg 1 ] data_wr1_enable $end
$var reg 9 ^ data_wr2 [8:0] $end
$var reg 32 _ data_wr2_data [31:0] $end
$var reg 1 ` data_wr2_enable $end
$var reg 9 a data_wr3 [8:0] $end
$var reg 32 b data_wr3_data [31:0] $end
$var reg 1 c data_wr3_enable $end
$var reg 9 d data_wr4 [8:0] $end
$var reg 32 e data_wr4_data [31:0] $end
$var reg 1 f data_wr4_enable $end
$var reg 9 g pcchange [8:0] $end
$var reg 3 h pcjumpenable [2:0] $end
$var reg 6 i pclocation [5:0] $end
$var reg 6 j reg_rd1 [5:0] $end
$var reg 6 k reg_rd2 [5:0] $end
$var reg 6 l reg_rd3 [5:0] $end
$var reg 6 m reg_wr1 [5:0] $end
$var reg 16 n reg_wr1_data [15:0] $end
$var reg 1 o reg_wr1_enable $end
$var reg 6 p reg_wr2 [5:0] $end
$var reg 16 q reg_wr2_data [15:0] $end
$var reg 1 r reg_wr2_enable $end
$upscope $end
$upscope $end
$scope module testbench $end
$scope module registerfile_tb $end
$var wire 1 ! clock $end
$var wire 6 s reg_rd1 [5:0] $end
$var wire 16 t reg_rd1_out [15:0] $end
$var wire 6 u reg_rd2 [5:0] $end
$var wire 16 v reg_rd2_out [15:0] $end
$var wire 6 w reg_rd3 [5:0] $end
$var wire 16 x reg_rd3_out [15:0] $end
$var wire 6 y reg_wr1 [5:0] $end
$var wire 16 z reg_wr1_data [15:0] $end
$var wire 1 { reg_wr1_enable $end
$var wire 6 | reg_wr2 [5:0] $end
$var wire 16 } reg_wr2_data [15:0] $end
$var wire 1 ~ reg_wr2_enable $end
$var wire 1 ) reset $end
$upscope $end
$upscope $end
$scope module testbench $end
$scope module TheInstructionMemory_test $end
$var wire 1 ! clock $end
$var wire 20 !" instruction_rd1 [19:0] $end
$var wire 16 "" instruction_rd1_out [15:0] $end
$var wire 20 #" instruction_rd2 [19:0] $end
$var wire 16 $" instruction_rd2_out [15:0] $end
$var wire 20 %" instruction_rd3 [19:0] $end
$var wire 16 &" instruction_rd3_out [15:0] $end
$var wire 20 '" instruction_rd4 [19:0] $end
$var wire 16 (" instruction_rd4_out [15:0] $end
$var wire 20 )" instruction_wr1 [19:0] $end
$var wire 16 *" instruction_wr1_data [15:0] $end
$var wire 1 +" instruction_wr1_enable $end
$var wire 20 ," instruction_wr2 [19:0] $end
$var wire 16 -" instruction_wr2_data [15:0] $end
$var wire 1 ." instruction_wr2_enable $end
$var wire 20 /" instruction_wr3 [19:0] $end
$var wire 16 0" instruction_wr3_data [15:0] $end
$var wire 1 1" instruction_wr3_enable $end
$var wire 20 2" instruction_wr4 [19:0] $end
$var wire 16 3" instruction_wr4_data [15:0] $end
$var wire 1 4" instruction_wr4_enable $end
$var wire 1 ) reset $end
$upscope $end
$upscope $end
$scope module testbench $end
$scope module TheDataMemory_test $end
$var wire 1 ! clock $end
$var wire 9 5" data_rd1 [8:0] $end
$var wire 32 6" data_rd1_out [31:0] $end
$var wire 9 7" data_rd2 [8:0] $end
$var wire 32 8" data_rd2_out [31:0] $end
$var wire 9 9" data_rd3 [8:0] $end
$var wire 32 :" data_rd3_out [31:0] $end
$var wire 9 ;" data_rd4 [8:0] $end
$var wire 32 <" data_rd4_out [31:0] $end
$var wire 9 =" data_wr1 [8:0] $end
$var wire 32 >" data_wr1_data [31:0] $end
$var wire 1 ?" data_wr1_enable $end
$var wire 9 @" data_wr2 [8:0] $end
$var wire 32 A" data_wr2_data [31:0] $end
$var wire 1 B" data_wr2_enable $end
$var wire 9 C" data_wr3 [8:0] $end
$var wire 32 D" data_wr3_data [31:0] $end
$var wire 1 E" data_wr3_enable $end
$var wire 9 F" data_wr4 [8:0] $end
$var wire 32 G" data_wr4_data [31:0] $end
$var wire 1 H" data_wr4_enable $end
$var wire 1 ) reset $end
$upscope $end
$upscope $end
$enddefinitions $end
#0
$dumpvars
xH"
bx G"
bx F"
xE"
bx D"
bx C"
xB"
bx A"
bx @"
x?"
bx >"
bx ="
bx <"
bx ;"
bx :"
bx 9"
bx 8"
bx 7"
bx 6"
bx 5"
z4"
bxz 3"
bxz 2"
z1"
bxz 0"
bxz /"
z."
bxz -"
bxz ,"
z+"
bxz *"
bxz )"
bx ("
bz '"
bx &"
bz %"
bx $"
bz #"
bx ""
bx !"
x~
bx }
bx |
x{
bx z
bx y
bx x
bx w
bx v
bx u
bx t
bx s
xr
bx q
bx p
xo
bx n
bx m
bx l
bx k
bx j
bx i
bx h
bx g
xf
bx e
bx d
xc
bx b
bx a
x`
bx _
bx ^
x]
bx \
bx [
bx Z
bx Y
bx X
bx W
bx V
xU
bx T
bx S
bx R
bx Q
bx P
xO
xN
bx M
bx L
bx K
bx J
bx I
bx H
bx G
bx F
bx E
bx D
bx C
bx B
bx A
bx @
bx ?
bx >
bx =
bx <
bx ;
bx :
x9
x8
bx 7
bx 6
bx 5
bx 4
bx 3
bx 2
bx 1
bx 0
bx /
x.
bx -
bx ,
bx +
bx *
x)
bx (
bx '
bx &
bx %
bx $
x#
bx "
0!
$end
#1
b0 h
b0 '
0f
0H"
0c
0E"
0`
0B"
0]
0?"
0r
0~
0o
0{
1!
#2
0!
1)
#3
b0 -
b0 %
b0 ""
b0 $
b0 !"
1!
#4
0!
0)
#5
b1 ,
b1 E
b0 +
bx0000000000000000 "
bx0000000000000000 /
b1 -
b1 $
b1 !"
1!
#6
0!
#7
b0 2
b0 D
b0 5
b0 K
b0 4
b0 J
b0 3
b0 I
b0 <
b0 R
b0 ;
b0 Q
b0 :
b0 P
b0 7
b0 M
b0 6
b0 L
b0 0
b0 C
b0 1
0.
0#
b10 ,
b10 E
b0 *
b0 "
b0 /
b10 -
b10 $
b10 !"
1!
#8
0!
#9
b11 ,
b11 E
b11 -
b11 $
b11 !"
b0 l
b0 H
b0 x
b0 w
b0 k
b0 G
b0 v
b0 u
b0 j
b0 F
b0 t
b0 s
1!
#10
0!
#11
b100 ,
b100 E
b100 -
b100 $
b100 !"
1!
#12
0!
#13
b101 ,
b101 E
b101 -
b101 $
b101 !"
1!
#14
0!
#15
b110 ,
b110 E
b110 -
b110 $
b110 !"
1!
#16
0!
#17
b111 ,
b111 E
b111 -
b111 $
b111 !"
1!
#18
0!
#19
b1000 ,
b1000 E
b1001111001001100 +
b1001111001001100 "
b1001111001001100 /
b1000 -
b1001111001001100 %
b1001111001001100 ""
b1000 $
b1000 !"
1!
#20
0!
#21
19
1O
18
1N
b1111 2
b1111 D
b1111 1
b1000001 5
b1000001 K
b1000100001 4
b1000100001 J
b1000000000001001100 3
b1000000000001001100 I
b10100 >
b10100 T
b1100 =
b1100 S
b1001100 ;
b1001100 Q
b100 :
b100 P
b100 7
b100 M
b1 6
b1 L
b1 0
b1 C
1.
1#
b1001 ,
b1001 E
b1000000000 +
b1001111001001100 *
b10011110010011000000001000000000 "
b10011110010011000000001000000000 /
b1001 -
b1000000000 %
b1000000000 ""
b1001 $
b1001 !"
1!
#22
0!
#23
b0 2
b0 D
b0 5
b0 K
b0 4
b0 J
b0 3
b0 I
b0 ;
b0 Q
b0 :
b0 P
b0 7
b0 M
b0 6
b0 L
b0 0
b0 C
b0 1
0.
0#
b1001100 F
b1001100 t
b1001100 H
b1001100 x
1o
1{
b1001100 n
b1001100 z
b1 m
b1 y
b1 l
b1 w
b100 k
b100 u
b1 j
b1 s
b1010 ,
b1010 E
b1111010000100 +
b0 *
b1111010000100 "
b1111010000100 /
b1010 -
b1111010000100 %
b1111010000100 ""
b1010 $
b1010 !"
1!
#24
0!
#25
b1111 2
b1111 D
b10000100 5
b10000100 K
b10000100 4
b10000100 J
b10000100 3
b10000100 I
b10000100 <
b10000100 R
b100 ;
b100 Q
b100 :
b100 P
b100 7
b100 M
b10 0
b10 C
b1111 1
b1011 ,
b1011 E
b1011001010 +
b1111010000100 *
b11110100001000000001011001010 "
b11110100001000000001011001010 /
b1011 -
b1011001010 %
b1011001010 ""
b1011 $
b1011 !"
b0 l
b0 H
b0 x
b0 w
b0 k
b0 u
b0 j
b0 F
b0 t
b0 s
0o
0{
1!
#26
0!
#27
b1 2
b1 D
b11001010 5
b11001010 K
b11001010 4
b11001010 J
b11001010 3
b11001010 I
b11001010 <
b11001010 R
b1010 ;
b1010 Q
b10 :
b10 P
b10 7
b10 M
b1 6
b1 L
b11 0
b11 C
b1 1
b100 H
b100 x
1o
1{
b100 n
b100 z
b10 m
b10 y
b10 l
b10 w
b100 k
b100 u
b1100 ,
b1100 E
b1001101100001001 +
b1011001010 *
b10110010101001101100001001 "
b10110010101001101100001001 /
b1100 -
b1001101100001001 %
b1001101100001001 ""
b1100 $
b1100 !"
1!
#28
0!
#29
09
0O
08
0N
b1101 2
b1101 D
b1101 1
b100 5
b100 K
b1100 4
b1100 J
b100001001 3
b100001001 I
b1 >
b1 T
b1 =
b1 S
b1001 ;
b1001 Q
b1 :
b1 P
b1 7
b1 M
b1 6
b100 0
b100 C
1.
1#
b1101 ,
b1101 E
b0 +
b1001101100001001 *
b10011011000010010000000000000000 "
b10011011000010010000000000000000 /
b1101 -
b0 %
b0 ""
b1101 $
b1101 !"
bx n
bx z
b11 m
b11 y
b11 l
bx H
bx x
b11 w
b10 k
b100 G
b100 v
b10 u
b1 j
b1001100 F
b1001100 t
b1 s
1o
1{
1!
#30
0!
#31
b0 2
b0 D
b0 5
b0 K
b0 4
b0 J
b0 3
b0 I
b0 <
b0 R
b0 ;
b0 Q
b0 :
b0 P
b0 7
b0 M
b0 6
b0 L
b0 0
b0 C
b0 1
0.
0#
b10011000 n
b10011000 z
b100 m
b100 y
b100 l
b10011000 H
b10011000 x
b100 w
b1 k
b1001100 G
b1001100 v
b1 u
1o
1{
b1110 ,
b1110 E
b11100001100000 +
b0 *
b11100001100000 "
b11100001100000 /
b1110 -
b11100001100000 %
b11100001100000 ""
b1110 $
b1110 !"
1!
#32
0!
#33
b11100 2
b11100 D
b1100000 5
b1100000 K
b1100000 4
b1100000 J
b1100000 3
b1100000 I
b1100000 <
b1100000 R
b100000 ;
b100000 Q
b100 6
b100 L
b1 0
b1 C
b11100 1
b1111 ,
b1111 E
b100000000000010 +
b11100001100000 *
b111000011000000100000000000010 "
b111000011000000100000000000010 /
b1111 -
b100000000000010 %
b100000000000010 ""
b1111 $
b1111 !"
b0 l
b0 H
b0 x
b0 w
b0 k
b0 G
b0 v
b0 u
b0 j
b0 F
b0 t
b0 s
0o
0{
1!
#34
0!
#35
b100000 2
b100000 D
b10 5
b10 K
b10 4
b10 J
b10 3
b10 I
b10 <
b10 R
b10 ;
b10 Q
b10 :
b10 P
b10 7
b10 M
b0 6
b0 L
b0 0
b0 C
b100000 1
1]
1?"
b10011000 \
b10011000 >"
b1 [
b1 ="
b1 l
b1001100 H
b1001100 x
b1 w
b100 j
b10011000 F
b10011000 t
b100 s
b10000 ,
b10000 E
b1011001010 +
b100000000000010 *
b1000000000000100000001011001010 "
b1000000000000100000001011001010 /
b10000 -
b1011001010 %
b1011001010 ""
b10000 $
b10000 !"
1!
#36
0!
#37
b1 2
b1 D
b11001010 5
b11001010 K
b11001010 4
b11001010 J
b11001010 3
b11001010 I
b11001010 <
b11001010 R
b1010 ;
b1010 Q
b1 6
b1 L
b11 0
b11 C
b1 1
b10100110000001 +
b1011001010 *
b10110010100010100110000001 "
b10110010100010100110000001 /
b10010 -
b10100110000001 %
b10100110000001 ""
b10010 $
b10010 !"
b1 h
b1 '
b10 g
b10 &
b0 l
b0 H
b0 x
b0 w
b10 k
b100 G
b100 v
b10 u
b0 j
b0 F
b0 t
b0 s
0]
0?"
1!
#38
0!
#39
b10100 2
b10100 D
b110000001 5
b110000001 K
b110000001 4
b110000001 J
b110000001 3
b110000001 I
b110000001 <
b110000001 R
b1 ;
b1 Q
b1 :
b1 P
b1 7
b1 M
b0 6
b0 L
b110 0
b110 C
b10100 1
1o
1{
b1010000 n
b1010000 z
b11 m
b11 y
b0 h
b0 '
b11 l
b1010000 H
b1010000 x
b11 w
b1 j
b1001100 F
b1001100 t
b1 s
b10100110000001 *
b101001100000010010100110000001 "
b101001100000010010100110000001 /
1!
#40
0!
#41
b10011 ,
b10011 E
b1101001010000000 +
b101001100000011101001010000000 "
b101001100000011101001010000000 /
b10011 -
b1101001010000000 %
b1101001010000000 ""
b10011 $
b10011 !"
b10011000 n
b10011000 z
b1 W
b10011000 ?
b10011000 6"
b1 5"
b110 m
b110 y
b110 l
b10011000 H
b10011000 x
b110 w
b1 k
b1001100 G
b1001100 v
b1 u
b0 j
b0 F
b0 t
b0 s
1o
1{
1!
#42
0!
#43
b101001 2
b101001 D
b101001 1
b1010 5
b1010 K
b1000010 4
b1000010 J
b1000000010000000 3
b1000000010000000 I
b0 >
b0 T
b0 =
b0 S
b0 ;
b0 Q
b0 :
b0 P
b0 7
b0 M
b0 6
b1010 0
b1010 C
1.
1#
1o
1{
b10100 ,
b10100 E
b1000000 +
b1101001010000000 *
b11010010100000000000000001000000 "
b11010010100000000000000001000000 /
b10100 -
b1000000 %
b1000000 ""
b10100 $
b10100 !"
1!
#44
0!
#45
b0 2
b0 D
b0 5
b0 K
b0 4
b0 J
b0 3
b0 I
b0 <
b0 R
b0 0
b0 C
b0 1
0.
0#
b0 *
b1000000 "
b1000000 /
b1010 -
b1111010000100 %
b1111010000100 ""
b1010 $
b1010 !"
b11 h
b11 '
b1010 i
b1010 (
b1010 l
b0 H
b0 x
b1010 w
b0 k
b0 G
b0 v
b0 u
0o
0{
1!
#46
0!
#47
b0 h
b0 '
b0 l
b0 w
b10100 -
b1000000 %
b1000000 ""
b10100 $
b10100 !"
1!
#48
0!
#49
b1000000 5
b1000000 K
b1000000 4
b1000000 J
b1000000 3
b1000000 I
b1000000 <
b1000000 R
b1 0
b1 C
b10101 ,
b10101 E
b0 +
b1000000 *
b10000000000000000000000 "
b10000000000000000000000 /
b10101 -
b0 %
b0 ""
b10101 $
b10101 !"
1!
#50
0!
#51
b0 5
b0 K
b0 4
b0 J
b0 3
b0 I
b0 <
b0 R
b0 0
b0 C
b1 l
b1001100 H
b1001100 x
b1 w
b10110 ,
b10110 E
b0 *
b0 "
b0 /
b10110 -
b10110 $
b10110 !"
1!
#52
0!
#53
b10111 ,
b10111 E
b10111 -
b10111 $
b10111 !"
b0 l
b0 H
b0 x
b0 w
1!
#54
0!
#55
b11000 ,
b11000 E
b11000 -
b11000 $
b11000 !"
1!
#56
0!
#57
b11001 ,
b11001 E
b11001 -
b11001 $
b11001 !"
1!
#58
0!
#59
b11010 ,
b11010 E
b11010 -
b11010 $
b11010 !"
1!
#60
0!
#61
b11011 ,
b11011 E
b100001000000010 +
b100001000000010 "
b100001000000010 /
b11011 -
b100001000000010 %
b100001000000010 ""
b11011 $
b11011 !"
1!
#62
0!
#63
b100001 2
b100001 D
b10 5
b10 K
b10 4
b10 J
b10 3
b10 I
b10 <
b10 R
b10 ;
b10 Q
b10 :
b10 P
b10 7
b10 M
b100001 1
b11100 ,
b11100 E
b0 +
b100001000000010 *
b1000010000000100000000000000000 "
b1000010000000100000000000000000 /
b11100 -
b0 %
b0 ""
b11100 $
b11100 !"
1!
#64
0!
#65
b11110 -
b11110 $
b11110 !"
b100 h
b100 '
b10 k
b100 G
b100 v
b10 u
1!
#66
0!
#67
b0 2
b0 D
b0 5
b0 K
b0 4
b0 J
b0 3
b0 I
b0 <
b0 R
b0 ;
b0 Q
b0 :
b0 P
b0 7
b0 M
b0 1
b100 h
b100 '
b1111010000100 +
b0 *
b1111010000100 "
b1111010000100 /
b1010 -
b1111010000100 %
b1111010000100 ""
b1010 $
b1010 !"
1!
#68
0!
#69
b1111 2
b1111 D
b10000100 5
b10000100 K
b10000100 4
b10000100 J
b10000100 3
b10000100 I
b10000100 <
b10000100 R
b100 ;
b100 Q
b100 :
b100 P
b100 7
b100 M
b10 0
b10 C
b1111 1
b1011 ,
b1011 E
b1011001010 +
b1111010000100 *
b11110100001000000001011001010 "
b11110100001000000001011001010 /
b1011 -
b1011001010 %
b1011001010 ""
b1011 $
b1011 !"
b0 h
b0 '
b0 k
b0 G
b0 v
b0 u
1!
#70
0!
#71
b1 2
b1 D
b11001010 5
b11001010 K
b11001010 4
b11001010 J
b11001010 3
b11001010 I
b11001010 <
b11001010 R
b1010 ;
b1010 Q
b10 :
b10 P
b10 7
b10 M
b1 6
b1 L
b11 0
b11 C
b1 1
1o
1{
b100 n
b100 z
b10 m
b10 y
b10 l
b100 H
b100 x
b10 w
b100 k
b10011000 G
b10011000 v
b100 u
b1100 ,
b1100 E
b1001101100001001 +
b1011001010 *
b10110010101001101100001001 "
b10110010101001101100001001 /
b1100 -
b1001101100001001 %
b1001101100001001 ""
b1100 $
b1100 !"
1!
#72
0!
#73
b1101 2
b1101 D
b1101 1
b100 5
b100 K
b1100 4
b1100 J
b100001001 3
b100001001 I
b1 >
b1 T
b1 =
b1 S
b1001 ;
b1001 Q
b1 :
b1 P
b1 7
b1 M
b1 6
b100 0
b100 C
1.
1#
b1101 ,
b1101 E
b0 +
b1001101100001001 *
b10011011000010010000000000000000 "
b10011011000010010000000000000000 /
b1101 -
b0 %
b0 ""
b1101 $
b1101 !"
b1010000 n
b1010000 z
b11 m
b11 y
b11 l
b1010000 H
b1010000 x
b11 w
b10 k
b100 G
b100 v
b10 u
b1 j
b1001100 F
b1001100 t
b1 s
1o
1{
1!
#74
0!
#75
b0 2
b0 D
b0 5
b0 K
b0 4
b0 J
b0 3
b0 I
b0 <
b0 R
b0 ;
b0 Q
b0 :
b0 P
b0 7
b0 M
b0 6
b0 L
b0 0
b0 C
b0 1
0.
0#
b10011000 n
b10011000 z
b100 m
b100 y
b100 l
b10011000 H
b10011000 x
b100 w
b1 k
b1001100 G
b1001100 v
b1 u
1o
1{
b1110 ,
b1110 E
b11100001100000 +
b0 *
b11100001100000 "
b11100001100000 /
b1110 -
b11100001100000 %
b11100001100000 ""
b1110 $
b1110 !"
1!
#76
0!
#77
b11100 2
b11100 D
b1100000 5
b1100000 K
b1100000 4
b1100000 J
b1100000 3
b1100000 I
b1100000 <
b1100000 R
b100000 ;
b100000 Q
b100 6
b100 L
b1 0
b1 C
b11100 1
b1111 ,
b1111 E
b100000000000010 +
b11100001100000 *
b111000011000000100000000000010 "
b111000011000000100000000000010 /
b1111 -
b100000000000010 %
b100000000000010 ""
b1111 $
b1111 !"
b0 l
b0 H
b0 x
b0 w
b0 k
b0 G
b0 v
b0 u
b0 j
b0 F
b0 t
b0 s
0o
0{
1!
#78
0!
#79
b100000 2
b100000 D
b10 5
b10 K
b10 4
b10 J
b10 3
b10 I
b10 <
b10 R
b10 ;
b10 Q
b10 :
b10 P
b10 7
b10 M
b0 6
b0 L
b0 0
b0 C
b100000 1
1]
1?"
b1 l
b1001100 H
b1001100 x
b1 w
b100 j
b10011000 F
b10011000 t
b100 s
b10000 ,
b10000 E
b1011001010 +
b100000000000010 *
b1000000000000100000001011001010 "
b1000000000000100000001011001010 /
b10000 -
b1011001010 %
b1011001010 ""
b10000 $
b10000 !"
1!
#80
0!
#81
b1 2
b1 D
b11001010 5
b11001010 K
b11001010 4
b11001010 J
b11001010 3
b11001010 I
b11001010 <
b11001010 R
b1010 ;
b1010 Q
b1 6
b1 L
b11 0
b11 C
b1 1
b10100110000001 +
b1011001010 *
b10110010100010100110000001 "
b10110010100010100110000001 /
b10010 -
b10100110000001 %
b10100110000001 ""
b10010 $
b10010 !"
b1 h
b1 '
b0 l
b0 H
b0 x
b0 w
b10 k
b100 G
b100 v
b10 u
b0 j
b0 F
b0 t
b0 s
0]
0?"
1!
#82
0!
#83
b10100 2
b10100 D
b110000001 5
b110000001 K
b110000001 4
b110000001 J
b110000001 3
b110000001 I
b110000001 <
b110000001 R
b1 ;
b1 Q
b1 :
b1 P
b1 7
b1 M
b0 6
b0 L
b110 0
b110 C
b10100 1
1o
1{
b1010000 n
b1010000 z
b11 m
b11 y
b0 h
b0 '
b11 l
b1010000 H
b1010000 x
b11 w
b1 j
b1001100 F
b1001100 t
b1 s
b10100110000001 *
b101001100000010010100110000001 "
b101001100000010010100110000001 /
1!
#84
0!
#85
b10011 ,
b10011 E
b1101001010000000 +
b101001100000011101001010000000 "
b101001100000011101001010000000 /
b10011 -
b1101001010000000 %
b1101001010000000 ""
b10011 $
b10011 !"
b10011000 n
b10011000 z
b110 m
b110 y
b110 l
b10011000 H
b10011000 x
b110 w
b1 k
b1001100 G
b1001100 v
b1 u
b0 j
b0 F
b0 t
b0 s
1o
1{
1!
#86
0!
#87
b101001 2
b101001 D
b101001 1
b1010 5
b1010 K
b1000010 4
b1000010 J
b1000000010000000 3
b1000000010000000 I
b0 >
b0 T
b0 =
b0 S
b0 ;
b0 Q
b0 :
b0 P
b0 7
b0 M
b0 6
b1010 0
b1010 C
1.
1#
1o
1{
b10100 ,
b10100 E
b1000000 +
b1101001010000000 *
b11010010100000000000000001000000 "
b11010010100000000000000001000000 /
b10100 -
b1000000 %
b1000000 ""
b10100 $
b10100 !"
1!
#88
0!
#89
b0 2
b0 D
b0 5
b0 K
b0 4
b0 J
b0 3
b0 I
b0 <
b0 R
b0 0
b0 C
b0 1
0.
0#
b0 *
b1000000 "
b1000000 /
b1010 -
b1111010000100 %
b1111010000100 ""
b1010 $
b1010 !"
b11 h
b11 '
b1010 l
b0 H
b0 x
b1010 w
b0 k
b0 G
b0 v
b0 u
0o
0{
1!
#90
0!
#91
b0 h
b0 '
b0 l
b0 w
b10100 -
b1000000 %
b1000000 ""
b10100 $
b10100 !"
1!
#92
0!
#93
b1000000 5
b1000000 K
b1000000 4
b1000000 J
b1000000 3
b1000000 I
b1000000 <
b1000000 R
b1 0
b1 C
b10101 ,
b10101 E
b0 +
b1000000 *
b10000000000000000000000 "
b10000000000000000000000 /
b10101 -
b0 %
b0 ""
b10101 $
b10101 !"
1!
#94
0!
#95
b0 5
b0 K
b0 4
b0 J
b0 3
b0 I
b0 <
b0 R
b0 0
b0 C
b1 l
b1001100 H
b1001100 x
b1 w
b10110 ,
b10110 E
b0 *
b0 "
b0 /
b10110 -
b10110 $
b10110 !"
1!
#96
0!
#97
b10111 ,
b10111 E
b10111 -
b10111 $
b10111 !"
b0 l
b0 H
b0 x
b0 w
1!
#98
0!
#99
b11000 ,
b11000 E
b11000 -
b11000 $
b11000 !"
1!
#100
0!
#101
b11001 ,
b11001 E
b11001 -
b11001 $
b11001 !"
1!
#102
0!
#103
b11010 ,
b11010 E
b11010 -
b11010 $
b11010 !"
1!
#104
0!
#105
b11011 ,
b11011 E
b100001000000010 +
b100001000000010 "
b100001000000010 /
b11011 -
b100001000000010 %
b100001000000010 ""
b11011 $
b11011 !"
1!
#106
0!
#107
b100001 2
b100001 D
b10 5
b10 K
b10 4
b10 J
b10 3
b10 I
b10 <
b10 R
b10 ;
b10 Q
b10 :
b10 P
b10 7
b10 M
b100001 1
b11100 ,
b11100 E
b0 +
b100001000000010 *
b1000010000000100000000000000000 "
b1000010000000100000000000000000 /
b11100 -
b0 %
b0 ""
b11100 $
b11100 !"
1!
#108
0!
#109
b11110 -
b11110 $
b11110 !"
b100 h
b100 '
b10 k
b100 G
b100 v
b10 u
1!
#110
0!
#111
b0 2
b0 D
b0 5
b0 K
b0 4
b0 J
b0 3
b0 I
b0 <
b0 R
b0 ;
b0 Q
b0 :
b0 P
b0 7
b0 M
b0 1
b100 h
b100 '
b1111010000100 +
b0 *
b1111010000100 "
b1111010000100 /
b1010 -
b1111010000100 %
b1111010000100 ""
b1010 $
b1010 !"
1!
#112
0!
#113
b1111 2
b1111 D
b10000100 5
b10000100 K
b10000100 4
b10000100 J
b10000100 3
b10000100 I
b10000100 <
b10000100 R
b100 ;
b100 Q
b100 :
b100 P
b100 7
b100 M
b10 0
b10 C
b1111 1
b1011 ,
b1011 E
b1011001010 +
b1111010000100 *
b11110100001000000001011001010 "
b11110100001000000001011001010 /
b1011 -
b1011001010 %
b1011001010 ""
b1011 $
b1011 !"
b0 h
b0 '
b0 k
b0 G
b0 v
b0 u
1!
#114
0!
#115
b1 2
b1 D
b11001010 5
b11001010 K
b11001010 4
b11001010 J
b11001010 3
b11001010 I
b11001010 <
b11001010 R
b1010 ;
b1010 Q
b10 :
b10 P
b10 7
b10 M
b1 6
b1 L
b11 0
b11 C
b1 1
1o
1{
b100 n
b100 z
b10 m
b10 y
b10 l
b100 H
b100 x
b10 w
b100 k
b10011000 G
b10011000 v
b100 u
b1100 ,
b1100 E
b1001101100001001 +
b1011001010 *
b10110010101001101100001001 "
b10110010101001101100001001 /
b1100 -
b1001101100001001 %
b1001101100001001 ""
b1100 $
b1100 !"
1!
#116
0!
#117
b1101 2
b1101 D
b1101 1
b100 5
b100 K
b1100 4
b1100 J
b100001001 3
b100001001 I
b1 >
b1 T
b1 =
b1 S
b1001 ;
b1001 Q
b1 :
b1 P
b1 7
b1 M
b1 6
b100 0
b100 C
1.
1#
b1101 ,
b1101 E
b0 +
b1001101100001001 *
b10011011000010010000000000000000 "
b10011011000010010000000000000000 /
b1101 -
b0 %
b0 ""
b1101 $
b1101 !"
b1010000 n
b1010000 z
b11 m
b11 y
b11 l
b1010000 H
b1010000 x
b11 w
b10 k
b100 G
b100 v
b10 u
b1 j
b1001100 F
b1001100 t
b1 s
1o
1{
1!
#118
0!
#119
b0 2
b0 D
b0 5
b0 K
b0 4
b0 J
b0 3
b0 I
b0 <
b0 R
b0 ;
b0 Q
b0 :
b0 P
b0 7
b0 M
b0 6
b0 L
b0 0
b0 C
b0 1
0.
0#
b10011000 n
b10011000 z
b100 m
b100 y
b100 l
b10011000 H
b10011000 x
b100 w
b1 k
b1001100 G
b1001100 v
b1 u
1o
1{
b1110 ,
b1110 E
b11100001100000 +
b0 *
b11100001100000 "
b11100001100000 /
b1110 -
b11100001100000 %
b11100001100000 ""
b1110 $
b1110 !"
1!
#120
0!
#121
b11100 2
b11100 D
b1100000 5
b1100000 K
b1100000 4
b1100000 J
b1100000 3
b1100000 I
b1100000 <
b1100000 R
b100000 ;
b100000 Q
b100 6
b100 L
b1 0
b1 C
b11100 1
b1111 ,
b1111 E
b100000000000010 +
b11100001100000 *
b111000011000000100000000000010 "
b111000011000000100000000000010 /
b1111 -
b100000000000010 %
b100000000000010 ""
b1111 $
b1111 !"
b0 l
b0 H
b0 x
b0 w
b0 k
b0 G
b0 v
b0 u
b0 j
b0 F
b0 t
b0 s
0o
0{
1!
#122
0!
