Pipeline/32BitProcessor/execution_tb.vcd
$date
	Tue Jul 28 10:37:19 2015
$end
$version
	Icarus Verilog
$end
$timescale
	1s
$end
$scope module testbench $end
$scope module registerfile_tb $end
$var wire 1 ! clock $end
$var wire 6 " reg_rd1 [5:0] $end
$var wire 16 # reg_rd1_out [15:0] $end
$var wire 6 $ reg_rd2 [5:0] $end
$var wire 16 % reg_rd2_out [15:0] $end
$var wire 6 & reg_rd3 [5:0] $end
$var wire 16 ' reg_rd3_out [15:0] $end
$var wire 6 ( reg_wr1 [5:0] $end
$var wire 16 ) reg_wr1_data [15:0] $end
$var wire 1 * reg_wr1_enable $end
$var wire 6 + reg_wr2 [5:0] $end
$var wire 16 , reg_wr2_data [15:0] $end
$var wire 1 - reg_wr2_enable $end
$var wire 1 . reset $end
$upscope $end
$upscope $end
$scope module testbench $end
$scope module decoder_test $end
$var wire 1 / bit_check $end
$var wire 32 0 fetchoutput [31:0] $end
$var wire 1 1 flush $end
$var reg 6 2 destination [5:0] $end
$var reg 6 3 opcode [5:0] $end
$var reg 6 4 operationnumber [5:0] $end
$var reg 22 5 signed_1 [21:0] $end
$var reg 16 6 signed_2 [15:0] $end
$var reg 10 7 signed_3 [9:0] $end
$var reg 6 8 source_1 [5:0] $end
$var reg 6 9 source_2 [5:0] $end
$var reg 1 : super_duper_a $end
$var reg 1 ; super_duper_b $end
$var reg 6 < unsigned_1 [5:0] $end
$var reg 16 = unsigned_2 [15:0] $end
$var reg 9 > unsigned_3 [8:0] $end
$var reg 10 ? unsigned_4 [9:0] $end
$var reg 9 @ unsigned_5 [8:0] $end
$upscope $end
$upscope $end
$scope module testbench $end
$scope module fetch_test $end
$var wire 1 ! clock $end
$var wire 32 A fetchoutput [31:0] $end
$var wire 1 1 flush $end
$var wire 20 B instruction_rd1 [19:0] $end
$var wire 16 C instruction_rd1_out [15:0] $end
$var wire 9 D pcchange [8:0] $end
$var wire 3 E pcjumpenable [2:0] $end
$var wire 3 F pclocation [2:0] $end
$var reg 16 G fetch1 [15:0] $end
$var reg 16 H fetch2 [15:0] $end
$var reg 20 I previous_programcounter [19:0] $end
$var reg 20 J programcounter [19:0] $end
$upscope $end
$upscope $end
$scope module testbench $end
$scope module execution_test $end
$var wire 1 ! clock $end
$var wire 32 K data_rd1_out [31:0] $end
$var wire 32 L data_rd2_out [31:0] $end
$var wire 32 M data_rd3_out [31:0] $end
$var wire 32 N data_rd4_out [31:0] $end
$var wire 6 O destination [5:0] $end
$var wire 6 P operationnumber [5:0] $end
$var wire 20 Q previous_programcounter [19:0] $end
$var wire 16 R reg_rd1_out [15:0] $end
$var wire 16 S reg_rd2_out [15:0] $end
$var wire 16 T reg_rd3_out [15:0] $end
$var wire 22 U signed_1 [21:0] $end
$var wire 16 V signed_2 [15:0] $end
$var wire 10 W signed_3 [9:0] $end
$var wire 6 X source_1 [5:0] $end
$var wire 6 Y source_2 [5:0] $end
$var wire 1 Z super_doper_a $end
$var wire 1 [ super_doper_b $end
$var wire 6 \ unsigned_1 [5:0] $end
$var wire 16 ] unsigned_2 [15:0] $end
$var wire 9 ^ unsigned_3 [8:0] $end
$var wire 10 _ unsigned_4 [9:0] $end
$var wire 9 ` unsigned_5 [8:0] $end
$var reg 9 a data_rd1 [8:0] $end
$var reg 9 b data_rd2 [8:0] $end
$var reg 9 c data_rd3 [8:0] $end
$var reg 9 d data_rd4 [8:0] $end
$var reg 9 e data_wr1 [8:0] $end
$var reg 32 f data_wr1_data [31:0] $end
$var reg 1 g data_wr1_enable $end
$var reg 9 h data_wr2 [8:0] $end
$var reg 32 i data_wr2_data [31:0] $end
$var reg 1 j data_wr2_enable $end
$var reg 9 k data_wr3 [8:0] $end
$var reg 32 l data_wr3_data [31:0] $end
$var reg 1 m data_wr3_enable $end
$var reg 9 n data_wr4 [8:0] $end
$var reg 32 o data_wr4_data [31:0] $end
$var reg 1 p data_wr4_enable $end
$var reg 9 q pcchange [8:0] $end
$var reg 3 r pcjumpenable [2:0] $end
$var reg 3 s pclocation [2:0] $end
$var reg 6 t reg_rd1 [5:0] $end
$var reg 6 u reg_rd2 [5:0] $end
$var reg 6 v reg_rd3 [5:0] $end
$var reg 6 w reg_wr1 [5:0] $end
$var reg 16 x reg_wr1_data [15:0] $end
$var reg 1 y reg_wr1_enable $end
$var reg 6 z reg_wr2 [5:0] $end
$var reg 16 { reg_wr2_data [15:0] $end
$var reg 1 | reg_wr2_enable $end
$upscope $end
$upscope $end
$scope module testbench $end
$scope module TheInstructionMemory_test $end
$var wire 1 ! clock $end
$var wire 20 } instruction_rd1 [19:0] $end
$var wire 16 ~ instruction_rd1_out [15:0] $end
$var wire 20 !" instruction_rd2 [19:0] $end
$var wire 16 "" instruction_rd2_out [15:0] $end
$var wire 20 #" instruction_rd3 [19:0] $end
$var wire 16 $" instruction_rd3_out [15:0] $end
$var wire 20 %" instruction_rd4 [19:0] $end
$var wire 16 &" instruction_rd4_out [15:0] $end
$var wire 20 '" instruction_wr1 [19:0] $end
$var wire 16 (" instruction_wr1_data [15:0] $end
$var wire 1 )" instruction_wr1_enable $end
$var wire 20 *" instruction_wr2 [19:0] $end
$var wire 16 +" instruction_wr2_data [15:0] $end
$var wire 1 ," instruction_wr2_enable $end
$var wire 20 -" instruction_wr3 [19:0] $end
$var wire 16 ." instruction_wr3_data [15:0] $end
$var wire 1 /" instruction_wr3_enable $end
$var wire 20 0" instruction_wr4 [19:0] $end
$var wire 16 1" instruction_wr4_data [15:0] $end
$var wire 1 2" instruction_wr4_enable $end
$var wire 1 . reset $end
$upscope $end
$upscope $end
$enddefinitions $end
#0
$dumpvars
z2"
bxz 1"
bxz 0"
z/"
bxz ."
bxz -"
z,"
bxz +"
bxz *"
z)"
bxz ("
bxz '"
bx &"
bz %"
bx $"
bz #"
bx ""
bz !"
bx ~
b0 }
x|
bx {
bx z
xy
bx x
bx w
bx v
bx u
bx t
bx s
bx r
bx q
xp
bx o
bx n
xm
bx l
bx k
xj
bx i
bx h
xg
bx f
bx e
bx d
bx c
bx b
bx a
bx `
bx _
bx ^
bx ]
bx \
x[
xZ
bx Y
bx X
bx W
bx V
bx U
bx T
bx S
bx R
bx Q
bx P
bx O
bz N
bz M
bz L
bz K
b0 J
bx I
bx H
bx G
bx F
bx E
bx D
bx C
b0 B
bx A
bx @
bx ?
bx >
bx =
bx <
x;
x:
bx 9
bx 8
bx 7
bx 6
bx 5
bx 4
bx 3
bx 2
x1
bx 0
x/
x.
x-
bx ,
bx +
x*
bx )
bx (
bx '
bx &
bx %
bx $
bx #
bx "
0!
$end
#1
b1 J
b1 B
b1 }
b0 I
b0 Q
b0 r
b0 E
0|
0-
0y
0*
1!
#2
b0 C
b0 ~
0!
1.
#3
b10 J
b10 B
b10 }
b1 I
b1 Q
b0 H
bx0000000000000000 0
bx0000000000000000 A
1!
#4
0!
0.
#5
b11 J
b1111000000111 C
b1111000000111 ~
b11 B
b11 }
b0 4
b0 P
b0 7
b0 W
b0 6
b0 V
b0 5
b0 U
b0 >
b0 ^
b0 =
b0 ]
b0 <
b0 \
b0 9
b0 Y
b0 8
b0 X
b0 2
b0 O
b0 3
0/
01
b10 I
b10 Q
b0 G
b0 0
b0 A
1!
#6
0!
#7
b100 J
b1001001001000000 C
b1001001001000000 ~
b100 B
b100 }
b0 v
b0 '
b0 T
b0 &
b0 u
b0 %
b0 S
b0 $
b0 t
b0 #
b0 R
b0 "
b11 I
b11 Q
b1111000000111 H
b1111000000111 0
b1111000000111 A
1!
#8
0!
#9
b101 J
b0 C
b0 ~
b101 B
b101 }
b1111 4
b1111 P
b111 7
b111 W
b111 6
b111 V
b111 5
b111 U
b111 >
b111 ^
b111 =
b111 ]
b11 <
b11 \
b11 9
b11 Y
b1 8
b1 X
b1111 3
b100 I
b100 Q
b1001001001000000 H
b1111000000111 G
b11110000001111001001001000000 0
b11110000001111001001001000000 A
1!
#10
0!
#11
b110 J
b1100000001 C
b1100000001 ~
b110 B
b110 }
0;
0[
0:
0Z
b1001 4
b1001 P
b1001 3
b1 7
b1 W
b1 6
b1 V
b1000000 5
b1000000 U
b0 @
b0 `
b0 ?
b0 _
b0 =
b0 ]
b0 <
b0 \
b0 9
b0 Y
b0 8
b0 X
b1 2
b1 O
1/
11
b111 '
b111 T
1y
1*
b111 x
b111 )
b0 w
b0 (
b11 u
b11 $
b1 t
b1 "
b101 I
b101 Q
b0 H
b1001001001000000 G
b10010010010000000000000000000000 0
b10010010010000000000000000000000 A
1!
#12
0!
#13
b111 J
b1001101110100001 C
b1001101110100001 ~
b111 B
b111 }
b0 4
b0 P
b0 7
b0 W
b0 6
b0 V
b0 5
b0 U
b0 >
b0 ^
b0 2
b0 O
b0 3
0/
01
b110 I
b110 Q
b1100000001 H
b0 G
b1100000001 0
b1100000001 A
b1 w
b1 (
b1 v
b111 '
b111 T
b1 &
b0 u
b111 %
b111 S
b0 $
b0 t
b111 #
b111 R
b0 "
1y
1*
1!
#14
0!
#15
b1000 J
b0 C
b0 ~
b1000 B
b1000 }
b1 4
b1 P
b100000001 7
b100000001 W
b100000001 6
b100000001 V
b100000001 5
b100000001 U
b100000001 >
b100000001 ^
b1 =
b1 ]
b1 <
b1 \
b1 9
b1 Y
b100 2
b100 O
b1 3
b0 v
b0 &
0y
0*
b111 I
b111 Q
b1001101110100001 H
b1100000001 G
b11000000011001101110100001 0
b11000000011001101110100001 A
1!
#16
0!
#17
b1001 J
b1001 B
b1001 }
b1101 4
b1101 P
b1101 3
b110 7
b110 W
b1110 6
b1110 V
b110100001 5
b110100001 U
b1 @
b1 `
b1 ?
b1 _
b100001 =
b100001 ]
b1 <
b1 9
b100 8
b100 X
b110 2
b110 O
1/
11
b1000 I
b1000 Q
b0 H
b1001101110100001 G
b10011011101000010000000000000000 0
b10011011101000010000000000000000 A
1y
1*
b1110 x
b1110 )
b100 w
b100 (
b100 v
b1110 '
b1110 T
b100 &
b1 u
b1 $
1!
#18
0!
#19
b1010 J
b1010 B
b1010 }
b0 4
b0 P
b0 7
b0 W
b0 6
b0 V
b0 5
b0 U
b0 >
b0 ^
b0 =
b0 ]
b0 <
b0 \
b0 9
b0 Y
b0 8
b0 X
b0 2
b0 O
b0 3
0/
01
b11100 x
b11100 )
b110 w
b110 (
b110 v
b11100 '
b11100 T
b110 &
b100 t
b1110 #
b1110 R
b100 "
1y
1*
b1001 I
b1001 Q
b0 G
b0 0
b0 A
1!
#20
0!
#21
b1011 J
b1011 B
b1011 }
b1010 I
b1010 Q
b0 v
b111 '
b111 T
b0 &
b0 u
b0 $
b0 t
b111 #
b111 R
b0 "
0y
0*
1!
#22
0!
#23
b1100 J
b1100 B
b1100 }
b1011 I
b1011 Q
1!
#24
0!
#25
b1101 J
b1101 B
b1101 }
b1100 I
b1100 Q
1!
#26
0!
#27
b1110 J
b1110 B
b1110 }
b1101 I
b1101 Q
1!
#28
0!
#29
b1111 J
b1111 B
b1111 }
b1110 I
b1110 Q
1!
#30
0!
#31
b10000 J
b10000 B
b10000 }
b1111 I
b1111 Q
1!
#32
0!
#33
b10001 J
b10001 B
b10001 }
b10000 I
b10000 Q
1!
#34
0!
#35
b10010 J
b10010 B
b10010 }
b10001 I
b10001 Q
1!
#36
0!
#37
b10011 J
b10011 B
b10011 }
b10010 I
b10010 Q
1!
#38
0!
#39
b10100 J
b10100 B
b10100 }
b10011 I
b10011 Q
1!
#40
0!
#41
b10101 J
b10101 B
b10101 }
b10100 I
b10100 Q
1!
#42
0!
#43
b10110 J
b10110 B
b10110 }
b10101 I
b10101 Q
1!
#44
0!
#45
b10111 J
b10111 B
b10111 }
b10110 I
b10110 Q
1!
#46
0!
#47
b11000 J
b11000 B
b11000 }
b10111 I
b10111 Q
1!
#48
0!
#49
b11001 J
b11001 B
b11001 }
b11000 I
b11000 Q
1!
#50
0!
#51
b11010 J
b11010 B
b11010 }
b11001 I
b11001 Q
1!
#52
0!
#53
b11011 J
b11011 B
b11011 }
b11010 I
b11010 Q
1!
#54
0!
#55
b11100 J
b11100 B
b11100 }
b11011 I
b11011 Q
1!
#56
0!
#57
b11101 J
b11101 B
b11101 }
b11100 I
b11100 Q
1!
#58
0!
#59
b11110 J
b11110 B
b11110 }
b11101 I
b11101 Q
1!
#60
0!
#61
b11111 J
b11111 B
b11111 }
b11110 I
b11110 Q
1!
#62
0!
#63
b100000 J
b100000 B
b100000 }
b11111 I
b11111 Q
1!
#64
0!
#65
b100001 J
b100001 B
b100001 }
b100000 I
b100000 Q
1!
#66
0!
#67
b100010 J
b100010 B
b100010 }
b100001 I
b100001 Q
1!
#68
0!
#69
b100011 J
b100011 B
b100011 }
b100010 I
b100010 Q
1!
#70
0!
#71
b100100 J
b100100 B
b100100 }
b100011 I
b100011 Q
1!
#72
0!
#73
b100101 J
b100101 B
b100101 }
b100100 I
b100100 Q
1!
#74
0!
#75
b100110 J
b100110 B
b100110 }
b100101 I
b100101 Q
1!
#76
0!
#77
b100111 J
b100111 B
b100111 }
b100110 I
b100110 Q
1!
#78
0!
#79
b101000 J
b101000 B
b101000 }
b100111 I
b100111 Q
1!
#80
0!
#81
b101001 J
b101001 B
b101001 }
b101000 I
b101000 Q
1!
#82
0!
#83
b101010 J
b101010 B
b101010 }
b101001 I
b101001 Q
1!
#84
0!
#85
b101011 J
b101011 B
b101011 }
b101010 I
b101010 Q
1!
#86
0!
#87
b101100 J
b101100 B
b101100 }
b101011 I
b101011 Q
1!
#88
0!
#89
b101101 J
b101101 B
b101101 }
b101100 I
b101100 Q
1!
#90
0!
#91
b101110 J
b101110 B
b101110 }
b101101 I
b101101 Q
1!
#92
0!
#93
b101111 J
b101111 B
b101111 }
b101110 I
b101110 Q
1!
#94
0!
#95
b110000 J
b110000 B
b110000 }
b101111 I
b101111 Q
1!
#96
0!
#97
b110001 J
b110001 B
b110001 }
b110000 I
b110000 Q
1!
#98
0!
#99
b110010 J
b110010 B
b110010 }
b110001 I
b110001 Q
1!
#100
0!
#101
b110011 J
b110011 B
b110011 }
b110010 I
b110010 Q
1!
#102
0!
#103
b110100 J
b110100 B
b110100 }
b110011 I
b110011 Q
1!
#104
0!
#105
b110101 J
b110101 B
b110101 }
b110100 I
b110100 Q
1!
#106
0!
#107
b110110 J
b110110 B
b110110 }
b110101 I
b110101 Q
1!
#108
0!
#109
b110111 J
b110111 B
b110111 }
b110110 I
b110110 Q
1!
#110
0!
#111
b111000 J
b111000 B
b111000 }
b110111 I
b110111 Q
1!
#112
0!
#113
b111001 J
b111001 B
b111001 }
b111000 I
b111000 Q
1!
#114
0!
#115
b111010 J
b111010 B
b111010 }
b111001 I
b111001 Q
1!
#116
0!
#117
b111011 J
b111011 B
b111011 }
b111010 I
b111010 Q
1!
#118
0!
#119
b111100 J
b111100 B
b111100 }
b111011 I
b111011 Q
1!
#120
0!
#121
b111101 J
b111101 B
b111101 }
b111100 I
b111100 Q
1!
#122
0!
#123
b111110 J
b111110 B
b111110 }
b111101 I
b111101 Q
1!
#124
0!
#125
b111111 J
b111111 B
b111111 }
b111110 I
b111110 Q
1!
#126
0!
#127
b1000000 J
b1000000 B
b1000000 }
b111111 I
b111111 Q
1!
#128
0!
#129
b1000001 J
b1000001 B
b1000001 }
b1000000 I
b1000000 Q
1!
#130
0!
#131
b1000010 J
b1000010 B
b1000010 }
b1000001 I
b1000001 Q
1!
#132
0!
#133
b1000011 J
b1000011 B
b1000011 }
b1000010 I
b1000010 Q
1!
#134
0!
#135
b1000100 J
b1000100 B
b1000100 }
b1000011 I
b1000011 Q
1!
#136
0!
#137
b1000101 J
b1000101 B
b1000101 }
b1000100 I
b1000100 Q
1!
#138
0!
#139
b1000110 J
b1000110 B
b1000110 }
b1000101 I
b1000101 Q
1!
#140
0!
#141
b1000111 J
b1000111 B
b1000111 }
b1000110 I
b1000110 Q
1!
#142
0!
#143
b1001000 J
b1001000 B
b1001000 }
b1000111 I
b1000111 Q
1!
#144
0!
#145
b1001001 J
b1001001 B
b1001001 }
b1001000 I
b1001000 Q
1!
#146
0!
#147
b1001010 J
b1001010 B
b1001010 }
b1001001 I
b1001001 Q
1!
#148
0!
#149
b1001011 J
b1001011 B
b1001011 }
b1001010 I
b1001010 Q
1!
#150
0!
#151
b1001100 J
b1001100 B
b1001100 }
b1001011 I
b1001011 Q
1!
#152
0!
#153
b1001101 J
b1001101 B
b1001101 }
b1001100 I
b1001100 Q
1!
#154
0!
#155
b1001110 J
b1001110 B
b1001110 }
b1001101 I
b1001101 Q
1!
#156
0!
#157
b1001111 J
b1001111 B
b1001111 }
b1001110 I
b1001110 Q
1!
#158
0!
#159
b1010000 J
b1010000 B
b1010000 }
b1001111 I
b1001111 Q
1!
#160
0!
#161
b1010001 J
b1010001 B
b1010001 }
b1010000 I
b1010000 Q
1!
#162
0!
#163
b1010010 J
b1010010 B
b1010010 }
b1010001 I
b1010001 Q
1!
#164
0!
#165
b1010011 J
b1010011 B
b1010011 }
b1010010 I
b1010010 Q
1!
#166
0!
#167
b1010100 J
b1010100 B
b1010100 }
b1010011 I
b1010011 Q
1!
#168
0!
#169
b1010101 J
b1010101 B
b1010101 }
b1010100 I
b1010100 Q
1!
#170
0!
#171
b1010110 J
b1010110 B
b1010110 }
b1010101 I
b1010101 Q
1!
#172
0!
#173
b1010111 J
b1010111 B
b1010111 }
b1010110 I
b1010110 Q
1!
#174
0!
#175
b1011000 J
b1011000 B
b1011000 }
b1010111 I
b1010111 Q
1!
#176
0!
#177
b1011001 J
b1011001 B
b1011001 }
b1011000 I
b1011000 Q
1!
#178
0!
#179
b1011010 J
b1011010 B
b1011010 }
b1011001 I
b1011001 Q
1!
#180
0!
#181
b1011011 J
b1011011 B
b1011011 }
b1011010 I
b1011010 Q
1!
#182
0!
#183
b1011100 J
b1011100 B
b1011100 }
b1011011 I
b1011011 Q
1!
#184
0!
#185
b1011101 J
b1011101 B
b1011101 }
b1011100 I
b1011100 Q
1!
#186
0!
#187
b1011110 J
b1011110 B
b1011110 }
b1011101 I
b1011101 Q
1!
#188
0!
#189
b1011111 J
b1011111 B
b1011111 }
b1011110 I
b1011110 Q
1!
#190
0!
#191
b1100000 J
b1100000 B
b1100000 }
b1011111 I
b1011111 Q
1!
#192
0!
#193
b1100001 J
b1100001 B
b1100001 }
b1100000 I
b1100000 Q
1!
#194
0!
#195
b1100010 J
b1100010 B
b1100010 }
b1100001 I
b1100001 Q
1!
#196
0!
#197
b1100011 J
b1100011 B
b1100011 }
b1100010 I
b1100010 Q
1!
#198
0!
#199
b1100100 J
b1100100 B
b1100100 }
b1100011 I
b1100011 Q
1!
#200
0!
#201
b1100101 J
b1100101 B
b1100101 }
b1100100 I
b1100100 Q
1!
#202
0!
#203
b1100110 J
b1100110 B
b1100110 }
b1100101 I
b1100101 Q
1!
#204
0!
#205
b1100111 J
b1100111 B
b1100111 }
b1100110 I
b1100110 Q
1!
#206
0!
#207
b1101000 J
b1101000 B
b1101000 }
b1100111 I
b1100111 Q
1!
#208
0!
#209
b1101001 J
b1101001 B
b1101001 }
b1101000 I
b1101000 Q
1!
#210
0!
#211
b1101010 J
b1101010 B
b1101010 }
b1101001 I
b1101001 Q
1!
#212
0!
#213
b1101011 J
b1101011 B
b1101011 }
b1101010 I
b1101010 Q
1!
#214
0!
#215
b1101100 J
b1101100 B
b1101100 }
b1101011 I
b1101011 Q
1!
#216
0!
#217
b1101101 J
b1101101 B
b1101101 }
b1101100 I
b1101100 Q
1!
#218
0!
#219
b1101110 J
b1101110 B
b1101110 }
b1101101 I
b1101101 Q
1!
#220
0!
#221
b1101111 J
b1101111 B
b1101111 }
b1101110 I
b1101110 Q
1!
#222
0!
#223
b1110000 J
b1110000 B
b1110000 }
b1101111 I
b1101111 Q
1!
#224
0!
#225
b1110001 J
b1110001 B
b1110001 }
b1110000 I
b1110000 Q
1!
#226
0!
#227
b1110010 J
b1110010 B
b1110010 }
b1110001 I
b1110001 Q
1!
#228
0!
#229
b1110011 J
b1110011 B
b1110011 }
b1110010 I
b1110010 Q
1!
#230
0!
#231
b1110100 J
b1110100 B
b1110100 }
b1110011 I
b1110011 Q
1!
#232
0!
#233
b1110101 J
b1110101 B
b1110101 }
b1110100 I
b1110100 Q
1!
#234
0!
#235
b1110110 J
b1110110 B
b1110110 }
b1110101 I
b1110101 Q
1!
#236
0!
#237
b1110111 J
b1110111 B
b1110111 }
b1110110 I
b1110110 Q
1!
#238
0!
#239
b1111000 J
b1111000 B
b1111000 }
b1110111 I
b1110111 Q
1!
#240
0!
#241
b1111001 J
b1111001 B
b1111001 }
b1111000 I
b1111000 Q
1!
#242
0!
#243
b1111010 J
b1111010 B
b1111010 }
b1111001 I
b1111001 Q
1!
#244
0!
#245
b1111011 J
b1111011 B
b1111011 }
b1111010 I
b1111010 Q
1!
#246
0!
#247
b1111100 J
b1111100 B
b1111100 }
b1111011 I
b1111011 Q
1!
#248
0!
#249
b1111101 J
b1111101 B
b1111101 }
b1111100 I
b1111100 Q
1!
#250
0!
#251
b1111110 J
b1111110 B
b1111110 }
b1111101 I
b1111101 Q
1!
#252
0!
#253
b1111111 J
b1111111 B
b1111111 }
b1111110 I
b1111110 Q
1!
#254
0!
#255
b10000000 J
b10000000 B
b10000000 }
b1111111 I
b1111111 Q
1!
#256
0!
#257
b10000001 J
b10000001 B
b10000001 }
b10000000 I
b10000000 Q
1!
#258
0!
#259
b10000010 J
b10000010 B
b10000010 }
b10000001 I
b10000001 Q
1!
#260
0!
#261
b10000011 J
b10000011 B
b10000011 }
b10000010 I
b10000010 Q
1!
#262
0!
#263
b10000100 J
b10000100 B
b10000100 }
b10000011 I
b10000011 Q
1!
#264
0!
#265
b10000101 J
b10000101 B
b10000101 }
b10000100 I
b10000100 Q
1!
#266
0!
#267
b10000110 J
b10000110 B
b10000110 }
b10000101 I
b10000101 Q
1!
#268
0!
#269
b10000111 J
b10000111 B
b10000111 }
b10000110 I
b10000110 Q
1!
#270
0!
#271
b10001000 J
b10001000 B
b10001000 }
b10000111 I
b10000111 Q
1!
#272
0!
#273
b10001001 J
b10001001 B
b10001001 }
b10001000 I
b10001000 Q
1!
#274
0!
#275
b10001010 J
b10001010 B
b10001010 }
b10001001 I
b10001001 Q
1!
#276
0!
#277
b10001011 J
b10001011 B
b10001011 }
b10001010 I
b10001010 Q
1!
#278
0!
#279
b10001100 J
b10001100 B
b10001100 }
b10001011 I
b10001011 Q
1!
#280
0!
#281
b10001101 J
b10001101 B
b10001101 }
b10001100 I
b10001100 Q
1!
#282
0!
#283
b10001110 J
b10001110 B
b10001110 }
b10001101 I
b10001101 Q
1!
#284
0!
#285
b10001111 J
b10001111 B
b10001111 }
b10001110 I
b10001110 Q
1!
#286
0!
#287
b10010000 J
b10010000 B
b10010000 }
b10001111 I
b10001111 Q
1!
#288
0!
#289
b10010001 J
b10010001 B
b10010001 }
b10010000 I
b10010000 Q
1!
#290
0!
#291
b10010010 J
b10010010 B
b10010010 }
b10010001 I
b10010001 Q
1!
#292
0!
#293
b10010011 J
b10010011 B
b10010011 }
b10010010 I
b10010010 Q
1!
#294
0!
#295
b10010100 J
b10010100 B
b10010100 }
b10010011 I
b10010011 Q
1!
#296
0!
#297
b10010101 J
b10010101 B
b10010101 }
b10010100 I
b10010100 Q
1!
#298
0!
#299
b10010110 J
b10010110 B
b10010110 }
b10010101 I
b10010101 Q
1!
#300
0!
#301
b10010111 J
b10010111 B
b10010111 }
b10010110 I
b10010110 Q
1!
#302
0!
#303
b10011000 J
b10011000 B
b10011000 }
b10010111 I
b10010111 Q
1!
#304
0!
#305
b10011001 J
b10011001 B
b10011001 }
b10011000 I
b10011000 Q
1!
#306
0!
#307
b10011010 J
b10011010 B
b10011010 }
b10011001 I
b10011001 Q
1!
#308
0!
#309
b10011011 J
b10011011 B
b10011011 }
b10011010 I
b10011010 Q
1!
#310
0!
#311
b10011100 J
b10011100 B
b10011100 }
b10011011 I
b10011011 Q
1!
#312
0!
#313
b10011101 J
b10011101 B
b10011101 }
b10011100 I
b10011100 Q
1!
#314
0!
#315
b10011110 J
b10011110 B
b10011110 }
b10011101 I
b10011101 Q
1!
#316
0!
#317
b10011111 J
b10011111 B
b10011111 }
b10011110 I
b10011110 Q
1!
#318
0!
#319
b10100000 J
b10100000 B
b10100000 }
b10011111 I
b10011111 Q
1!
#320
0!
#321
b10100001 J
b10100001 B
b10100001 }
b10100000 I
b10100000 Q
1!
#322
0!
#323
b10100010 J
b10100010 B
b10100010 }
b10100001 I
b10100001 Q
1!
#324
0!
#325
b10100011 J
b10100011 B
b10100011 }
b10100010 I
b10100010 Q
1!
#326
0!
#327
b10100100 J
b10100100 B
b10100100 }
b10100011 I
b10100011 Q
1!
#328
0!
#329
b10100101 J
b10100101 B
b10100101 }
b10100100 I
b10100100 Q
1!
#330
0!
#331
b10100110 J
b10100110 B
b10100110 }
b10100101 I
b10100101 Q
1!
#332
0!
#333
b10100111 J
b10100111 B
b10100111 }
b10100110 I
b10100110 Q
1!
#334
0!
#335
b10101000 J
b10101000 B
b10101000 }
b10100111 I
b10100111 Q
1!
#336
0!
#337
b10101001 J
b10101001 B
b10101001 }
b10101000 I
b10101000 Q
1!
#338
0!
#339
b10101010 J
b10101010 B
b10101010 }
b10101001 I
b10101001 Q
1!
#340
0!
#341
b10101011 J
b10101011 B
b10101011 }
b10101010 I
b10101010 Q
1!
#342
0!
#343
b10101100 J
b10101100 B
b10101100 }
b10101011 I
b10101011 Q
1!
#344
0!
#345
b10101101 J
b10101101 B
b10101101 }
b10101100 I
b10101100 Q
1!
#346
0!
#347
b10101110 J
b10101110 B
b10101110 }
b10101101 I
b10101101 Q
1!
#348
0!
#349
b10101111 J
b10101111 B
b10101111 }
b10101110 I
b10101110 Q
1!
#350
0!
#351
b10110000 J
b10110000 B
b10110000 }
b10101111 I
b10101111 Q
1!
#352
0!
#353
b10110001 J
b10110001 B
b10110001 }
b10110000 I
b10110000 Q
1!
#354
0!
#355
b10110010 J
b10110010 B
b10110010 }
b10110001 I
b10110001 Q
1!
#356
0!
#357
b10110011 J
b10110011 B
b10110011 }
b10110010 I
b10110010 Q
1!
#358
0!
#359
b10110100 J
b10110100 B
b10110100 }
b10110011 I
b10110011 Q
1!
#360
0!
#361
b10110101 J
b10110101 B
b10110101 }
b10110100 I
b10110100 Q
1!
#362
0!
#363
b10110110 J
b10110110 B
b10110110 }
b10110101 I
b10110101 Q
1!
#364
0!
#365
b10110111 J
b10110111 B
b10110111 }
b10110110 I
b10110110 Q
1!
#366
0!
#367
b10111000 J
b10111000 B
b10111000 }
b10110111 I
b10110111 Q
1!
#368
0!
#369
b10111001 J
b10111001 B
b10111001 }
b10111000 I
b10111000 Q
1!
#370
0!
#371
b10111010 J
b10111010 B
b10111010 }
b10111001 I
b10111001 Q
1!
#372
0!
#373
b10111011 J
b10111011 B
b10111011 }
b10111010 I
b10111010 Q
1!
#374
0!
#375
b10111100 J
b10111100 B
b10111100 }
b10111011 I
b10111011 Q
1!
#376
0!
#377
b10111101 J
b10111101 B
b10111101 }
b10111100 I
b10111100 Q
1!
#378
0!
#379
b10111110 J
b10111110 B
b10111110 }
b10111101 I
b10111101 Q
1!
#380
0!
#381
b10111111 J
b10111111 B
b10111111 }
b10111110 I
b10111110 Q
1!
#382
0!
#383
b11000000 J
b11000000 B
b11000000 }
b10111111 I
b10111111 Q
1!
#384
0!
#385
b11000001 J
b11000001 B
b11000001 }
b11000000 I
b11000000 Q
1!
#386
0!
#387
b11000010 J
b11000010 B
b11000010 }
b11000001 I
b11000001 Q
1!
#388
0!
#389
b11000011 J
b11000011 B
b11000011 }
b11000010 I
b11000010 Q
1!
#390
0!
#391
b11000100 J
b11000100 B
b11000100 }
b11000011 I
b11000011 Q
1!
#392
0!
#393
b11000101 J
b11000101 B
b11000101 }
b11000100 I
b11000100 Q
1!
#394
0!
#395
b11000110 J
b11000110 B
b11000110 }
b11000101 I
b11000101 Q
1!
#396
0!
#397
b11000111 J
b11000111 B
b11000111 }
b11000110 I
b11000110 Q
1!
#398
0!
#399
b11001000 J
b11001000 B
b11001000 }
b11000111 I
b11000111 Q
1!
#400
0!
#401
b11001001 J
b11001001 B
b11001001 }
b11001000 I
b11001000 Q
1!
#402
0!
#403
b11001010 J
b11001010 B
b11001010 }
b11001001 I
b11001001 Q
1!
#404
0!
#405
b11001011 J
b11001011 B
b11001011 }
b11001010 I
b11001010 Q
1!
#406
0!
#407
b11001100 J
b11001100 B
b11001100 }
b11001011 I
b11001011 Q
1!
#408
0!
#409
b11001101 J
b11001101 B
b11001101 }
b11001100 I
b11001100 Q
1!
#410
0!
#411
b11001110 J
b11001110 B
b11001110 }
b11001101 I
b11001101 Q
1!
#412
0!
#413
b11001111 J
b11001111 B
b11001111 }
b11001110 I
b11001110 Q
1!
#414
0!
#415
b11010000 J
b11010000 B
b11010000 }
b11001111 I
b11001111 Q
1!
#416
0!
#417
b11010001 J
b11010001 B
b11010001 }
b11010000 I
b11010000 Q
1!
#418
0!
#419
b11010010 J
b11010010 B
b11010010 }
b11010001 I
b11010001 Q
1!
#420
0!
#421
b11010011 J
b11010011 B
b11010011 }
b11010010 I
b11010010 Q
1!
#422
0!
#423
b11010100 J
b11010100 B
b11010100 }
b11010011 I
b11010011 Q
1!
#424
0!
#425
b11010101 J
b11010101 B
b11010101 }
b11010100 I
b11010100 Q
1!
#426
0!
#427
b11010110 J
b11010110 B
b11010110 }
b11010101 I
b11010101 Q
1!
#428
0!
#429
b11010111 J
b11010111 B
b11010111 }
b11010110 I
b11010110 Q
1!
#430
0!
#431
b11011000 J
b11011000 B
b11011000 }
b11010111 I
b11010111 Q
1!
#432
0!
#433
b11011001 J
b11011001 B
b11011001 }
b11011000 I
b11011000 Q
1!
#434
0!
