Pipeline/_16BitProcessor/execution_tb.vcd
$date
	Mon Jul 27 08:57:54 2015
$end
$version
	Icarus Verilog
$end
$timescale
	1s
$end
$scope module testbench $end
$scope module registerfile_tb $end
$var wire 1 ! clock $end
$var wire 6 " reg_rd1 [5:0] $end
$var wire 16 # reg_rd1_out [15:0] $end
$var wire 6 $ reg_rd2 [5:0] $end
$var wire 16 % reg_rd2_out [15:0] $end
$var wire 6 & reg_rd3 [5:0] $end
$var wire 16 ' reg_rd3_out [15:0] $end
$var wire 6 ( reg_wr1 [5:0] $end
$var wire 16 ) reg_wr1_data [15:0] $end
$var wire 1 * reg_wr1_enable $end
$var wire 6 + reg_wr2 [5:0] $end
$var wire 16 , reg_wr2_data [15:0] $end
$var wire 1 - reg_wr2_enable $end
$var wire 1 . reset $end
$upscope $end
$upscope $end
$scope module testbench $end
$scope module sixteenbbitdecoder_test $end
$var wire 1 / bit_check $end
$var wire 16 0 fetchoutput [15:0] $end
$var reg 3 1 destination [2:0] $end
$var reg 6 2 opcode [5:0] $end
$var reg 6 3 operationnumber [5:0] $end
$var reg 3 4 source_1 [2:0] $end
$var reg 3 5 source_2 [2:0] $end
$var reg 3 6 unsigned_1 [2:0] $end
$var reg 6 7 unsigned_2 [5:0] $end
$var reg 9 8 unsigned_3 [8:0] $end
$upscope $end
$upscope $end
$scope module testbench $end
$scope module fetch_test $end
$var wire 1 ! clock $end
$var wire 16 9 fetchoutput [15:0] $end
$var wire 20 : instruction_rd1 [19:0] $end
$var wire 16 ; instruction_rd1_out [15:0] $end
$var wire 9 < pcchange [8:0] $end
$var wire 3 = pcjumpenable [2:0] $end
$var wire 3 > pclocation [2:0] $end
$var reg 20 ? previous_programcounter [19:0] $end
$var reg 20 @ programcounter [19:0] $end
$upscope $end
$upscope $end
$scope module testbench $end
$scope module execution_test $end
$var wire 1 ! clock $end
$var wire 32 A data_rd1_out [31:0] $end
$var wire 32 B data_rd2_out [31:0] $end
$var wire 32 C data_rd3_out [31:0] $end
$var wire 32 D data_rd4_out [31:0] $end
$var wire 3 E destination [2:0] $end
$var wire 6 F operationnumber [5:0] $end
$var wire 20 G previous_programcounter [19:0] $end
$var wire 16 H reg_rd1_out [15:0] $end
$var wire 16 I reg_rd2_out [15:0] $end
$var wire 16 J reg_rd3_out [15:0] $end
$var wire 3 K source_1 [2:0] $end
$var wire 3 L source_2 [2:0] $end
$var wire 3 M unsigned_1 [2:0] $end
$var wire 6 N unsigned_2 [5:0] $end
$var wire 9 O unsigned_3 [8:0] $end
$var reg 9 P data_rd1 [8:0] $end
$var reg 9 Q data_rd2 [8:0] $end
$var reg 9 R data_rd3 [8:0] $end
$var reg 9 S data_rd4 [8:0] $end
$var reg 9 T data_wr1 [8:0] $end
$var reg 32 U data_wr1_data [31:0] $end
$var reg 1 V data_wr1_enable $end
$var reg 9 W data_wr2 [8:0] $end
$var reg 32 X data_wr2_data [31:0] $end
$var reg 1 Y data_wr2_enable $end
$var reg 9 Z data_wr3 [8:0] $end
$var reg 32 [ data_wr3_data [31:0] $end
$var reg 1 \ data_wr3_enable $end
$var reg 9 ] data_wr4 [8:0] $end
$var reg 32 ^ data_wr4_data [31:0] $end
$var reg 1 _ data_wr4_enable $end
$var reg 9 ` pcchange [8:0] $end
$var reg 3 a pcjumpenable [2:0] $end
$var reg 3 b pclocation [2:0] $end
$var reg 6 c reg_rd1 [5:0] $end
$var reg 6 d reg_rd2 [5:0] $end
$var reg 6 e reg_rd3 [5:0] $end
$var reg 6 f reg_wr1 [5:0] $end
$var reg 16 g reg_wr1_data [15:0] $end
$var reg 1 h reg_wr1_enable $end
$var reg 6 i reg_wr2 [5:0] $end
$var reg 16 j reg_wr2_data [15:0] $end
$var reg 1 k reg_wr2_enable $end
$upscope $end
$upscope $end
$scope module testbench $end
$scope module TheInstructionMemory_test $end
$var wire 1 ! clock $end
$var wire 20 l instruction_rd1 [19:0] $end
$var wire 16 m instruction_rd1_out [15:0] $end
$var wire 20 n instruction_rd2 [19:0] $end
$var wire 16 o instruction_rd2_out [15:0] $end
$var wire 20 p instruction_rd3 [19:0] $end
$var wire 16 q instruction_rd3_out [15:0] $end
$var wire 20 r instruction_rd4 [19:0] $end
$var wire 16 s instruction_rd4_out [15:0] $end
$var wire 20 t instruction_wr1 [19:0] $end
$var wire 16 u instruction_wr1_data [15:0] $end
$var wire 1 v instruction_wr1_enable $end
$var wire 20 w instruction_wr2 [19:0] $end
$var wire 16 x instruction_wr2_data [15:0] $end
$var wire 1 y instruction_wr2_enable $end
$var wire 20 z instruction_wr3 [19:0] $end
$var wire 16 { instruction_wr3_data [15:0] $end
$var wire 1 | instruction_wr3_enable $end
$var wire 20 } instruction_wr4 [19:0] $end
$var wire 16 ~ instruction_wr4_data [15:0] $end
$var wire 1 !" instruction_wr4_enable $end
$var wire 1 . reset $end
$upscope $end
$upscope $end
$enddefinitions $end
#0
$dumpvars
z!"
bxz ~
bxz }
z|
bxz {
bxz z
zy
bxz x
bxz w
zv
bxz u
bxz t
bx s
bz r
bx q
bz p
bx o
bz n
bx m
b0 l
xk
bx j
bx i
xh
bx g
bx f
bx e
bx d
bx c
bx b
bx a
bx `
x_
bx ^
bx ]
x\
bx [
bx Z
xY
bx X
bx W
xV
bx U
bx T
bx S
bx R
bx Q
bx P
bx O
bx N
bx M
bx L
bx K
bx J
bx I
bx H
bx G
bx F
bx E
bz D
bz C
bz B
bz A
b0 @
bx ?
bx >
bx =
bx <
bx ;
b0 :
bx 9
bx 8
bx 7
bx 6
bx 5
bx 4
bx 3
bx 2
bx 1
bx 0
x/
x.
x-
bx ,
bx +
x*
bx )
bx (
bx '
bx &
bx %
bx $
bx #
bx "
0!
$end
#1
b0 ?
b0 G
b1 @
b1 :
b1 l
b0 a
b0 =
b0xxx e
b0xxx &
b0xxx d
b0xxx $
b0xxx c
b0xxx "
0k
0-
0h
0*
1!
#2
0/
b0 0
b0 9
b0 ;
b0 m
0!
1.
#3
b1111 3
b1111 F
b100001100 8
b100001100 O
b1100 7
b1100 N
b100 6
b100 M
b100 5
b100 L
b1 4
b1 K
b100 1
b100 E
b1111 2
b1 ?
b1 G
b10 @
b1111100001100 0
b1111100001100 9
b1111100001100 ;
b1111100001100 m
b10 :
b10 l
1!
#4
0!
0.
#5
b101000011 8
b101000011 O
b11 7
b11 N
b11 6
b11 M
b11 5
b11 L
b0 4
b0 K
b101 1
b101 E
b10 ?
b10 G
b11 @
b1111101000011 0
b1111101000011 9
b1111101000011 ;
b1111101000011 m
b11 :
b11 l
1h
1*
b1100 g
b1100 )
b100 f
b100 (
b100 e
b1100 '
b1100 J
b100 &
b100 d
b1100 %
b1100 I
b100 $
b1 c
b0 #
b0 H
b1 "
1!
#6
0!
#7
b0 3
b0 F
b0 8
b0 O
b0 7
b0 N
b0 6
b0 M
b0 5
b0 L
b0 1
b0 E
b0 2
b11 ?
b11 G
b100 @
b0 0
b0 9
b0 ;
b0 m
b100 :
b100 l
b11 g
b11 )
b101 f
b101 (
b101 e
b11 '
b11 J
b101 &
b11 d
b0 %
b0 I
b11 $
b0 c
b0 "
1h
1*
1!
#8
0!
#9
b100 ?
b100 G
b101 @
b101 :
b101 l
b0 e
b0 '
b0 J
b0 &
b0 d
b0 $
0h
0*
1!
#10
0!
#11
b101 ?
b101 G
b110 @
b110 :
b110 l
1!
#12
0!
#13
b110 ?
b110 G
b111 @
b111 :
b111 l
1!
#14
0!
#15
b1010 3
b1010 F
b1001010 8
b1001010 O
b1010 7
b1010 N
b10 6
b10 M
b10 5
b10 L
b1 4
b1 K
b1 1
b1 E
b1010 2
b111 ?
b111 G
b1000 @
b1010001001010 0
b1010001001010 9
b1010001001010 ;
b1010001001010 m
b1000 :
b1000 l
1!
#16
0!
#17
b1111 3
b1111 F
b11 8
b11 O
b11 7
b11 N
b11 6
b11 M
b11 5
b11 L
b0 4
b0 K
b0 1
b0 E
b1111 2
b1000 ?
b1000 G
b1001 @
b1111000000011 0
b1111000000011 9
b1111000000011 ;
b1111000000011 m
b1001 :
b1001 l
b10 #
b10 H
b10 '
b10 J
1h
1*
b10 g
b10 )
b1 f
b1 (
b1 e
b1 &
b10 d
b10 $
b1 c
b1 "
1!
#18
0!
#19
b1 3
b1 F
b10001000 8
b10001000 O
b1000 7
b1000 N
b0 6
b0 M
b0 5
b0 L
b1 4
b1 K
b10 1
b10 E
b1 2
b1001 ?
b1001 G
b1010 @
b1010001000 0
b1010001000 9
b1010001000 ;
b1010001000 m
b1010 :
b1010 l
b11 g
b11 )
b0 f
b0 (
b0 e
b11 '
b11 J
b0 &
b11 d
b11 $
b0 c
b11 #
b11 H
b0 "
1h
1*
1!
#20
0!
#21
b1111 3
b1111 F
b11111111 8
b11111111 O
b111111 7
b111111 N
b111 6
b111 M
b111 5
b111 L
b111 4
b111 K
b11 1
b11 E
b1111 2
b1010 ?
b1010 G
b1011 @
b1111011111111 0
b1111011111111 9
b1111011111111 ;
b1111011111111 m
b1011 :
b1011 l
b101 g
b101 )
b10 f
b10 (
b10 e
b101 '
b101 J
b10 &
b0 d
b11 %
b11 I
b0 $
b1 c
b10 #
b10 H
b1 "
1h
1*
1!
#22
0!
#23
b111 3
b111 F
b1011101 8
b1011101 O
b11101 7
b11101 N
b101 6
b101 M
b101 5
b101 L
b11 4
b11 K
b1 1
b1 E
b111 2
b1011 ?
b1011 G
b1100 @
b111001011101 0
b111001011101 9
b111001011101 ;
b111001011101 m
b1100 :
b1100 l
b111111 g
b111111 )
b11 f
b11 (
b11 e
b111111 '
b111111 J
b11 &
b111 d
b0 %
b0 I
b111 $
b111 c
b0 #
b0 H
b111 "
1h
1*
1!
#24
0!
#25
b11100 3
b11100 F
b11001010 8
b11001010 O
b1010 7
b1010 N
b10 6
b10 M
b10 5
b10 L
b1 4
b1 K
b11 1
b11 E
b11100 2
b1100 ?
b1100 G
b1101 @
b11100011001010 0
b11100011001010 9
b11100011001010 ;
b11100011001010 m
b1101 :
b1101 l
b111111000 g
b111111000 )
b1 f
b1 (
b1 e
b111111000 '
b111111000 J
b1 &
b101 d
b11 %
b11 I
b101 $
b11 c
b111111 #
b111111 H
b11 "
1h
1*
1!
#26
0!
#27
b10000 3
b10000 F
b11010 8
b11010 O
b11010 7
b11010 N
b11 4
b11 K
b0 1
b0 E
b10000 2
b1101 ?
b1101 G
b1110 @
b10000000011010 0
b10000000011010 9
b10000000011010 ;
b10000000011010 m
b1110 :
b1110 l
1V
bx0000000111111000 U
b111111010 T
b11 f
b11 (
b11 e
b111111 '
b111111 J
b11 &
b10 d
b101 %
b101 I
b10 $
b1 c
b111111000 #
b111111000 H
b1 "
0h
0*
1!
#28
0!
#29
b100000 3
b100000 F
b10 8
b10 O
b10 7
b10 N
b0 4
b0 K
b100000 2
b1110 ?
b1110 G
b1111 @
b100000000000010 0
b100000000000010 9
b100000000000010 ;
b100000000000010 m
b1111 :
b1111 l
1h
1*
b0zzzzzzzz g
b0zzzzzzzz )
b1000001 P
b0 f
b0 (
b0 e
b0zzzzzzzz '
b0zzzzzzzz J
b0 &
b11 c
b111111 #
b111111 H
b11 "
1!
#30
0!
#31
b1010 3
b1010 F
b11001001 8
b11001001 O
b1001 7
b1001 N
b1 6
b1 M
b1 5
b1 L
b1 4
b1 K
b11 1
b11 E
b1010 2
b1111 ?
b1111 G
b10000 @
b1010011001001 0
b1010011001001 9
b1010011001001 ;
b1010011001001 m
b10000 :
b10000 l
b1 a
b1 =
b10 `
b10 <
b0 c
b0zzzzzzzz #
b0zzzzzzzz H
b0 "
0h
0*
1!
#32
0!
#33
b101001 3
b101001 F
b100000000 8
b100000000 O
b0 7
b0 N
b0 6
b0 M
b0 5
b0 L
b0 4
b0 K
b100 1
b100 E
b101001 2
b10000 ?
b10000 G
b10001 @
b101001100000000 0
b101001100000000 9
b101001100000000 ;
b101001100000000 m
b10001 :
b10001 l
1h
1*
b111111001 g
b111111001 )
b11 f
b11 (
b0 a
b0 =
b11 e
b111111001 '
b111111001 J
b11 &
b1 d
b111111000 %
b111111000 I
b1 $
b1 c
b111111000 #
b111111000 H
b1 "
1!
#34
0!
#35
b1111 3
b1111 F
b0 8
b0 O
b0 1
b0 E
b1111 2
b10001 ?
b10001 G
b10010 @
b1111000000000 0
b1111000000000 9
b1111000000000 ;
b1111000000000 m
b10010 :
b10010 l
b10 a
b10 =
b0 b
b0 >
b100 e
b1100 '
b1100 J
b100 &
b0 d
b0zzzzzzzz %
b0zzzzzzzz I
b0 $
b0 c
b0zzzzzzzz #
b0zzzzzzzz H
b0 "
0h
0*
1!
#36
0!
#37
b0 3
b0 F
b0 2
b10010 ?
b10010 G
b10011 @
b0 0
b0 9
b0 ;
b0 m
b10011 :
b10011 l
b0 #
b0 H
b0 %
b0 I
1h
1*
b0 g
b0 )
b0 f
b0 (
b0 a
b0 =
b0 e
b0 '
b0 J
b0 &
1!
#38
0!
#39
b10011 ?
b10011 G
b10100 @
b10100 :
b10100 l
0h
0*
1!
#40
0!
#41
b10100 ?
b10100 G
b10101 @
b10101 :
b10101 l
1!
#42
0!
#43
b10101 ?
b10101 G
b10110 @
b10110 :
b10110 l
1!
#44
0!
#45
b10110 ?
b10110 G
b10111 @
b10111 :
b10111 l
1!
#46
0!
#47
b10111 ?
b10111 G
b11000 @
b11000 :
b11000 l
1!
#48
0!
#49
b11000 ?
b11000 G
b11001 @
b11001 :
b11001 l
1!
#50
0!
#51
b11001 ?
b11001 G
b11010 @
b11010 :
b11010 l
1!
#52
0!
#53
b11010 ?
b11010 G
b11011 @
b11011 :
b11011 l
1!
#54
0!
#55
b11011 ?
b11011 G
b11100 @
b11100 :
b11100 l
1!
#56
0!
#57
b11100 ?
b11100 G
b11101 @
b11101 :
b11101 l
1!
#58
0!
#59
b11101 ?
b11101 G
b11110 @
b11110 :
b11110 l
1!
#60
0!
#61
b11110 ?
b11110 G
b11111 @
b11111 :
b11111 l
1!
#62
0!
#63
b11111 ?
b11111 G
b100000 @
b100000 :
b100000 l
1!
#64
0!
#65
b100000 ?
b100000 G
b100001 @
b100001 :
b100001 l
1!
#66
0!
#67
b100001 ?
b100001 G
b100010 @
b100010 :
b100010 l
1!
#68
0!
#69
b100010 ?
b100010 G
b100011 @
b100011 :
b100011 l
1!
#70
0!
#71
b100011 ?
b100011 G
b100100 @
b100100 :
b100100 l
1!
#72
0!
#73
b100100 ?
b100100 G
b100101 @
b100101 :
b100101 l
1!
#74
0!
#75
b100101 ?
b100101 G
b100110 @
b100110 :
b100110 l
1!
#76
0!
#77
b100110 ?
b100110 G
b100111 @
b100111 :
b100111 l
1!
#78
0!
#79
b100111 ?
b100111 G
b101000 @
b101000 :
b101000 l
1!
#80
0!
#81
b101000 ?
b101000 G
b101001 @
b101001 :
b101001 l
1!
#82
0!
#83
b101001 ?
b101001 G
b101010 @
b101010 :
b101010 l
1!
#84
0!
#85
b101010 ?
b101010 G
b101011 @
b101011 :
b101011 l
1!
#86
0!
#87
b101011 ?
b101011 G
b101100 @
b101100 :
b101100 l
1!
#88
0!
#89
b101100 ?
b101100 G
b101101 @
b101101 :
b101101 l
1!
#90
0!
#91
b101101 ?
b101101 G
b101110 @
b101110 :
b101110 l
1!
#92
0!
#93
b101110 ?
b101110 G
b101111 @
b101111 :
b101111 l
1!
#94
0!
#95
b101111 ?
b101111 G
b110000 @
b110000 :
b110000 l
1!
#96
0!
#97
b110000 ?
b110000 G
b110001 @
b110001 :
b110001 l
1!
#98
0!
#99
b110001 ?
b110001 G
b110010 @
b110010 :
b110010 l
1!
#100
0!
#101
b110010 ?
b110010 G
b110011 @
b110011 :
b110011 l
1!
#102
0!
#103
b110011 ?
b110011 G
b110100 @
b110100 :
b110100 l
1!
#104
0!
#105
b110100 ?
b110100 G
b110101 @
b110101 :
b110101 l
1!
#106
0!
#107
b110101 ?
b110101 G
b110110 @
b110110 :
b110110 l
1!
#108
0!
#109
b110110 ?
b110110 G
b110111 @
b110111 :
b110111 l
1!
#110
0!
#111
b110111 ?
b110111 G
b111000 @
b111000 :
b111000 l
1!
#112
0!
#113
b111000 ?
b111000 G
b111001 @
b111001 :
b111001 l
1!
#114
0!
#115
b111001 ?
b111001 G
b111010 @
b111010 :
b111010 l
1!
#116
0!
#117
b111010 ?
b111010 G
b111011 @
b111011 :
b111011 l
1!
#118
0!
#119
b111011 ?
b111011 G
b111100 @
b111100 :
b111100 l
1!
#120
0!
#121
b111100 ?
b111100 G
b111101 @
b111101 :
b111101 l
1!
#122
0!
#123
b111101 ?
b111101 G
b111110 @
b111110 :
b111110 l
1!
#124
0!
#125
b111110 ?
b111110 G
b111111 @
b111111 :
b111111 l
1!
#126
0!
#127
b111111 ?
b111111 G
b1000000 @
b1000000 :
b1000000 l
1!
#128
0!
#129
b1000000 ?
b1000000 G
b1000001 @
b1000001 :
b1000001 l
1!
#130
0!
#131
b1000001 ?
b1000001 G
b1000010 @
b1000010 :
b1000010 l
1!
#132
0!
#133
b1000010 ?
b1000010 G
b1000011 @
b1000011 :
b1000011 l
1!
#134
0!
#135
b1000011 ?
b1000011 G
b1000100 @
b1000100 :
b1000100 l
1!
#136
0!
#137
b1000100 ?
b1000100 G
b1000101 @
b1000101 :
b1000101 l
1!
#138
0!
#139
b1000101 ?
b1000101 G
b1000110 @
b1000110 :
b1000110 l
1!
#140
0!
#141
b1000110 ?
b1000110 G
b1000111 @
b1000111 :
b1000111 l
1!
#142
0!
#143
b1000111 ?
b1000111 G
b1001000 @
b1001000 :
b1001000 l
1!
#144
0!
#145
b1001000 ?
b1001000 G
b1001001 @
b1001001 :
b1001001 l
1!
#146
0!
#147
b1001001 ?
b1001001 G
b1001010 @
b1001010 :
b1001010 l
1!
#148
0!
#149
b1001010 ?
b1001010 G
b1001011 @
b1001011 :
b1001011 l
1!
#150
0!
#151
b1001011 ?
b1001011 G
b1001100 @
b1001100 :
b1001100 l
1!
#152
0!
#153
b1001100 ?
b1001100 G
b1001101 @
b1001101 :
b1001101 l
1!
#154
0!
#155
b1001101 ?
b1001101 G
b1001110 @
b1001110 :
b1001110 l
1!
#156
0!
#157
b1001110 ?
b1001110 G
b1001111 @
b1001111 :
b1001111 l
1!
#158
0!
#159
b1001111 ?
b1001111 G
b1010000 @
b1010000 :
b1010000 l
1!
#160
0!
#161
b1010000 ?
b1010000 G
b1010001 @
b1010001 :
b1010001 l
1!
#162
0!
#163
b1010001 ?
b1010001 G
b1010010 @
b1010010 :
b1010010 l
1!
#164
0!
#165
b1010010 ?
b1010010 G
b1010011 @
b1010011 :
b1010011 l
1!
#166
0!
#167
b1010011 ?
b1010011 G
b1010100 @
b1010100 :
b1010100 l
1!
#168
0!
#169
b1010100 ?
b1010100 G
b1010101 @
b1010101 :
b1010101 l
1!
#170
0!
#171
b1010101 ?
b1010101 G
b1010110 @
b1010110 :
b1010110 l
1!
#172
0!
#173
b1010110 ?
b1010110 G
b1010111 @
b1010111 :
b1010111 l
1!
#174
0!
#175
b1010111 ?
b1010111 G
b1011000 @
b1011000 :
b1011000 l
1!
#176
0!
#177
b1011000 ?
b1011000 G
b1011001 @
b1011001 :
b1011001 l
1!
#178
0!
#179
b1011001 ?
b1011001 G
b1011010 @
b1011010 :
b1011010 l
1!
#180
0!
#181
b1011010 ?
b1011010 G
b1011011 @
b1011011 :
b1011011 l
1!
#182
0!
#183
b1011011 ?
b1011011 G
b1011100 @
b1011100 :
b1011100 l
1!
#184
0!
#185
b1011100 ?
b1011100 G
b1011101 @
b1011101 :
b1011101 l
1!
#186
0!
#187
b1011101 ?
b1011101 G
b1011110 @
b1011110 :
b1011110 l
1!
#188
0!
#189
b1011110 ?
b1011110 G
b1011111 @
b1011111 :
b1011111 l
1!
#190
0!
#191
b1011111 ?
b1011111 G
b1100000 @
b1100000 :
b1100000 l
1!
#192
0!
#193
b1100000 ?
b1100000 G
b1100001 @
b1100001 :
b1100001 l
1!
#194
0!
#195
b1100001 ?
b1100001 G
b1100010 @
b1100010 :
b1100010 l
1!
#196
0!
#197
b1100010 ?
b1100010 G
b1100011 @
b1100011 :
b1100011 l
1!
#198
0!
#199
b1100011 ?
b1100011 G
b1100100 @
b1100100 :
b1100100 l
1!
#200
0!
#201
b1100100 ?
b1100100 G
b1100101 @
b1100101 :
b1100101 l
1!
#202
0!
#203
b1100101 ?
b1100101 G
b1100110 @
b1100110 :
b1100110 l
1!
#204
0!
#205
b1100110 ?
b1100110 G
b1100111 @
b1100111 :
b1100111 l
1!
#206
0!
#207
b1100111 ?
b1100111 G
b1101000 @
b1101000 :
b1101000 l
1!
#208
0!
#209
b1101000 ?
b1101000 G
b1101001 @
b1101001 :
b1101001 l
1!
#210
0!
#211
b1101001 ?
b1101001 G
b1101010 @
b1101010 :
b1101010 l
1!
#212
0!
#213
b1101010 ?
b1101010 G
b1101011 @
b1101011 :
b1101011 l
1!
#214
0!
#215
b1101011 ?
b1101011 G
b1101100 @
b1101100 :
b1101100 l
1!
#216
0!
#217
b1101100 ?
b1101100 G
b1101101 @
b1101101 :
b1101101 l
1!
#218
0!
#219
b1101101 ?
b1101101 G
b1101110 @
b1101110 :
b1101110 l
1!
#220
0!
#221
b1101110 ?
b1101110 G
b1101111 @
b1101111 :
b1101111 l
1!
#222
0!
#223
b1101111 ?
b1101111 G
b1110000 @
b1110000 :
b1110000 l
1!
#224
0!
#225
b1110000 ?
b1110000 G
b1110001 @
b1110001 :
b1110001 l
1!
#226
0!
#227
b1110001 ?
b1110001 G
b1110010 @
b1110010 :
b1110010 l
1!
#228
0!
#229
b1110010 ?
b1110010 G
b1110011 @
b1110011 :
b1110011 l
1!
#230
0!
#231
b1110011 ?
b1110011 G
b1110100 @
b1110100 :
b1110100 l
1!
#232
0!
#233
b1110100 ?
b1110100 G
b1110101 @
b1110101 :
b1110101 l
1!
#234
0!
#235
b1110101 ?
b1110101 G
b1110110 @
b1110110 :
b1110110 l
1!
#236
0!
#237
b1110110 ?
b1110110 G
b1110111 @
b1110111 :
b1110111 l
1!
#238
0!
#239
b1110111 ?
b1110111 G
b1111000 @
b1111000 :
b1111000 l
1!
#240
0!
#241
b1111000 ?
b1111000 G
b1111001 @
b1111001 :
b1111001 l
1!
#242
0!
#243
b1111001 ?
b1111001 G
b1111010 @
b1111010 :
b1111010 l
1!
#244
0!
#245
b1111010 ?
b1111010 G
b1111011 @
b1111011 :
b1111011 l
1!
#246
0!
#247
b1111011 ?
b1111011 G
b1111100 @
b1111100 :
b1111100 l
1!
#248
0!
#249
b1111100 ?
b1111100 G
b1111101 @
b1111101 :
b1111101 l
1!
#250
0!
#251
b1111101 ?
b1111101 G
b1111110 @
b1111110 :
b1111110 l
1!
#252
0!
#253
b1111110 ?
b1111110 G
b1111111 @
b1111111 :
b1111111 l
1!
#254
0!
#255
b1111111 ?
b1111111 G
b10000000 @
b10000000 :
b10000000 l
1!
#256
0!
#257
b10000000 ?
b10000000 G
b10000001 @
b10000001 :
b10000001 l
1!
#258
0!
#259
b10000001 ?
b10000001 G
b10000010 @
b10000010 :
b10000010 l
1!
#260
0!
#261
b10000010 ?
b10000010 G
b10000011 @
b10000011 :
b10000011 l
1!
#262
0!
#263
b10000011 ?
b10000011 G
b10000100 @
b10000100 :
b10000100 l
1!
#264
0!
#265
b10000100 ?
b10000100 G
b10000101 @
b10000101 :
b10000101 l
1!
#266
0!
#267
b10000101 ?
b10000101 G
b10000110 @
b10000110 :
b10000110 l
1!
#268
0!
#269
b10000110 ?
b10000110 G
b10000111 @
b10000111 :
b10000111 l
1!
#270
0!
#271
b10000111 ?
b10000111 G
b10001000 @
b10001000 :
b10001000 l
1!
#272
0!
#273
b10001000 ?
b10001000 G
b10001001 @
b10001001 :
b10001001 l
1!
#274
0!
#275
b10001001 ?
b10001001 G
b10001010 @
b10001010 :
b10001010 l
1!
#276
0!
#277
b10001010 ?
b10001010 G
b10001011 @
b10001011 :
b10001011 l
1!
#278
0!
#279
b10001011 ?
b10001011 G
b10001100 @
b10001100 :
b10001100 l
1!
#280
0!
#281
b10001100 ?
b10001100 G
b10001101 @
b10001101 :
b10001101 l
1!
#282
0!
#283
b10001101 ?
b10001101 G
b10001110 @
b10001110 :
b10001110 l
1!
#284
0!
#285
b10001110 ?
b10001110 G
b10001111 @
b10001111 :
b10001111 l
1!
#286
0!
#287
b10001111 ?
b10001111 G
b10010000 @
b10010000 :
b10010000 l
1!
#288
0!
#289
b10010000 ?
b10010000 G
b10010001 @
b10010001 :
b10010001 l
1!
#290
0!
#291
b10010001 ?
b10010001 G
b10010010 @
b10010010 :
b10010010 l
1!
#292
0!
#293
b10010010 ?
b10010010 G
b10010011 @
b10010011 :
b10010011 l
1!
#294
0!
#295
b10010011 ?
b10010011 G
b10010100 @
b10010100 :
b10010100 l
1!
#296
0!
#297
b10010100 ?
b10010100 G
b10010101 @
b10010101 :
b10010101 l
1!
#298
0!
#299
b10010101 ?
b10010101 G
b10010110 @
b10010110 :
b10010110 l
1!
#300
0!
#301
b10010110 ?
b10010110 G
b10010111 @
b10010111 :
b10010111 l
1!
#302
0!
#303
b10010111 ?
b10010111 G
b10011000 @
b10011000 :
b10011000 l
1!
#304
0!
#305
b10011000 ?
b10011000 G
b10011001 @
b10011001 :
b10011001 l
1!
#306
0!
#307
b10011001 ?
b10011001 G
b10011010 @
b10011010 :
b10011010 l
1!
#308
0!
#309
b10011010 ?
b10011010 G
b10011011 @
b10011011 :
b10011011 l
1!
#310
0!
#311
b10011011 ?
b10011011 G
b10011100 @
b10011100 :
b10011100 l
1!
#312
0!
#313
b10011100 ?
b10011100 G
b10011101 @
b10011101 :
b10011101 l
1!
#314
0!
#315
b10011101 ?
b10011101 G
b10011110 @
b10011110 :
b10011110 l
1!
#316
0!
#317
b10011110 ?
b10011110 G
b10011111 @
b10011111 :
b10011111 l
1!
#318
0!
#319
b10011111 ?
b10011111 G
b10100000 @
b10100000 :
b10100000 l
1!
#320
0!
#321
b10100000 ?
b10100000 G
b10100001 @
b10100001 :
b10100001 l
1!
#322
0!
#323
b10100001 ?
b10100001 G
b10100010 @
b10100010 :
b10100010 l
1!
#324
0!
#325
b10100010 ?
b10100010 G
b10100011 @
b10100011 :
b10100011 l
1!
#326
0!
#327
b10100011 ?
b10100011 G
b10100100 @
b10100100 :
b10100100 l
1!
#328
0!
#329
b10100100 ?
b10100100 G
b10100101 @
b10100101 :
b10100101 l
1!
#330
0!
#331
b10100101 ?
b10100101 G
b10100110 @
b10100110 :
b10100110 l
1!
#332
0!
#333
b10100110 ?
b10100110 G
b10100111 @
b10100111 :
b10100111 l
1!
#334
0!
#335
b10100111 ?
b10100111 G
b10101000 @
b10101000 :
b10101000 l
1!
#336
0!
#337
b10101000 ?
b10101000 G
b10101001 @
b10101001 :
b10101001 l
1!
#338
0!
#339
b10101001 ?
b10101001 G
b10101010 @
b10101010 :
b10101010 l
1!
#340
0!
#341
b10101010 ?
b10101010 G
b10101011 @
b10101011 :
b10101011 l
1!
#342
0!
#343
b10101011 ?
b10101011 G
b10101100 @
b10101100 :
b10101100 l
1!
#344
0!
#345
b10101100 ?
b10101100 G
b10101101 @
b10101101 :
b10101101 l
1!
#346
0!
#347
b10101101 ?
b10101101 G
b10101110 @
b10101110 :
b10101110 l
1!
#348
0!
#349
b10101110 ?
b10101110 G
b10101111 @
b10101111 :
b10101111 l
1!
#350
0!
#351
b10101111 ?
b10101111 G
b10110000 @
b10110000 :
b10110000 l
1!
#352
0!
#353
b10110000 ?
b10110000 G
b10110001 @
b10110001 :
b10110001 l
1!
#354
0!
#355
b10110001 ?
b10110001 G
b10110010 @
b10110010 :
b10110010 l
1!
#356
0!
#357
b10110010 ?
b10110010 G
b10110011 @
b10110011 :
b10110011 l
1!
#358
0!
#359
b10110011 ?
b10110011 G
b10110100 @
b10110100 :
b10110100 l
1!
#360
0!
#361
b10110100 ?
b10110100 G
b10110101 @
b10110101 :
b10110101 l
1!
#362
0!
#363
b10110101 ?
b10110101 G
b10110110 @
b10110110 :
b10110110 l
1!
#364
0!
#365
b10110110 ?
b10110110 G
b10110111 @
b10110111 :
b10110111 l
1!
#366
0!
#367
b10110111 ?
b10110111 G
b10111000 @
b10111000 :
b10111000 l
1!
#368
0!
#369
b10111000 ?
b10111000 G
b10111001 @
b10111001 :
b10111001 l
1!
#370
0!
#371
b10111001 ?
b10111001 G
b10111010 @
b10111010 :
b10111010 l
1!
#372
0!
#373
b10111010 ?
b10111010 G
b10111011 @
b10111011 :
b10111011 l
1!
#374
0!
#375
b10111011 ?
b10111011 G
b10111100 @
b10111100 :
b10111100 l
1!
#376
0!
#377
b10111100 ?
b10111100 G
b10111101 @
b10111101 :
b10111101 l
1!
#378
0!
#379
b10111101 ?
b10111101 G
b10111110 @
b10111110 :
b10111110 l
1!
#380
0!
#381
b10111110 ?
b10111110 G
b10111111 @
b10111111 :
b10111111 l
1!
#382
0!
#383
b10111111 ?
b10111111 G
b11000000 @
b11000000 :
b11000000 l
1!
#384
0!
#385
b11000000 ?
b11000000 G
b11000001 @
b11000001 :
b11000001 l
1!
#386
0!
#387
b11000001 ?
b11000001 G
b11000010 @
b11000010 :
b11000010 l
1!
#388
0!
#389
b11000010 ?
b11000010 G
b11000011 @
b11000011 :
b11000011 l
1!
#390
0!
#391
b11000011 ?
b11000011 G
b11000100 @
b11000100 :
b11000100 l
1!
#392
0!
#393
b11000100 ?
b11000100 G
b11000101 @
b11000101 :
b11000101 l
1!
#394
0!
#395
b11000101 ?
b11000101 G
b11000110 @
b11000110 :
b11000110 l
1!
#396
0!
#397
b11000110 ?
b11000110 G
b11000111 @
b11000111 :
b11000111 l
1!
#398
0!
#399
b11000111 ?
b11000111 G
b11001000 @
b11001000 :
b11001000 l
1!
#400
0!
