Pipeline/Testing/executetest/execution_tb.vcd
$date
	Fri Jul 17 11:29:38 2015
$end
$version
	Icarus Verilog
$end
$timescale
	1s
$end
$scope module testbench $end
$scope module registerfile_tb $end
$var wire 1 ! clock $end
$var wire 6 " reg_rd1 [5:0] $end
$var wire 16 # reg_rd1_out [15:0] $end
$var wire 6 $ reg_rd2 [5:0] $end
$var wire 16 % reg_rd2_out [15:0] $end
$var wire 6 & reg_rd3 [5:0] $end
$var wire 16 ' reg_rd3_out [15:0] $end
$var wire 6 ( reg_wr1 [5:0] $end
$var wire 16 ) reg_wr1_data [15:0] $end
$var wire 1 * reg_wr1_enable $end
$var wire 6 + reg_wr2 [5:0] $end
$var wire 16 , reg_wr2_data [15:0] $end
$var wire 1 - reg_wr2_enable $end
$var wire 1 . reset $end
$upscope $end
$upscope $end
$scope module testbench $end
$scope module sixteenbbitdecoder_test $end
$var wire 1 / bit_check $end
$var wire 16 0 fetchoutput [15:0] $end
$var reg 3 1 destination [2:0] $end
$var reg 6 2 opcode [5:0] $end
$var reg 6 3 operationnumber [5:0] $end
$var reg 3 4 source_1 [2:0] $end
$var reg 3 5 source_2 [2:0] $end
$var reg 3 6 unsigned_1 [2:0] $end
$var reg 6 7 unsigned_2 [5:0] $end
$var reg 9 8 unsigned_3 [8:0] $end
$upscope $end
$upscope $end
$scope module testbench $end
$scope module fetch_test $end
$var wire 16 9 fetchoutput [15:0] $end
$var reg 16 : fetchvalue [15:0] $end
$upscope $end
$upscope $end
$scope module testbench $end
$scope module execution_test $end
$var wire 1 ! clock $end
$var wire 32 ; data_rd1_out [31:0] $end
$var wire 32 < data_rd2_out [31:0] $end
$var wire 32 = data_rd3_out [31:0] $end
$var wire 32 > data_rd4_out [31:0] $end
$var wire 3 ? destination [2:0] $end
$var wire 6 @ operationnumber [5:0] $end
$var wire 16 A reg_rd1_out [15:0] $end
$var wire 16 B reg_rd2_out [15:0] $end
$var wire 16 C reg_rd3_out [15:0] $end
$var wire 3 D source_1 [2:0] $end
$var wire 3 E source_2 [2:0] $end
$var wire 3 F unsigned_1 [2:0] $end
$var wire 6 G unsigned_2 [5:0] $end
$var wire 9 H unsigned_3 [8:0] $end
$var reg 20 I data_rd1 [19:0] $end
$var reg 20 J data_rd2 [19:0] $end
$var reg 20 K data_rd3 [19:0] $end
$var reg 20 L data_rd4 [19:0] $end
$var reg 20 M data_wr1 [19:0] $end
$var reg 32 N data_wr1_data [31:0] $end
$var reg 1 O data_wr1_enable $end
$var reg 20 P data_wr2 [19:0] $end
$var reg 32 Q data_wr2_data [31:0] $end
$var reg 1 R data_wr2_enable $end
$var reg 20 S data_wr3 [19:0] $end
$var reg 32 T data_wr3_data [31:0] $end
$var reg 1 U data_wr3_enable $end
$var reg 20 V data_wr4 [19:0] $end
$var reg 32 W data_wr4_data [31:0] $end
$var reg 1 X data_wr4_enable $end
$var reg 6 Y reg_rd1 [5:0] $end
$var reg 6 Z reg_rd2 [5:0] $end
$var reg 6 [ reg_rd3 [5:0] $end
$var reg 6 \ reg_wr1 [5:0] $end
$var reg 16 ] reg_wr1_data [15:0] $end
$var reg 1 ^ reg_wr1_enable $end
$var reg 6 _ reg_wr2 [5:0] $end
$var reg 16 ` reg_wr2_data [15:0] $end
$var reg 1 a reg_wr2_enable $end
$upscope $end
$upscope $end
$enddefinitions $end
#16
$dumpvars
0a
bx `
bx _
1^
b101 ]
b0 \
b0 [
b10 Z
b1 Y
xX
bx W
bx V
xU
bx T
bx S
xR
bx Q
bx P
xO
bx N
bx M
bx L
bx K
bx J
bx I
b1010 H
b1010 G
b10 F
b10 E
b1 D
b101 C
b10 B
b11 A
b1 @
b0 ?
bz >
bz =
bz <
bz ;
b1000001010 :
b1000001010 9
b1010 8
b1010 7
b10 6
b10 5
b1 4
b1 3
b1 2
b0 1
b1000001010 0
0/
0.
0-
bx ,
bx +
1*
b101 )
b0 (
b101 '
b0 &
b10 %
b10 $
b11 #
b1 "
0!
$end
#17
1^
1*
1!
#18
0!
#19
1^
1*
1!
#20
b1000010 8
b1000010 H
b10 7
b10 G
b0 4
b0 D
b1 1
b1 ?
0!
b1001000010 :
b1001000010 0
b1001000010 9
#21
b111 ]
b111 )
b1 \
b1 (
b1 [
b111 '
b111 C
b1 &
b0 Y
b101 #
b101 A
b0 "
1^
1*
1!
#22
0!
#23
1^
1*
1!
#24
0!
#25
1^
1*
1!
#26
0!
#27
1^
1*
1!
#28
0!
#29
1^
1*
1!
#30
b10 3
b10 @
b11000010 8
b11000010 H
b11 1
b11 ?
b10 2
0!
b10011000010 :
b10011000010 0
b10011000010 9
#31
b11 ]
b11 )
b11 \
b11 (
b11 [
b11 '
b11 C
b11 &
1^
1*
1!
#32
0!
#33
1^
1*
1!
#34
0!
#35
1^
1*
1!
#36
0!
#37
1^
1*
1!
#38
0!
#39
1^
1*
1!
#40
b11 3
b11 @
b10000001 8
b10000001 H
b1 7
b1 G
b1 6
b1 F
b1 5
b1 E
b10 1
b10 ?
b11 2
0!
b11010000001 :
b11010000001 0
b11010000001 9
#41
b101 ]
b101 )
b10 \
b10 (
b10 [
b101 '
b101 C
b10 &
b1 Z
b111 %
b111 B
b1 $
1^
1*
1!
#42
0!
#43
1^
1*
1!
#44
0!
#45
1^
1*
1!
#46
0!
#47
1^
1*
1!
#48
0!
#49
1^
1*
1!
#50
b1010 3
b1010 @
b10110 8
b10110 H
b10110 7
b10110 G
b110 6
b110 F
b110 5
b110 E
b10 4
b10 D
b0 1
b0 ?
b1010 2
0!
b1010000010110 :
b1010000010110 0
b1010000010110 9
#51
b1011 '
b1011 C
b1011 ]
b1011 )
b0 \
b0 (
b0 [
b0 &
b110 Z
b0 %
b0 B
b110 $
b10 Y
b10 "
1^
1*
1!
#52
0!
#53
1^
1*
1!
#54
0!
#55
1^
1*
1!
#56
0!
#57
1^
1*
1!
#58
0!
#59
1^
1*
1!
#60
b1101 3
b1101 @
b1010010 8
b1010010 H
b10010 7
b10010 G
b10 6
b10 F
b10 5
b10 E
b1 1
b1 ?
b1101 2
0!
b1101001010010 :
b1101001010010 0
b1101001010010 9
#61
b10100 ]
b10100 )
b1 \
b1 (
b1 [
b10100 '
b10100 C
b1 &
b10 Z
b101 %
b101 B
b10 $
1^
1*
1!
#62
0!
#63
1^
1*
1!
#64
0!
#65
1^
1*
1!
#66
0!
#67
1^
1*
1!
#68
0!
#69
1^
1*
1!
#70
0!
#71
1^
1*
1!
#72
0!
#73
1^
1*
1!
#74
0!
#75
1^
1*
1!
#76
0!
#77
1^
1*
1!
#78
0!
#79
1^
1*
1!
#80
0!
#81
1^
1*
1!
#82
0!
#83
1^
1*
1!
#84
0!
#85
1^
1*
1!
#86
0!
#87
1^
1*
1!
#88
0!
#89
1^
1*
1!
#90
0!
#91
1^
1*
1!
#92
0!
#93
1^
1*
1!
#94
0!
#95
1^
1*
1!
#96
0!
#97
1^
1*
1!
#98
0!
#99
1^
1*
1!
#100
0!
#101
1^
1*
1!
#102
0!
#103
1^
1*
1!
#104
0!
#105
1^
1*
1!
#106
0!
#107
1^
1*
1!
#108
0!
#109
1^
1*
1!
#110
0!
#111
1^
1*
1!
#112
0!
#113
1^
1*
1!
#114
0!
#115
1^
1*
1!
#116
0!
#117
1^
1*
1!
#118
0!
#119
1^
1*
1!
#120
0!
#121
1^
1*
1!
#122
0!
#123
1^
1*
1!
#124
0!
#125
1^
1*
1!
#126
0!
#127
1^
1*
1!
#128
0!
#129
1^
1*
1!
#130
0!
#131
1^
1*
1!
#132
0!
#133
1^
1*
1!
#134
0!
#135
1^
1*
1!
#136
0!
#137
1^
1*
1!
#138
0!
#139
1^
1*
1!
#140
0!
#141
1^
1*
1!
#142
0!
#143
1^
1*
1!
#144
0!
#145
1^
1*
1!
#146
0!
#147
1^
1*
1!
#148
0!
#149
1^
1*
1!
#150
0!
#151
1^
1*
1!
#152
0!
#153
1^
1*
1!
#154
0!
#155
1^
1*
1!
#156
0!
#157
1^
1*
1!
#158
0!
#159
1^
1*
1!
#160
0!
#161
1^
1*
1!
#162
0!
#163
1^
1*
1!
#164
0!
#165
1^
1*
1!
#166
0!
#167
1^
1*
1!
#168
0!
#169
1^
1*
1!
#170
0!
#171
1^
1*
1!
#172
0!
#173
1^
1*
1!
#174
0!
#175
1^
1*
1!
#176
0!
#177
1^
1*
1!
#178
0!
#179
1^
1*
1!
#180
0!
#181
1^
1*
1!
#182
0!
#183
1^
1*
1!
#184
0!
#185
1^
1*
1!
#186
0!
#187
1^
1*
1!
#188
0!
#189
1^
1*
1!
#190
0!
#191
1^
1*
1!
#192
0!
#193
1^
1*
1!
#194
0!
#195
1^
1*
1!
#196
0!
#197
1^
1*
1!
#198
0!
#199
1^
1*
1!
#200
0!
#201
1^
1*
1!
#202
0!
#203
1^
1*
1!
#204
0!
#205
1^
1*
1!
#206
0!
#207
1^
1*
1!
#208
0!
#209
1^
1*
1!
#210
0!
#211
1^
1*
1!
#212
0!
#213
1^
1*
1!
#214
0!
#215
1^
1*
1!
#216
0!
#217
1^
1*
1!
#218
0!
#219
1^
1*
1!
#220
0!
#221
1^
1*
1!
#222
0!
#223
1^
1*
1!
#224
0!
#225
1^
1*
1!
#226
0!
#227
1^
1*
1!
#228
0!
#229
1^
1*
1!
#230
0!
#231
1^
1*
1!
#232
0!
#233
1^
1*
1!
#234
0!
#235
1^
1*
1!
#236
0!
#237
1^
1*
1!
#238
0!
#239
1^
1*
1!
#240
0!
#241
1^
1*
1!
#242
0!
#243
1^
1*
1!
#244
0!
#245
1^
1*
1!
#246
0!
#247
1^
1*
1!
#248
0!
#249
1^
1*
1!
#250
0!
#251
1^
1*
1!
#252
0!
#253
1^
1*
1!
#254
0!
#255
1^
1*
1!
#256
0!
#257
1^
1*
1!
#258
0!
#259
1^
1*
1!
#260
0!
#261
1^
1*
1!
#262
0!
#263
1^
1*
1!
#264
0!
#265
1^
1*
1!
#266
0!
#267
1^
1*
1!
#268
0!
#269
1^
1*
1!
#270
0!
#271
1^
1*
1!
#272
0!
#273
1^
1*
1!
#274
0!
#275
1^
1*
1!
#276
0!
#277
1^
1*
1!
#278
0!
#279
1^
1*
1!
#280
0!
#281
1^
1*
1!
#282
0!
#283
1^
1*
1!
#284
0!
#285
1^
1*
1!
#286
0!
#287
1^
1*
1!
#288
0!
#289
1^
1*
1!
#290
0!
#291
1^
1*
1!
#292
0!
#293
1^
1*
1!
#294
0!
#295
1^
1*
1!
#296
0!
#297
1^
1*
1!
#298
0!
#299
1^
1*
1!
#300
0!
#301
1^
1*
1!
#302
0!
#303
1^
1*
1!
#304
0!
#305
1^
1*
1!
#306
0!
#307
1^
1*
1!
#308
0!
#309
1^
1*
1!
#310
0!
#311
1^
1*
1!
#312
0!
#313
1^
1*
1!
#314
0!
#315
1^
1*
1!
#316
0!
#317
1^
1*
1!
#318
0!
#319
1^
1*
1!
#320
0!
#321
1^
1*
1!
#322
0!
#323
1^
1*
1!
#324
0!
#325
1^
1*
1!
#326
0!
#327
1^
1*
1!
#328
0!
#329
1^
1*
1!
#330
0!
#331
1^
1*
1!
#332
0!
#333
1^
1*
1!
#334
0!
#335
1^
1*
1!
#336
0!
#337
1^
1*
1!
#338
0!
#339
1^
1*
1!
#340
0!
#341
1^
1*
1!
#342
0!
#343
1^
1*
1!
#344
0!
#345
1^
1*
1!
#346
0!
#347
1^
1*
1!
#348
0!
#349
1^
1*
1!
#350
0!
#351
1^
1*
1!
#352
0!
#353
1^
1*
1!
#354
0!
#355
1^
1*
1!
#356
0!
#357
1^
1*
1!
#358
0!
#359
1^
1*
1!
#360
0!
#361
1^
1*
1!
#362
0!
#363
1^
1*
1!
#364
0!
#365
1^
1*
1!
#366
0!
#367
1^
1*
1!
#368
0!
#369
1^
1*
1!
#370
0!
#371
1^
1*
1!
#372
0!
#373
1^
1*
1!
#374
0!
#375
1^
1*
1!
#376
0!
#377
1^
1*
1!
#378
0!
#379
1^
1*
1!
#380
0!
#381
1^
1*
1!
#382
0!
#383
1^
1*
1!
#384
0!
#385
1^
1*
1!
#386
0!
#387
1^
1*
1!
#388
0!
#389
1^
1*
1!
#390
0!
#391
1^
1*
1!
#392
0!
#393
1^
1*
1!
#394
0!
#395
1^
1*
1!
#396
0!
#397
1^
1*
1!
#398
0!
#399
1^
1*
1!
#400
0!
#401
1^
1*
1!
#402
0!
#403
1^
1*
1!
#404
0!
#405
1^
1*
1!
#406
0!
#407
1^
1*
1!
#408
0!
#409
1^
1*
1!
#410
0!
#411
1^
1*
1!
#412
0!
#413
1^
1*
1!
#414
0!
#415
1^
1*
1!
#416
0!
#417
1^
1*
1!
#418
0!
#419
1^
1*
1!
#420
0!
#421
1^
1*
1!
#422
0!
#423
1^
1*
1!
#424
0!
#425
1^
1*
1!
#426
0!
#427
1^
1*
1!
#428
0!
#429
1^
1*
1!
#430
0!
#431
1^
1*
1!
#432
0!
#433
1^
1*
1!
#434
0!
#435
1^
1*
1!
#436
0!
#437
1^
1*
1!
#438
0!
#439
1^
1*
1!
#440
0!
#441
1^
1*
1!
#442
0!
#443
1^
1*
1!
#444
0!
#445
1^
1*
1!
#446
0!
#447
1^
1*
1!
#448
0!
#449
1^
1*
1!
#450
0!
#451
1^
1*
1!
#452
0!
#453
1^
1*
1!
#454
0!
#455
1^
1*
1!
#456
0!
#457
1^
1*
1!
#458
0!
#459
1^
1*
1!
#460
0!
#461
1^
1*
1!
#462
0!
#463
1^
1*
1!
#464
0!
#465
1^
1*
1!
#466
0!
#467
1^
1*
1!
#468
0!
#469
1^
1*
1!
#470
0!
#471
1^
1*
1!
#472
0!
#473
1^
1*
1!
#474
0!
#475
1^
1*
1!
#476
0!
#477
1^
1*
1!
#478
0!
#479
1^
1*
1!
#480
0!
#481
1^
1*
1!
#482
0!
#483
1^
1*
1!
#484
0!
#485
1^
1*
1!
#486
0!
#487
1^
1*
1!
#488
0!
#489
1^
1*
1!
#490
0!
#491
1^
1*
1!
#492
0!
#493
1^
1*
1!
#494
0!
#495
1^
1*
1!
#496
0!
#497
1^
1*
1!
#498
0!
#499
1^
1*
1!
#500
0!
#501
1^
1*
1!
#502
0!
#503
1^
1*
1!
#504
0!
#505
1^
1*
1!
#506
0!
#507
1^
1*
1!
#508
0!
#509
1^
1*
1!
