Pipeline/Parts/Old/executetest/execution_tb.vcd
$date
	Wed Jul 22 09:27:56 2015
$end
$version
	Icarus Verilog
$end
$timescale
	1s
$end
$scope module testbench $end
$scope module registerfile_tb $end
$var wire 1 ! clock $end
$var wire 6 " reg_rd1 [5:0] $end
$var wire 16 # reg_rd1_out [15:0] $end
$var wire 6 $ reg_rd2 [5:0] $end
$var wire 16 % reg_rd2_out [15:0] $end
$var wire 6 & reg_rd3 [5:0] $end
$var wire 16 ' reg_rd3_out [15:0] $end
$var wire 6 ( reg_wr1 [5:0] $end
$var wire 16 ) reg_wr1_data [15:0] $end
$var wire 1 * reg_wr1_enable $end
$var wire 6 + reg_wr2 [5:0] $end
$var wire 16 , reg_wr2_data [15:0] $end
$var wire 1 - reg_wr2_enable $end
$var wire 1 . reset $end
$upscope $end
$upscope $end
$scope module testbench $end
$scope module sixteenbbitdecoder_test $end
$var wire 1 / bit_check $end
$var wire 16 0 fetchoutput [15:0] $end
$var reg 3 1 destination [2:0] $end
$var reg 6 2 opcode [5:0] $end
$var reg 6 3 operationnumber [5:0] $end
$var reg 3 4 source_1 [2:0] $end
$var reg 3 5 source_2 [2:0] $end
$var reg 3 6 unsigned_1 [2:0] $end
$var reg 6 7 unsigned_2 [5:0] $end
$var reg 9 8 unsigned_3 [8:0] $end
$upscope $end
$upscope $end
$scope module testbench $end
$scope module fetch_test $end
$var wire 1 ! clock $end
$var wire 16 9 fetchoutput [15:0] $end
$var wire 20 : instruction_rd1 [19:0] $end
$var wire 16 ; instruction_rd1_out [15:0] $end
$var reg 20 < programcounter [19:0] $end
$upscope $end
$upscope $end
$scope module testbench $end
$scope module execution_test $end
$var wire 1 ! clock $end
$var wire 32 = data_rd1_out [31:0] $end
$var wire 32 > data_rd2_out [31:0] $end
$var wire 32 ? data_rd3_out [31:0] $end
$var wire 32 @ data_rd4_out [31:0] $end
$var wire 3 A destination [2:0] $end
$var wire 6 B operationnumber [5:0] $end
$var wire 16 C reg_rd1_out [15:0] $end
$var wire 16 D reg_rd2_out [15:0] $end
$var wire 16 E reg_rd3_out [15:0] $end
$var wire 3 F source_1 [2:0] $end
$var wire 3 G source_2 [2:0] $end
$var wire 3 H unsigned_1 [2:0] $end
$var wire 6 I unsigned_2 [5:0] $end
$var wire 9 J unsigned_3 [8:0] $end
$var reg 9 K data_rd1 [8:0] $end
$var reg 9 L data_rd2 [8:0] $end
$var reg 9 M data_rd3 [8:0] $end
$var reg 9 N data_rd4 [8:0] $end
$var reg 9 O data_wr1 [8:0] $end
$var reg 32 P data_wr1_data [31:0] $end
$var reg 1 Q data_wr1_enable $end
$var reg 9 R data_wr2 [8:0] $end
$var reg 32 S data_wr2_data [31:0] $end
$var reg 1 T data_wr2_enable $end
$var reg 9 U data_wr3 [8:0] $end
$var reg 32 V data_wr3_data [31:0] $end
$var reg 1 W data_wr3_enable $end
$var reg 9 X data_wr4 [8:0] $end
$var reg 32 Y data_wr4_data [31:0] $end
$var reg 1 Z data_wr4_enable $end
$var reg 6 [ reg_rd1 [5:0] $end
$var reg 6 \ reg_rd2 [5:0] $end
$var reg 6 ] reg_rd3 [5:0] $end
$var reg 6 ^ reg_wr1 [5:0] $end
$var reg 16 _ reg_wr1_data [15:0] $end
$var reg 1 ` reg_wr1_enable $end
$var reg 6 a reg_wr2 [5:0] $end
$var reg 16 b reg_wr2_data [15:0] $end
$var reg 1 c reg_wr2_enable $end
$upscope $end
$upscope $end
$scope module testbench $end
$scope module TheInstructionMemory_test $end
$var wire 1 ! clock $end
$var wire 20 d instruction_rd1 [19:0] $end
$var wire 16 e instruction_rd1_out [15:0] $end
$var wire 20 f instruction_rd2 [19:0] $end
$var wire 16 g instruction_rd2_out [15:0] $end
$var wire 20 h instruction_rd3 [19:0] $end
$var wire 16 i instruction_rd3_out [15:0] $end
$var wire 20 j instruction_rd4 [19:0] $end
$var wire 16 k instruction_rd4_out [15:0] $end
$var wire 20 l instruction_wr1 [19:0] $end
$var wire 16 m instruction_wr1_data [15:0] $end
$var wire 1 n instruction_wr1_enable $end
$var wire 20 o instruction_wr2 [19:0] $end
$var wire 16 p instruction_wr2_data [15:0] $end
$var wire 1 q instruction_wr2_enable $end
$var wire 20 r instruction_wr3 [19:0] $end
$var wire 16 s instruction_wr3_data [15:0] $end
$var wire 1 t instruction_wr3_enable $end
$var wire 20 u instruction_wr4 [19:0] $end
$var wire 16 v instruction_wr4_data [15:0] $end
$var wire 1 w instruction_wr4_enable $end
$var wire 1 . reset $end
$upscope $end
$upscope $end
$enddefinitions $end
#0
$dumpvars
zw
bxz v
bxz u
zt
bxz s
bxz r
zq
bxz p
bxz o
zn
bxz m
bxz l
bx k
bz j
bx i
bz h
bx g
bz f
bx e
b0 d
xc
bx b
bx a
x`
bx _
bx ^
bx ]
bx \
bx [
xZ
bx Y
bx X
xW
bx V
bx U
xT
bx S
bx R
xQ
bx P
bx O
bx N
bx M
bx L
bx K
bx J
bx I
bx H
bx G
bx F
bx E
bx D
bx C
bx B
bx A
bz @
bz ?
bz >
bz =
b0 <
bx ;
b0 :
bx 9
bx 8
bx 7
bx 6
bx 5
bx 4
bx 3
bx 2
bx 1
bx 0
x/
x.
x-
bx ,
bx +
x*
bx )
bx (
bx '
bx &
bx %
bx $
bx #
bx "
0!
$end
#1
b1 <
b1 :
b1 d
b0xxx ]
b0xxx &
b0xxx \
b0xxx $
b0xxx [
b0xxx "
0c
0-
0`
0*
1!
#2
0/
b0 0
b0 9
b0 ;
b0 e
0!
1.
#3
b10 <
b10 :
b10 d
1!
#4
0!
0.
#5
b1 3
b1 B
b1010 8
b1010 J
b1010 7
b1010 I
b10 6
b10 H
b10 5
b10 G
b1 4
b1 F
b0 1
b0 A
b1 2
b11 <
b1000001010 0
b1000001010 9
b1000001010 ;
b1000001010 e
b11 :
b11 d
1!
#6
0!
#7
b1000010 8
b1000010 J
b10 7
b10 I
b0 4
b0 F
b1 1
b1 A
b100 <
b1001000010 0
b1001000010 9
b1001000010 ;
b1001000010 e
b100 :
b100 d
1`
1*
b101 _
b101 )
b0 ^
b0 (
b0 ]
b101 '
b101 E
b0 &
b10 \
b10 %
b10 D
b10 $
b1 [
b11 #
b11 C
b1 "
1!
#8
0!
#9
b10 3
b10 B
b11000010 8
b11000010 J
b11 1
b11 A
b10 2
b101 <
b10011000010 0
b10011000010 9
b10011000010 ;
b10011000010 e
b101 :
b101 d
b111 _
b111 )
b1 ^
b1 (
b1 ]
b111 '
b111 E
b1 &
b0 [
b101 #
b101 C
b0 "
1`
1*
1!
#10
0!
#11
b11 3
b11 B
b10000001 8
b10000001 J
b1 7
b1 I
b1 6
b1 H
b1 5
b1 G
b10 1
b10 A
b11 2
b110 <
b11010000001 0
b11010000001 9
b11010000001 ;
b11010000001 e
b110 :
b110 d
b11 _
b11 )
b11 ^
b11 (
b11 ]
b11 '
b11 E
b11 &
1`
1*
1!
#12
0!
#13
b1010 3
b1010 B
b10110 8
b10110 J
b10110 7
b10110 I
b110 6
b110 H
b110 5
b110 G
b10 4
b10 F
b0 1
b0 A
b1010 2
b111 <
b1010000010110 0
b1010000010110 9
b1010000010110 ;
b1010000010110 e
b111 :
b111 d
b101 _
b101 )
b10 ^
b10 (
b10 ]
b101 '
b101 E
b10 &
b1 \
b111 %
b111 D
b1 $
1`
1*
1!
#14
0!
#15
b1101 3
b1101 B
b1010010 8
b1010010 J
b10010 7
b10010 I
b10 6
b10 H
b10 5
b10 G
b1 1
b1 A
b1101 2
b1000 <
b1101001010010 0
b1101001010010 9
b1101001010010 ;
b1101001010010 e
b1000 :
b1000 d
b1011 '
b1011 E
b1011 _
b1011 )
b0 ^
b0 (
b0 ]
b0 &
b110 \
b0 %
b0 D
b110 $
b10 [
b10 "
1`
1*
1!
#16
0!
#17
b0 3
b0 B
b0 8
b0 J
b0 7
b0 I
b0 6
b0 H
b0 5
b0 G
b0 4
b0 F
b0 1
b0 A
b0 2
b1001 <
b0 0
b0 9
b0 ;
b0 e
b1001 :
b1001 d
b10100 _
b10100 )
b1 ^
b1 (
b1 ]
b10100 '
b10100 E
b1 &
b10 \
b101 %
b101 D
b10 $
1`
1*
1!
#18
0!
#19
b1010 <
b1010 :
b1010 d
b0 ]
b1011 '
b1011 E
b0 &
b0 \
b1011 %
b1011 D
b0 $
b0 [
b1011 #
b1011 C
b0 "
0`
0*
1!
#20
0!
#21
b1011 <
b1011 :
b1011 d
1!
#22
0!
#23
b1100 <
b1100 :
b1100 d
1!
#24
0!
#25
b1101 <
b1101 :
b1101 d
1!
#26
0!
#27
b1110 <
b1110 :
b1110 d
1!
#28
0!
#29
b1111 <
b1111 :
b1111 d
1!
#30
0!
#31
b10000 <
b10000 :
b10000 d
1!
#32
0!
#33
b10001 <
b10001 :
b10001 d
1!
#34
0!
#35
b10010 <
b10010 :
b10010 d
1!
#36
0!
#37
b10011 <
b10011 :
b10011 d
1!
#38
0!
#39
b10100 <
b10100 :
b10100 d
1!
#40
0!
#41
b10101 <
b10101 :
b10101 d
1!
#42
0!
#43
b10110 <
b10110 :
b10110 d
1!
#44
0!
#45
b10111 <
b10111 :
b10111 d
1!
#46
0!
#47
b11000 <
b11000 :
b11000 d
1!
#48
0!
#49
b11001 <
b11001 :
b11001 d
1!
#50
0!
#51
b11010 <
b11010 :
b11010 d
1!
#52
0!
#53
b11011 <
b11011 :
b11011 d
1!
#54
0!
#55
b11100 <
b11100 :
b11100 d
1!
#56
0!
#57
b11101 <
b11101 :
b11101 d
1!
#58
0!
#59
b11110 <
b11110 :
b11110 d
1!
#60
0!
#61
b11111 <
b11111 :
b11111 d
1!
#62
0!
#63
b100000 <
b100000 :
b100000 d
1!
#64
0!
#65
b100001 <
b100001 :
b100001 d
1!
#66
0!
#67
b100010 <
b100010 :
b100010 d
1!
#68
0!
#69
b100011 <
b100011 :
b100011 d
1!
#70
0!
#71
b100100 <
b100100 :
b100100 d
1!
#72
0!
#73
b100101 <
b100101 :
b100101 d
1!
#74
0!
#75
b100110 <
b100110 :
b100110 d
1!
#76
0!
#77
b100111 <
b100111 :
b100111 d
1!
#78
0!
#79
b101000 <
b101000 :
b101000 d
1!
#80
0!
#81
b101001 <
b101001 :
b101001 d
1!
#82
0!
#83
b101010 <
b101010 :
b101010 d
1!
#84
0!
#85
b101011 <
b101011 :
b101011 d
1!
#86
0!
#87
b101100 <
b101100 :
b101100 d
1!
#88
0!
#89
b101101 <
b101101 :
b101101 d
1!
#90
0!
#91
b101110 <
b101110 :
b101110 d
1!
#92
0!
#93
b101111 <
b101111 :
b101111 d
1!
#94
0!
#95
b110000 <
b110000 :
b110000 d
1!
#96
0!
#97
b110001 <
b110001 :
b110001 d
1!
#98
0!
#99
b110010 <
b110010 :
b110010 d
1!
#100
0!
#101
b110011 <
b110011 :
b110011 d
1!
#102
0!
#103
b110100 <
b110100 :
b110100 d
1!
#104
0!
#105
b110101 <
b110101 :
b110101 d
1!
#106
0!
#107
b110110 <
b110110 :
b110110 d
1!
#108
0!
#109
b110111 <
b110111 :
b110111 d
1!
#110
0!
#111
b111000 <
b111000 :
b111000 d
1!
#112
0!
#113
b111001 <
b111001 :
b111001 d
1!
#114
0!
#115
b111010 <
b111010 :
b111010 d
1!
#116
0!
#117
b111011 <
b111011 :
b111011 d
1!
#118
0!
#119
b111100 <
b111100 :
b111100 d
1!
#120
0!
#121
b111101 <
b111101 :
b111101 d
1!
#122
0!
#123
b111110 <
b111110 :
b111110 d
1!
#124
0!
#125
b111111 <
b111111 :
b111111 d
1!
#126
0!
#127
b1000000 <
b1000000 :
b1000000 d
1!
#128
0!
#129
b1000001 <
b1000001 :
b1000001 d
1!
#130
0!
#131
b1000010 <
b1000010 :
b1000010 d
1!
#132
0!
#133
b1000011 <
b1000011 :
b1000011 d
1!
#134
0!
#135
b1000100 <
b1000100 :
b1000100 d
1!
#136
0!
#137
b1000101 <
b1000101 :
b1000101 d
1!
#138
0!
#139
b1000110 <
b1000110 :
b1000110 d
1!
#140
0!
#141
b1000111 <
b1000111 :
b1000111 d
1!
#142
0!
#143
b1001000 <
b1001000 :
b1001000 d
1!
#144
0!
#145
b1001001 <
b1001001 :
b1001001 d
1!
#146
0!
#147
b1001010 <
b1001010 :
b1001010 d
1!
#148
0!
#149
b1001011 <
b1001011 :
b1001011 d
1!
#150
0!
#151
b1001100 <
b1001100 :
b1001100 d
1!
#152
0!
#153
b1001101 <
b1001101 :
b1001101 d
1!
#154
0!
#155
b1001110 <
b1001110 :
b1001110 d
1!
#156
0!
#157
b1001111 <
b1001111 :
b1001111 d
1!
#158
0!
#159
b1010000 <
b1010000 :
b1010000 d
1!
#160
0!
#161
b1010001 <
b1010001 :
b1010001 d
1!
#162
0!
#163
b1010010 <
b1010010 :
b1010010 d
1!
#164
0!
#165
b1010011 <
b1010011 :
b1010011 d
1!
#166
0!
#167
b1010100 <
b1010100 :
b1010100 d
1!
#168
0!
#169
b1010101 <
b1010101 :
b1010101 d
1!
#170
0!
#171
b1010110 <
b1010110 :
b1010110 d
1!
#172
0!
#173
b1010111 <
b1010111 :
b1010111 d
1!
#174
0!
#175
b1011000 <
b1011000 :
b1011000 d
1!
#176
0!
#177
b1011001 <
b1011001 :
b1011001 d
1!
#178
0!
#179
b1011010 <
b1011010 :
b1011010 d
1!
#180
0!
#181
b1011011 <
b1011011 :
b1011011 d
1!
#182
0!
#183
b1011100 <
b1011100 :
b1011100 d
1!
#184
0!
#185
b1011101 <
b1011101 :
b1011101 d
1!
#186
0!
#187
b1011110 <
b1011110 :
b1011110 d
1!
#188
0!
#189
b1011111 <
b1011111 :
b1011111 d
1!
#190
0!
#191
b1100000 <
b1100000 :
b1100000 d
1!
#192
0!
#193
b1100001 <
b1100001 :
b1100001 d
1!
#194
0!
#195
b1100010 <
b1100010 :
b1100010 d
1!
#196
0!
#197
b1100011 <
b1100011 :
b1100011 d
1!
#198
0!
#199
b1100100 <
b1100100 :
b1100100 d
1!
#200
0!
#201
b1100101 <
b1100101 :
b1100101 d
1!
#202
0!
#203
b1100110 <
b1100110 :
b1100110 d
1!
#204
0!
#205
b1100111 <
b1100111 :
b1100111 d
1!
#206
0!
#207
b1101000 <
b1101000 :
b1101000 d
1!
#208
0!
#209
b1101001 <
b1101001 :
b1101001 d
1!
#210
0!
#211
b1101010 <
b1101010 :
b1101010 d
1!
#212
0!
#213
b1101011 <
b1101011 :
b1101011 d
1!
#214
0!
#215
b1101100 <
b1101100 :
b1101100 d
1!
#216
0!
#217
b1101101 <
b1101101 :
b1101101 d
1!
#218
0!
#219
b1101110 <
b1101110 :
b1101110 d
1!
#220
0!
#221
b1101111 <
b1101111 :
b1101111 d
1!
#222
0!
#223
b1110000 <
b1110000 :
b1110000 d
1!
#224
0!
#225
b1110001 <
b1110001 :
b1110001 d
1!
#226
0!
#227
b1110010 <
b1110010 :
b1110010 d
1!
#228
0!
#229
b1110011 <
b1110011 :
b1110011 d
1!
#230
0!
#231
b1110100 <
b1110100 :
b1110100 d
1!
#232
0!
#233
b1110101 <
b1110101 :
b1110101 d
1!
#234
0!
#235
b1110110 <
b1110110 :
b1110110 d
1!
#236
0!
#237
b1110111 <
b1110111 :
b1110111 d
1!
#238
0!
#239
b1111000 <
b1111000 :
b1111000 d
1!
#240
0!
#241
b1111001 <
b1111001 :
b1111001 d
1!
#242
0!
#243
b1111010 <
b1111010 :
b1111010 d
1!
#244
0!
#245
b1111011 <
b1111011 :
b1111011 d
1!
#246
0!
#247
b1111100 <
b1111100 :
b1111100 d
1!
#248
0!
#249
b1111101 <
b1111101 :
b1111101 d
1!
#250
0!
#251
b1111110 <
b1111110 :
b1111110 d
1!
#252
0!
#253
b1111111 <
b1111111 :
b1111111 d
1!
#254
0!
#255
b10000000 <
b10000000 :
b10000000 d
1!
#256
0!
#257
b10000001 <
b10000001 :
b10000001 d
1!
#258
0!
#259
b10000010 <
b10000010 :
b10000010 d
1!
#260
0!
#261
b10000011 <
b10000011 :
b10000011 d
1!
#262
0!
#263
b10000100 <
b10000100 :
b10000100 d
1!
#264
0!
#265
b10000101 <
b10000101 :
b10000101 d
1!
#266
0!
#267
b10000110 <
b10000110 :
b10000110 d
1!
#268
0!
#269
b10000111 <
b10000111 :
b10000111 d
1!
#270
0!
#271
b10001000 <
b10001000 :
b10001000 d
1!
#272
0!
#273
b10001001 <
b10001001 :
b10001001 d
1!
#274
0!
#275
b10001010 <
b10001010 :
b10001010 d
1!
#276
0!
#277
b10001011 <
b10001011 :
b10001011 d
1!
#278
0!
#279
b10001100 <
b10001100 :
b10001100 d
1!
#280
0!
#281
b10001101 <
b10001101 :
b10001101 d
1!
#282
0!
#283
b10001110 <
b10001110 :
b10001110 d
1!
#284
0!
#285
b10001111 <
b10001111 :
b10001111 d
1!
#286
0!
#287
b10010000 <
b10010000 :
b10010000 d
1!
#288
0!
#289
b10010001 <
b10010001 :
b10010001 d
1!
#290
0!
#291
b10010010 <
b10010010 :
b10010010 d
1!
#292
0!
#293
b10010011 <
b10010011 :
b10010011 d
1!
#294
0!
#295
b10010100 <
b10010100 :
b10010100 d
1!
#296
0!
#297
b10010101 <
b10010101 :
b10010101 d
1!
#298
0!
#299
b10010110 <
b10010110 :
b10010110 d
1!
#300
0!
#301
b10010111 <
b10010111 :
b10010111 d
1!
#302
0!
#303
b10011000 <
b10011000 :
b10011000 d
1!
#304
0!
#305
b10011001 <
b10011001 :
b10011001 d
1!
#306
0!
#307
b10011010 <
b10011010 :
b10011010 d
1!
#308
0!
#309
b10011011 <
b10011011 :
b10011011 d
1!
#310
0!
#311
b10011100 <
b10011100 :
b10011100 d
1!
#312
0!
#313
b10011101 <
b10011101 :
b10011101 d
1!
#314
0!
#315
b10011110 <
b10011110 :
b10011110 d
1!
#316
0!
#317
b10011111 <
b10011111 :
b10011111 d
1!
#318
0!
#319
b10100000 <
b10100000 :
b10100000 d
1!
#320
0!
#321
b10100001 <
b10100001 :
b10100001 d
1!
#322
0!
#323
b10100010 <
b10100010 :
b10100010 d
1!
#324
0!
#325
b10100011 <
b10100011 :
b10100011 d
1!
#326
0!
#327
b10100100 <
b10100100 :
b10100100 d
1!
#328
0!
#329
b10100101 <
b10100101 :
b10100101 d
1!
#330
0!
#331
b10100110 <
b10100110 :
b10100110 d
1!
#332
0!
#333
b10100111 <
b10100111 :
b10100111 d
1!
#334
0!
#335
b10101000 <
b10101000 :
b10101000 d
1!
#336
0!
#337
b10101001 <
b10101001 :
b10101001 d
1!
#338
0!
#339
b10101010 <
b10101010 :
b10101010 d
1!
#340
0!
#341
b10101011 <
b10101011 :
b10101011 d
1!
#342
0!
#343
b10101100 <
b10101100 :
b10101100 d
1!
#344
0!
#345
b10101101 <
b10101101 :
b10101101 d
1!
#346
0!
#347
b10101110 <
b10101110 :
b10101110 d
1!
#348
0!
#349
b10101111 <
b10101111 :
b10101111 d
1!
#350
0!
#351
b10110000 <
b10110000 :
b10110000 d
1!
#352
0!
#353
b10110001 <
b10110001 :
b10110001 d
1!
#354
0!
#355
b10110010 <
b10110010 :
b10110010 d
1!
#356
0!
#357
b10110011 <
b10110011 :
b10110011 d
1!
#358
0!
#359
b10110100 <
b10110100 :
b10110100 d
1!
#360
0!
#361
b10110101 <
b10110101 :
b10110101 d
1!
#362
0!
#363
b10110110 <
b10110110 :
b10110110 d
1!
#364
0!
#365
b10110111 <
b10110111 :
b10110111 d
1!
#366
0!
#367
b10111000 <
b10111000 :
b10111000 d
1!
#368
0!
#369
b10111001 <
b10111001 :
b10111001 d
1!
#370
0!
#371
b10111010 <
b10111010 :
b10111010 d
1!
#372
0!
#373
b10111011 <
b10111011 :
b10111011 d
1!
#374
0!
#375
b10111100 <
b10111100 :
b10111100 d
1!
#376
0!
#377
b10111101 <
b10111101 :
b10111101 d
1!
#378
0!
#379
b10111110 <
b10111110 :
b10111110 d
1!
#380
0!
#381
b10111111 <
b10111111 :
b10111111 d
1!
#382
0!
#383
b11000000 <
b11000000 :
b11000000 d
1!
#384
0!
#385
b11000001 <
b11000001 :
b11000001 d
1!
#386
0!
#387
b11000010 <
b11000010 :
b11000010 d
1!
#388
0!
#389
b11000011 <
b11000011 :
b11000011 d
1!
#390
0!
#391
b11000100 <
b11000100 :
b11000100 d
1!
#392
0!
#393
b11000101 <
b11000101 :
b11000101 d
1!
#394
0!
#395
b11000110 <
b11000110 :
b11000110 d
1!
#396
0!
#397
b11000111 <
b11000111 :
b11000111 d
1!
#398
0!
#399
b11001000 <
b11001000 :
b11001000 d
1!
#400
0!
#401
b11001001 <
b11001001 :
b11001001 d
1!
#402
0!
#403
b11001010 <
b11001010 :
b11001010 d
1!
#404
0!
#405
b11001011 <
b11001011 :
b11001011 d
1!
#406
0!
#407
b11001100 <
b11001100 :
b11001100 d
1!
#408
0!
#409
b11001101 <
b11001101 :
b11001101 d
1!
#410
0!
#411
b11001110 <
b11001110 :
b11001110 d
1!
#412
0!
#413
b11001111 <
b11001111 :
b11001111 d
1!
#414
0!
#415
b11010000 <
b11010000 :
b11010000 d
1!
#416
0!
#417
b11010001 <
b11010001 :
b11010001 d
1!
#418
0!
#419
b11010010 <
b11010010 :
b11010010 d
1!
#420
0!
#421
b11010011 <
b11010011 :
b11010011 d
1!
#422
0!
#423
b11010100 <
b11010100 :
b11010100 d
1!
#424
0!
#425
b11010101 <
b11010101 :
b11010101 d
1!
#426
0!
#427
b11010110 <
b11010110 :
b11010110 d
1!
#428
0!
#429
b11010111 <
b11010111 :
b11010111 d
1!
#430
0!
#431
b11011000 <
b11011000 :
b11011000 d
1!
#432
0!
#433
b11011001 <
b11011001 :
b11011001 d
1!
#434
0!
#435
b11011010 <
b11011010 :
b11011010 d
1!
#436
0!
#437
b11011011 <
b11011011 :
b11011011 d
1!
#438
0!
#439
b11011100 <
b11011100 :
b11011100 d
1!
#440
0!
#441
b11011101 <
b11011101 :
b11011101 d
1!
#442
0!
#443
b11011110 <
b11011110 :
b11011110 d
1!
#444
0!
#445
b11011111 <
b11011111 :
b11011111 d
1!
#446
0!
#447
b11100000 <
b11100000 :
b11100000 d
1!
#448
0!
#449
b11100001 <
b11100001 :
b11100001 d
1!
#450
0!
#451
b11100010 <
b11100010 :
b11100010 d
1!
#452
0!
#453
b11100011 <
b11100011 :
b11100011 d
1!
#454
0!
#455
b11100100 <
b11100100 :
b11100100 d
1!
#456
0!
#457
b11100101 <
b11100101 :
b11100101 d
1!
#458
0!
#459
b11100110 <
b11100110 :
b11100110 d
1!
#460
0!
#461
b11100111 <
b11100111 :
b11100111 d
1!
#462
0!
#463
b11101000 <
b11101000 :
b11101000 d
1!
#464
0!
#465
b11101001 <
b11101001 :
b11101001 d
1!
#466
0!
#467
b11101010 <
b11101010 :
b11101010 d
1!
#468
0!
#469
b11101011 <
b11101011 :
b11101011 d
1!
#470
0!
#471
b11101100 <
b11101100 :
b11101100 d
1!
#472
0!
#473
b11101101 <
b11101101 :
b11101101 d
1!
#474
0!
#475
b11101110 <
b11101110 :
b11101110 d
1!
#476
0!
#477
b11101111 <
b11101111 :
b11101111 d
1!
#478
0!
#479
b11110000 <
b11110000 :
b11110000 d
1!
#480
0!
#481
b11110001 <
b11110001 :
b11110001 d
1!
#482
0!
#483
b11110010 <
b11110010 :
b11110010 d
1!
#484
0!
#485
b11110011 <
b11110011 :
b11110011 d
1!
#486
0!
#487
b11110100 <
b11110100 :
b11110100 d
1!
#488
0!
#489
b11110101 <
b11110101 :
b11110101 d
1!
#490
0!
#491
b11110110 <
b11110110 :
b11110110 d
1!
#492
0!
#493
b11110111 <
b11110111 :
b11110111 d
1!
#494
0!
#495
b11111000 <
b11111000 :
b11111000 d
1!
#496
0!
#497
b11111001 <
b11111001 :
b11111001 d
1!
#498
0!
#499
b11111010 <
b11111010 :
b11111010 d
1!
#500
0!
#501
b11111011 <
b11111011 :
b11111011 d
1!
#502
0!
#503
b11111100 <
b11111100 :
b11111100 d
1!
#504
0!
#505
b11111101 <
b11111101 :
b11111101 d
1!
